           aoa,              Cl,              Cd,              Cn,              Cc,         aoa_Cl0,    Cl_lin_slope,    Cl_lin_range,          Cd_Cl0,              Re,
     -0.174533,       -0.801800,        0.034430,       -0.795598,       -0.105324,       -0.056455,        6.638671,       -0.087266,        0.012146,   230544.261359, 
     -0.157080,       -0.686100,        0.026270,       -0.681763,       -0.081383,                ,                ,        0.174533,                ,                , 
     -0.139626,       -0.541300,        0.021050,       -0.538962,       -0.054489,                ,                ,                ,                ,                , 
     -0.122173,       -0.424800,        0.017710,       -0.423792,       -0.034192,                ,                ,                ,                ,                , 
     -0.104720,       -0.321000,        0.015070,       -0.320817,       -0.018566,                ,                ,                ,                ,                , 
     -0.087266,       -0.204700,        0.011700,       -0.204941,       -0.006185,                ,                ,                ,                ,                , 
     -0.069813,       -0.088400,        0.011870,       -0.089013,        0.005675,                ,                ,                ,                ,                , 
     -0.052360,        0.027100,        0.012230,        0.026423,        0.013632,                ,                ,                ,                ,                , 
     -0.034907,        0.142400,        0.012430,        0.141879,        0.017392,                ,                ,                ,                ,                , 
     -0.017453,        0.259400,        0.012500,        0.259142,        0.017025,                ,                ,                ,                ,                , 
      0.000000,        0.376900,        0.012600,        0.376900,        0.012600,                ,                ,                ,                ,                , 
      0.017453,        0.494000,        0.012780,        0.494148,        0.004157,                ,                ,                ,                ,                , 
      0.034907,        0.609900,        0.013050,        0.609984,       -0.008243,                ,                ,                ,                ,                , 
      0.052360,        0.723500,        0.013340,        0.723207,       -0.024543,                ,                ,                ,                ,                , 
      0.069813,        0.834900,        0.013570,        0.833813,       -0.044703,                ,                ,                ,                ,                , 
      0.087266,        0.940000,        0.013610,        0.937609,       -0.068368,                ,                ,                ,                ,                , 
      0.104720,        1.034800,        0.013580,        1.030551,       -0.094660,                ,                ,                ,                ,                , 
      0.122173,        1.117300,        0.013720,        1.110644,       -0.122547,                ,                ,                ,                ,                , 
      0.139626,        1.193000,        0.018410,        1.183952,       -0.147803,                ,                ,                ,                ,                , 
      0.157080,        1.221300,        0.024730,        1.210132,       -0.166628,                ,                ,                ,                ,                , 
      0.174533,        1.250400,        0.031400,        1.236856,       -0.186207,                ,                ,                ,                ,                , 
      0.191986,        1.281800,        0.038620,        1.265619,       -0.206669,                ,                ,                ,                ,                , 
      0.209440,        1.321900,        0.045440,        1.302461,       -0.230391,                ,                ,                ,                ,                , 
      0.226893,        1.372100,        0.051830,        1.348592,       -0.258154,                ,                ,                ,                ,                , 
      0.244346,        1.420000,        0.059280,        1.392161,       -0.286010,                ,                ,                ,                ,                , 
      0.261799,        1.422500,        0.071080,        1.392426,       -0.299512,                ,                ,                ,                ,                , 
