           aoa,              Cl,              Cd,              Cn,              Cc,         aoa_Cl0,    Cl_lin_slope,    Cl_lin_range,          Cd_Cl0,              Re,
     -0.174533,       -0.807100,        0.035040,       -0.800923,       -0.105644,       -0.056366,        6.595699,       -0.087266,        0.012674,   215098.687926, 
     -0.157080,       -0.696000,        0.027430,       -0.691722,       -0.081786,                ,                ,        0.174533,                ,                , 
     -0.139626,       -0.547800,        0.021810,       -0.545504,       -0.054641,                ,                ,                ,                ,                , 
     -0.122173,       -0.421800,        0.018210,       -0.420875,       -0.033330,                ,                ,                ,                ,                , 
     -0.104720,       -0.317300,        0.015390,       -0.317170,       -0.017861,                ,                ,                ,                ,                , 
     -0.087266,       -0.202600,        0.012070,       -0.202881,       -0.005634,                ,                ,                ,                ,                , 
     -0.069813,       -0.087600,        0.012350,       -0.088248,        0.006209,                ,                ,                ,                ,                , 
     -0.052360,        0.026100,        0.012770,        0.025396,        0.014118,                ,                ,                ,                ,                , 
     -0.034907,        0.141500,        0.012970,        0.140961,        0.017900,                ,                ,                ,                ,                , 
     -0.017453,        0.257500,        0.013040,        0.257233,        0.017532,                ,                ,                ,                ,                , 
      0.000000,        0.374300,        0.013140,        0.374300,        0.013140,                ,                ,                ,                ,                , 
      0.017453,        0.490500,        0.013320,        0.490658,        0.004758,                ,                ,                ,                ,                , 
      0.034907,        0.606300,        0.013590,        0.606405,       -0.007578,                ,                ,                ,                ,                , 
      0.052360,        0.718900,        0.013880,        0.718641,       -0.023763,                ,                ,                ,                ,                , 
      0.069813,        0.828900,        0.014120,        0.827866,       -0.043736,                ,                ,                ,                ,                , 
      0.087266,        0.932800,        0.014070,        0.930477,       -0.067282,                ,                ,                ,                ,                , 
      0.104720,        1.022900,        0.013900,        1.018749,       -0.093098,                ,                ,                ,                ,                , 
      0.122173,        1.117100,        0.014060,        1.110487,       -0.122185,                ,                ,                ,                ,                , 
      0.139626,        1.192500,        0.018510,        1.183471,       -0.147634,                ,                ,                ,                ,                , 
      0.157080,        1.215400,        0.025170,        1.204374,       -0.165270,                ,                ,                ,                ,                , 
      0.174533,        1.242300,        0.032080,        1.228997,       -0.184130,                ,                ,                ,                ,                , 
      0.191986,        1.275600,        0.039210,        1.259645,       -0.204906,                ,                ,                ,                ,                , 
      0.209440,        1.322800,        0.045520,        1.303358,       -0.230500,                ,                ,                ,                ,                , 
      0.226893,        1.371100,        0.052440,        1.347755,       -0.257334,                ,                ,                ,                ,                , 
      0.244346,        1.407100,        0.061080,        1.380080,       -0.281143,                ,                ,                ,                ,                , 
      0.261799,        1.412300,        0.073200,        1.383123,       -0.294824,                ,                ,                ,                ,                , 
