           aoa,              Cl,              Cd,              Cn,              Cc,         aoa_Cl0,    Cl_lin_slope,    Cl_lin_range,          Cd_Cl0,              Re,
     -0.174533,       -0.764700,        0.043960,       -0.760716,       -0.089497,       -0.055924,        6.285538,       -0.087266,        0.015927,   155613.619729, 
     -0.157080,       -0.756400,        0.034920,       -0.752550,       -0.083837,                ,                ,        0.174533,                ,                , 
     -0.139626,       -0.604500,        0.026470,       -0.602301,       -0.057918,                ,                ,                ,                ,                , 
     -0.122173,       -0.448800,        0.021410,       -0.448064,       -0.033445,                ,                ,                ,                ,                , 
     -0.104720,       -0.309700,        0.017160,       -0.309797,       -0.015306,                ,                ,                ,                ,                , 
     -0.087266,       -0.190400,        0.014350,       -0.190926,       -0.002299,                ,                ,                ,                ,                , 
     -0.069813,       -0.083400,        0.015330,       -0.084266,        0.009475,                ,                ,                ,                ,                , 
     -0.052360,        0.021400,        0.016080,        0.020529,        0.017178,                ,                ,                ,                ,                , 
     -0.034907,        0.130400,        0.016300,        0.129752,        0.020841,                ,                ,                ,                ,                , 
     -0.017453,        0.242300,        0.016350,        0.241978,        0.020576,                ,                ,                ,                ,                , 
      0.000000,        0.356000,        0.016410,        0.356000,        0.016410,                ,                ,                ,                ,                , 
      0.017453,        0.466900,        0.016600,        0.467119,        0.008449,                ,                ,                ,                ,                , 
      0.034907,        0.577700,        0.016870,        0.577937,       -0.003302,                ,                ,                ,                ,                , 
      0.052360,        0.684400,        0.017140,        0.684359,       -0.018702,                ,                ,                ,                ,                , 
      0.069813,        0.785100,        0.017200,        0.784387,       -0.037608,                ,                ,                ,                ,                , 
      0.087266,        0.875400,        0.016770,        0.873530,       -0.059590,                ,                ,                ,                ,                , 
      0.104720,        0.989700,        0.016140,        0.985965,       -0.087400,                ,                ,                ,                ,                , 
      0.122173,        1.113400,        0.016180,        1.107073,       -0.119630,                ,                ,                ,                ,                , 
      0.139626,        1.194100,        0.018930,        1.185114,       -0.147441,                ,                ,                ,                ,                , 
      0.157080,        1.192600,        0.027060,        1.182150,       -0.159837,                ,                ,                ,                ,                , 
      0.174533,        1.213400,        0.034700,        1.200991,       -0.176532,                ,                ,                ,                ,                , 
      0.191986,        1.259600,        0.041250,        1.244328,       -0.199851,                ,                ,                ,                ,                , 
      0.209440,        1.335100,        0.047000,        1.315697,       -0.231610,                ,                ,                ,                ,                , 
      0.226893,        1.387500,        0.055390,        1.364399,       -0.258149,                ,                ,                ,                ,                , 
      0.244346,        1.403800,        0.066860,        1.378276,       -0.274736,                ,                ,                ,                ,                , 
      0.261799,        1.348700,        0.084800,        1.324692,       -0.267159,                ,                ,                ,                ,                , 
