           aoa,              Cl,              Cd,              Cn,              Cc,         aoa_Cl0,    Cl_lin_slope,    Cl_lin_range,          Cd_Cl0,              Re,
     -0.174533,       -0.801700,        0.034490,       -0.795510,       -0.105248,       -0.056467,        6.636857,       -0.087266,        0.012165,   229773.104983, 
     -0.157080,       -0.686500,        0.026340,       -0.682169,       -0.081377,                ,                ,        0.174533,                ,                , 
     -0.139626,       -0.541600,        0.021070,       -0.539262,       -0.054511,                ,                ,                ,                ,                , 
     -0.122173,       -0.424700,        0.017730,       -0.423695,       -0.034160,                ,                ,                ,                ,                , 
     -0.104720,       -0.320900,        0.015090,       -0.320719,       -0.018536,                ,                ,                ,                ,                , 
     -0.087266,       -0.204600,        0.011710,       -0.204842,       -0.006167,                ,                ,                ,                ,                , 
     -0.069813,       -0.088400,        0.011890,       -0.089014,        0.005695,                ,                ,                ,                ,                , 
     -0.052360,        0.027200,        0.012250,        0.026522,        0.013657,                ,                ,                ,                ,                , 
     -0.034907,        0.142300,        0.012460,        0.141778,        0.017419,                ,                ,                ,                ,                , 
     -0.017453,        0.259300,        0.012520,        0.259042,        0.017044,                ,                ,                ,                ,                , 
      0.000000,        0.376800,        0.012630,        0.376800,        0.012630,                ,                ,                ,                ,                , 
      0.017453,        0.494000,        0.012810,        0.494148,        0.004187,                ,                ,                ,                ,                , 
      0.034907,        0.609700,        0.013070,        0.609785,       -0.008216,                ,                ,                ,                ,                , 
      0.052360,        0.723400,        0.013360,        0.723108,       -0.024518,                ,                ,                ,                ,                , 
      0.069813,        0.834600,        0.013600,        0.833516,       -0.044652,                ,                ,                ,                ,                , 
      0.087266,        0.939700,        0.013630,        0.937312,       -0.068322,                ,                ,                ,                ,                , 
      0.104720,        1.034200,        0.013590,        1.029955,       -0.094588,                ,                ,                ,                ,                , 
      0.122173,        1.117300,        0.013740,        1.110646,       -0.122527,                ,                ,                ,                ,                , 
      0.139626,        1.193000,        0.018420,        1.183953,       -0.147793,                ,                ,                ,                ,                , 
      0.157080,        1.221000,        0.024760,        1.209841,       -0.166551,                ,                ,                ,                ,                , 
      0.174533,        1.250100,        0.031420,        1.236564,       -0.186135,                ,                ,                ,                ,                , 
      0.191986,        1.281500,        0.038650,        1.265330,       -0.206582,                ,                ,                ,                ,                , 
      0.209440,        1.321800,        0.045450,        1.302365,       -0.230361,                ,                ,                ,                ,                , 
      0.226893,        1.371800,        0.051880,        1.348311,       -0.258038,                ,                ,                ,                ,                , 
      0.244346,        1.421400,        0.059220,        1.393505,       -0.286407,                ,                ,                ,                ,                , 
      0.261799,        1.419900,        0.071390,        1.389995,       -0.298540,                ,                ,                ,                ,                , 
