           aoa,              Cl,              Cd,              Cn,              Cc,         aoa_Cl0,    Cl_lin_slope,    Cl_lin_range,          Cd_Cl0,              Re,
     -0.174533,       -0.768800,        0.023950,       -0.761279,       -0.109915,       -0.053964,        6.808362,       -0.087266,        0.011623,   215799.932079, 
     -0.157080,       -0.674600,        0.021160,       -0.669605,       -0.084631,                ,                ,        0.174533,                ,                , 
     -0.139626,       -0.571800,        0.018940,       -0.568871,       -0.060824,                ,                ,                ,                ,                , 
     -0.122173,       -0.462700,        0.017170,       -0.461344,       -0.039347,                ,                ,                ,                ,                , 
     -0.104720,       -0.349200,        0.015740,       -0.348932,       -0.020848,                ,                ,                ,                ,                , 
     -0.087266,       -0.232600,        0.014510,       -0.232980,       -0.005818,                ,                ,                ,                ,                , 
     -0.069813,       -0.112600,        0.013030,       -0.113235,        0.005144,                ,                ,                ,                ,                , 
     -0.052360,        0.011400,        0.011480,        0.010784,        0.012061,                ,                ,                ,                ,                , 
     -0.034907,        0.132100,        0.011340,        0.131624,        0.015943,                ,                ,                ,                ,                , 
     -0.017453,        0.252000,        0.011370,        0.251763,        0.015766,                ,                ,                ,                ,                , 
      0.000000,        0.371300,        0.011500,        0.371300,        0.011500,                ,                ,                ,                ,                , 
      0.017453,        0.490000,        0.011710,        0.490130,        0.003157,                ,                ,                ,                ,                , 
      0.034907,        0.607800,        0.012010,        0.607849,       -0.009209,                ,                ,                ,                ,                , 
      0.052360,        0.724300,        0.012410,        0.723957,       -0.025514,                ,                ,                ,                ,                , 
      0.069813,        0.837800,        0.012990,        0.836665,       -0.045484,                ,                ,                ,                ,                , 
      0.087266,        0.941500,        0.014350,        0.939168,       -0.067762,                ,                ,                ,                ,                , 
      0.104720,        1.022900,        0.017820,        1.019159,       -0.089200,                ,                ,                ,                ,                , 
      0.122173,        1.101100,        0.020545,        1.095396,       -0.113798,                ,                ,                ,                ,                , 
      0.139626,        1.179300,        0.023270,        1.171062,       -0.141083,                ,                ,                ,                ,                , 
      0.157080,        1.233500,        0.026400,        1.222443,       -0.166887,                ,                ,                ,                ,                , 
      0.174533,        1.279300,        0.030690,        1.265194,       -0.191924,                ,                ,                ,                ,                , 
      0.191986,        1.308400,        0.035930,        1.291217,       -0.214385,                ,                ,                ,                ,                , 
      0.209440,        1.343100,        0.043090,        1.322709,       -0.237098,                ,                ,                ,                ,                , 
      0.226893,        1.366700,        0.051760,        1.343315,       -0.257007,                ,                ,                ,                ,                , 
      0.244346,        1.379800,        0.062150,        1.353849,       -0.273500,                ,                ,                ,                ,                , 
      0.261799,        1.384200,        0.074610,        1.356345,       -0.286190,                ,                ,                ,                ,                , 
