           aoa,              Cl,              Cd,              Cn,              Cc,         aoa_Cl0,    Cl_lin_slope,    Cl_lin_range,          Cd_Cl0,              Re,
     -0.174533,       -0.761700,        0.024280,       -0.754344,       -0.108357,       -0.054296,        6.799004,       -0.087266,        0.011429,   214767.240234, 
     -0.157080,       -0.669600,        0.021360,       -0.664698,       -0.083651,                ,                ,        0.174533,                ,                , 
     -0.139626,       -0.568300,        0.018990,       -0.565412,       -0.060287,                ,                ,                ,                ,                , 
     -0.122173,       -0.460200,        0.017090,       -0.458852,       -0.039122,                ,                ,                ,                ,                , 
     -0.104720,       -0.347100,        0.015550,       -0.346824,       -0.020817,                ,                ,                ,                ,                , 
     -0.087266,       -0.230400,        0.014170,       -0.230758,       -0.005965,                ,                ,                ,                ,                , 
     -0.069813,       -0.109000,        0.012220,       -0.109587,        0.004587,                ,                ,                ,                ,                , 
     -0.052360,        0.013600,        0.011330,        0.012988,        0.012026,                ,                ,                ,                ,                , 
     -0.034907,        0.133900,        0.011260,        0.133425,        0.015926,                ,                ,                ,                ,                , 
     -0.017453,        0.253700,        0.011290,        0.253464,        0.015716,                ,                ,                ,                ,                , 
      0.000000,        0.373000,        0.011420,        0.373000,        0.011420,                ,                ,                ,                ,                , 
      0.017453,        0.491600,        0.011630,        0.491728,        0.003049,                ,                ,                ,                ,                , 
      0.034907,        0.609400,        0.011920,        0.609445,       -0.009355,                ,                ,                ,                ,                , 
      0.052360,        0.725800,        0.012310,        0.725450,       -0.025692,                ,                ,                ,                ,                , 
      0.069813,        0.839600,        0.012830,        0.838450,       -0.045769,                ,                ,                ,                ,                , 
      0.087266,        0.947300,        0.013750,        0.944894,       -0.068865,                ,                ,                ,                ,                , 
      0.104720,        1.032100,        0.016730,        1.028195,       -0.091245,                ,                ,                ,                ,                , 
      0.122173,        1.106650,        0.019760,        1.100809,       -0.115254,                ,                ,                ,                ,                , 
      0.139626,        1.181200,        0.022790,        1.172876,       -0.141823,                ,                ,                ,                ,                , 
      0.157080,        1.231100,        0.025970,        1.220006,       -0.166936,                ,                ,                ,                ,                , 
      0.174533,        1.264200,        0.030070,        1.250216,       -0.189913,                ,                ,                ,                ,                , 
      0.191986,        1.307300,        0.036050,        1.290160,       -0.214057,                ,                ,                ,                ,                , 
      0.209440,        1.339300,        0.043500,        1.319077,       -0.235907,                ,                ,                ,                ,                , 
      0.226893,        1.360700,        0.052450,        1.337624,       -0.254985,                ,                ,                ,                ,                , 
      0.244346,        1.371800,        0.063150,        1.346329,       -0.270594,                ,                ,                ,                ,                , 
      0.261799,        1.374900,        0.075880,        1.347691,       -0.282556,                ,                ,                ,                ,                , 
