           aoa,              Cl,              Cd,              Cn,              Cc,         aoa_Cl0,    Cl_lin_slope,    Cl_lin_range,          Cd_Cl0,              Re,
     -0.174533,       -0.767900,        0.026490,       -0.760834,       -0.107257,       -0.052331,        6.740371,       -0.087266,        0.013629,   163859.819258, 
     -0.157080,       -0.676000,        0.023460,       -0.671347,       -0.082579,                ,                ,        0.174533,                ,                , 
     -0.139626,       -0.574500,        0.021100,       -0.571846,       -0.059060,                ,                ,                ,                ,                , 
     -0.122173,       -0.466900,        0.019250,       -0.465766,       -0.037794,                ,                ,                ,                ,                , 
     -0.104720,       -0.354900,        0.017800,       -0.354816,       -0.019395,                ,                ,                ,                ,                , 
     -0.087266,       -0.239700,        0.016660,       -0.240240,       -0.004295,                ,                ,                ,                ,                , 
     -0.069813,       -0.122000,        0.015390,       -0.122776,        0.006842,                ,                ,                ,                ,                , 
     -0.052360,       -0.000200,        0.013630,       -0.000913,        0.013601,                ,                ,                ,                ,                , 
     -0.034907,        0.120400,        0.013180,        0.119867,        0.017374,                ,                ,                ,                ,                , 
     -0.017453,        0.239600,        0.013200,        0.239333,        0.017380,                ,                ,                ,                ,                , 
      0.000000,        0.358100,        0.013340,        0.358100,        0.013340,                ,                ,                ,                ,                , 
      0.017453,        0.475800,        0.013580,        0.475965,        0.005274,                ,                ,                ,                ,                , 
      0.034907,        0.592400,        0.013930,        0.592525,       -0.006753,                ,                ,                ,                ,                , 
      0.052360,        0.707100,        0.014410,        0.706885,       -0.022617,                ,                ,                ,                ,                , 
      0.069813,        0.817100,        0.015300,        0.816177,       -0.041735,                ,                ,                ,                ,                , 
      0.087266,        0.910800,        0.017760,        0.908882,       -0.061689,                ,                ,                ,                ,                , 
      0.104720,        0.997700,        0.020500,        0.994377,       -0.083900,                ,                ,                ,                ,                , 
      0.122173,        1.075400,        0.023430,        1.070240,       -0.107803,                ,                ,                ,                ,                , 
      0.139626,        1.148200,        0.026070,        1.140654,       -0.133982,                ,                ,                ,                ,                , 
      0.157080,        1.202300,        0.029480,        1.192109,       -0.158964,                ,                ,                ,                ,                , 
      0.174533,        1.251700,        0.034140,        1.238612,       -0.183734,                ,                ,                ,                ,                , 
      0.191986,        1.292200,        0.040050,        1.276101,       -0.207249,                ,                ,                ,                ,                , 
      0.209440,        1.322800,        0.047330,        1.303734,       -0.228730,                ,                ,                ,                ,                , 
      0.226893,        1.342700,        0.056110,        1.320909,       -0.247370,                ,                ,                ,                ,                , 
      0.244346,        1.350500,        0.066500,        1.326472,       -0.262191,                ,                ,                ,                ,                , 
      0.261799,        1.358300,        0.076890,        1.331918,       -0.277284,                ,                ,                ,                ,                , 
