           aoa,              Cl,              Cd,              Cn,              Cc,         aoa_Cl0,    Cl_lin_slope,    Cl_lin_range,          Cd_Cl0,              Re,
     -0.174533,       -0.804600,        0.029170,       -0.797442,       -0.110990,       -0.056506,        6.742472,       -0.087266,        0.010692,   289634.023445, 
     -0.157080,       -0.663800,        0.022940,       -0.659216,       -0.081184,                ,                ,        0.174533,                ,                , 
     -0.139626,       -0.536900,        0.019160,       -0.534341,       -0.055749,                ,                ,                ,                ,                , 
     -0.122173,       -0.438000,        0.016450,       -0.436740,       -0.037051,                ,                ,                ,                ,                , 
     -0.104720,       -0.330400,        0.014120,       -0.330066,       -0.020494,                ,                ,                ,                ,                , 
     -0.087266,       -0.210200,        0.010700,       -0.210333,       -0.007661,                ,                ,                ,                ,                , 
     -0.069813,       -0.090500,        0.010540,       -0.091015,        0.004201,                ,                ,                ,                ,                , 
     -0.052360,        0.028200,        0.010740,        0.027599,        0.012201,                ,                ,                ,                ,                , 
     -0.034907,        0.146000,        0.010920,        0.145530,        0.016009,                ,                ,                ,                ,                , 
     -0.017453,        0.264900,        0.010990,        0.264668,        0.015611,                ,                ,                ,                ,                , 
      0.000000,        0.383600,        0.011090,        0.383600,        0.011090,                ,                ,                ,                ,                , 
      0.017453,        0.501900,        0.011280,        0.502020,        0.002519,                ,                ,                ,                ,                , 
      0.034907,        0.619400,        0.011520,        0.619425,       -0.010104,                ,                ,                ,                ,                , 
      0.052360,        0.735300,        0.011800,        0.734910,       -0.026699,                ,                ,                ,                ,                , 
      0.069813,        0.848400,        0.012050,        0.847174,       -0.047161,                ,                ,                ,                ,                , 
      0.087266,        0.958000,        0.012270,        0.955424,       -0.071272,                ,                ,                ,                ,                , 
      0.104720,        1.060000,        0.012560,        1.055506,       -0.098309,                ,                ,                ,                ,                , 
      0.122173,        1.142900,        0.013590,        1.136037,       -0.125796,                ,                ,                ,                ,                , 
      0.139626,        1.195700,        0.018100,        1.186583,       -0.148485,                ,                ,                ,                ,                , 
      0.157080,        1.240500,        0.023390,        1.228886,       -0.170955,                ,                ,                ,                ,                , 
      0.174533,        1.275100,        0.029370,        1.260828,       -0.192495,                ,                ,                ,                ,                , 
      0.191986,        1.303500,        0.036700,        1.286554,       -0.212694,                ,                ,                ,                ,                , 
      0.209440,        1.333000,        0.044310,        1.313083,       -0.233805,                ,                ,                ,                ,                , 
      0.226893,        1.365700,        0.051810,        1.342352,       -0.256734,                ,                ,                ,                ,                , 
      0.244346,        1.397200,        0.059870,        1.370181,       -0.279922,                ,                ,                ,                ,                , 
      0.261799,        1.419000,        0.069430,        1.388619,       -0.300200,                ,                ,                ,                ,                , 
