           aoa,              Cl,              Cd,              Cn,              Cc,         aoa_Cl0,    Cl_lin_slope,    Cl_lin_range,          Cd_Cl0,              Re,
     -0.174533,       -0.801100,        0.035140,       -0.795031,       -0.104503,       -0.056412,        6.598850,       -0.087266,        0.012635,   216148.250345, 
     -0.157080,       -0.695300,        0.027290,       -0.691009,       -0.081815,                ,                ,        0.174533,                ,                , 
     -0.139626,       -0.546900,        0.021780,       -0.544609,       -0.054546,                ,                ,                ,                ,                , 
     -0.122173,       -0.421700,        0.018160,       -0.420770,       -0.033368,                ,                ,                ,                ,                , 
     -0.104720,       -0.317600,        0.015380,       -0.317468,       -0.017902,                ,                ,                ,                ,                , 
     -0.087266,       -0.202700,        0.012040,       -0.202978,       -0.005672,                ,                ,                ,                ,                , 
     -0.069813,       -0.087300,        0.012320,       -0.087947,        0.006200,                ,                ,                ,                ,                , 
     -0.052360,        0.026400,        0.012730,        0.025698,        0.014094,                ,                ,                ,                ,                , 
     -0.034907,        0.141000,        0.012940,        0.140463,        0.017853,                ,                ,                ,                ,                , 
     -0.017453,        0.257400,        0.013010,        0.257134,        0.017500,                ,                ,                ,                ,                , 
      0.000000,        0.374300,        0.013110,        0.374300,        0.013110,                ,                ,                ,                ,                , 
      0.017453,        0.490600,        0.013300,        0.490757,        0.004736,                ,                ,                ,                ,                , 
      0.034907,        0.606400,        0.013560,        0.606504,       -0.007611,                ,                ,                ,                ,                , 
      0.052360,        0.719300,        0.013840,        0.719039,       -0.023824,                ,                ,                ,                ,                , 
      0.069813,        0.829600,        0.014080,        0.828561,       -0.043824,                ,                ,                ,                ,                , 
      0.087266,        0.933000,        0.014040,        0.930673,       -0.067330,                ,                ,                ,                ,                , 
      0.104720,        1.023800,        0.013880,        1.019642,       -0.093212,                ,                ,                ,                ,                , 
      0.122173,        1.116900,        0.014040,        1.110286,       -0.122181,                ,                ,                ,                ,                , 
      0.139626,        1.191500,        0.018580,        1.182490,       -0.147426,                ,                ,                ,                ,                , 
      0.157080,        1.214600,        0.025230,        1.203593,       -0.165086,                ,                ,                ,                ,                , 
      0.174533,        1.241600,        0.032140,        1.228318,       -0.183950,                ,                ,                ,                ,                , 
      0.191986,        1.273800,        0.039350,        1.257905,       -0.204425,                ,                ,                ,                ,                , 
      0.209440,        1.314400,        0.046200,        1.295283,       -0.228089,                ,                ,                ,                ,                , 
      0.226893,        1.364800,        0.052870,        1.341713,       -0.255498,                ,                ,                ,                ,                , 
      0.244346,        1.401200,        0.061600,        1.374481,       -0.279211,                ,                ,                ,                ,                , 
      0.261799,        1.415800,        0.072830,        1.386408,       -0.296088,                ,                ,                ,                ,                , 
