           aoa,              Cl,              Cd,              Cn,              Cc,         aoa_Cl0,    Cl_lin_slope,    Cl_lin_range,          Cd_Cl0,              Re,
     -0.174533,       -0.765600,        0.043615,       -0.761543,       -0.089993,       -0.055953,        6.301389,       -0.087266,        0.015759,   157824.099267,
     -0.157080,       -0.753400,        0.034340,       -0.749497,       -0.083941,                ,                ,        0.174533,                ,                ,
     -0.139626,       -0.600950,        0.026300,       -0.598762,       -0.057592,                ,                ,                ,                ,                ,
     -0.122173,       -0.445400,        0.021280,       -0.444673,       -0.033159,                ,                ,                ,                ,                ,
     -0.104720,       -0.308500,        0.017080,       -0.308596,       -0.015260,                ,                ,                ,                ,                ,
     -0.087266,       -0.190550,        0.014220,       -0.191064,       -0.002442,                ,                ,                ,                ,                ,
     -0.069813,       -0.082950,        0.015155,       -0.083806,        0.009331,                ,                ,                ,                ,                ,
     -0.052360,        0.021500,        0.015915,        0.020638,        0.017018,                ,                ,                ,                ,                ,
     -0.034907,        0.130750,        0.016135,        0.130107,        0.020688,                ,                ,                ,                ,                ,
     -0.017453,        0.243400,        0.016180,        0.243081,        0.020425,                ,                ,                ,                ,                ,
      0.000000,        0.357100,        0.016260,        0.357100,        0.016260,                ,                ,                ,                ,                ,
      0.017453,        0.468450,        0.016440,        0.468666,        0.008262,                ,                ,                ,                ,                ,
      0.034907,        0.579450,        0.016665,        0.579678,       -0.003567,                ,                ,                ,                ,                ,
      0.052360,        0.686550,        0.016920,        0.686495,       -0.019035,                ,                ,                ,                ,                ,
      0.069813,        0.787350,        0.017080,        0.786624,       -0.037885,                ,                ,                ,                ,                ,
      0.087266,        0.878150,        0.016640,        0.876259,       -0.059959,                ,                ,                ,                ,                ,
      0.104720,        0.989600,        0.015980,        0.985849,       -0.087549,                ,                ,                ,                ,                ,
      0.122173,        1.113450,        0.016065,        1.107108,       -0.119750,                ,                ,                ,                ,                ,
      0.139626,        1.192700,        0.018990,        1.183736,       -0.147186,                ,                ,                ,                ,                ,
      0.157080,        1.192050,        0.027085,        1.181611,       -0.159726,                ,                ,                ,                ,                ,
      0.174533,        1.212450,        0.034765,        1.200067,       -0.176303,                ,                ,                ,                ,                ,
      0.191986,        1.256250,        0.041455,        1.241079,       -0.199010,                ,                ,                ,                ,                ,
      0.209440,        1.318550,        0.047695,        1.299653,       -0.227490,                ,                ,                ,                ,                ,
      0.226893,        1.390150,        0.054975,        1.366888,       -0.259149,                ,                ,                ,                ,                ,
      0.244346,        1.419050,        0.065680,        1.392787,       -0.279570,                ,                ,                ,                ,                ,
      0.261799,        1.361800,        0.083420,        1.336988,       -0.271882,                ,                ,                ,                ,                ,
