           aoa,              Cl,              Cd,              Cn,              Cc,         aoa_Cl0,    Cl_lin_slope,    Cl_lin_range,          Cd_Cl0,              Re,
     -0.174533,       -0.790300,        0.036820,       -0.784687,       -0.100974,       -0.056328,        6.565428,       -0.087266,        0.013065,   205143.493225, 
     -0.157080,       -0.671550,        0.029630,       -0.667917,       -0.075788,                ,                ,        0.174533,                ,                , 
     -0.139626,       -0.552800,        0.022440,       -0.550543,       -0.054713,                ,                ,                ,                ,                , 
     -0.122173,       -0.421300,        0.018540,       -0.420419,       -0.032942,                ,                ,                ,                ,                , 
     -0.104720,       -0.314700,        0.015630,       -0.314610,       -0.017351,                ,                ,                ,                ,                , 
     -0.087266,       -0.200700,        0.012350,       -0.201013,       -0.005189,                ,                ,                ,                ,                , 
     -0.069813,       -0.087000,        0.012710,       -0.087675,        0.006610,                ,                ,                ,                ,                , 
     -0.052360,        0.025600,        0.013170,        0.024876,        0.014492,                ,                ,                ,                ,                , 
     -0.034907,        0.140000,        0.013380,        0.139448,        0.018258,                ,                ,                ,                ,                , 
     -0.017453,        0.256400,        0.013440,        0.256126,        0.017913,                ,                ,                ,                ,                , 
      0.000000,        0.372700,        0.013540,        0.372700,        0.013540,                ,                ,                ,                ,                , 
      0.017453,        0.488300,        0.013720,        0.488465,        0.005196,                ,                ,                ,                ,                , 
      0.034907,        0.602400,        0.014000,        0.602522,       -0.007032,                ,                ,                ,                ,                , 
      0.052360,        0.715800,        0.014290,        0.715567,       -0.023192,                ,                ,                ,                ,                , 
      0.069813,        0.825000,        0.014500,        0.824002,       -0.043084,                ,                ,                ,                ,                , 
      0.087266,        0.926200,        0.014410,        0.923931,       -0.066368,                ,                ,                ,                ,                , 
      0.104720,        1.014100,        0.014130,        1.010022,       -0.091950,                ,                ,                ,                ,                , 
      0.122173,        1.116600,        0.014320,        1.110022,       -0.121866,                ,                ,                ,                ,                , 
      0.139626,        1.191300,        0.018640,        1.182301,       -0.147338,                ,                ,                ,                ,                , 
      0.157080,        1.209900,        0.025580,        1.199006,       -0.164005,                ,                ,                ,                ,                , 
      0.174533,        1.236600,        0.032570,        1.223469,       -0.182658,                ,                ,                ,                ,                , 
      0.191986,        1.269200,        0.039790,        1.253474,       -0.203116,                ,                ,                ,                ,                , 
      0.209440,        1.313700,        0.046410,        1.294642,       -0.227738,                ,                ,                ,                ,                , 
      0.226893,        1.372600,        0.052610,        1.349255,       -0.257506,                ,                ,                ,                ,                , 
      0.244346,        1.414400,        0.061220,        1.387197,       -0.282773,                ,                ,                ,                ,                , 
      0.261799,        1.395100,        0.075600,        1.367130,       -0.288054,                ,                ,                ,                ,                , 
