           aoa,              Cl,              Cd,              Cn,              Cc,         aoa_Cl0,    Cl_lin_slope,    Cl_lin_range,          Cd_Cl0,              Re,
     -0.174533,       -0.811700,        0.032410,       -0.804996,       -0.109033,       -0.056423,        6.683362,       -0.087266,        0.011552,   251089.331536, 
     -0.157080,       -0.676200,        0.024830,       -0.671759,       -0.081257,                ,                ,        0.174533,                ,                , 
     -0.139626,       -0.536800,        0.020260,       -0.534396,       -0.054645,                ,                ,                ,                ,                , 
     -0.122173,       -0.429500,        0.017250,       -0.428401,       -0.035221,                ,                ,                ,                ,                , 
     -0.104720,       -0.325100,        0.014740,       -0.324860,       -0.019323,                ,                ,                ,                ,                , 
     -0.087266,       -0.207000,        0.011280,       -0.207195,       -0.006804,                ,                ,                ,                ,                , 
     -0.069813,       -0.089300,        0.011330,       -0.089873,        0.005073,                ,                ,                ,                ,                , 
     -0.052360,        0.027100,        0.011620,        0.026455,        0.013022,                ,                ,                ,                ,                , 
     -0.034907,        0.144300,        0.011820,        0.143800,        0.016849,                ,                ,                ,                ,                , 
     -0.017453,        0.262200,        0.011905,        0.261952,        0.016479,                ,                ,                ,                ,                , 
      0.000000,        0.380100,        0.011990,        0.380100,        0.011990,                ,                ,                ,                ,                , 
      0.017453,        0.497500,        0.012170,        0.497637,        0.003486,                ,                ,                ,                ,                , 
      0.034907,        0.613700,        0.012430,        0.613760,       -0.008995,                ,                ,                ,                ,                , 
      0.052360,        0.728400,        0.012720,        0.728067,       -0.025419,                ,                ,                ,                ,                , 
      0.069813,        0.840900,        0.012970,        0.839756,       -0.045720,                ,                ,                ,                ,                , 
      0.087266,        0.947900,        0.013070,        0.945432,       -0.069595,                ,                ,                ,                ,                , 
      0.104720,        1.045900,        0.013180,        1.041548,       -0.096219,                ,                ,                ,                ,                , 
      0.122173,        1.120100,        0.013520,        1.113399,       -0.123087,                ,                ,                ,                ,                , 
      0.139626,        1.193000,        0.018360,        1.183945,       -0.147852,                ,                ,                ,                ,                , 
      0.157080,        1.226700,        0.024340,        1.215405,       -0.167858,                ,                ,                ,                ,                , 
      0.174533,        1.258700,        0.030710,        1.244910,       -0.188328,                ,                ,                ,                ,                , 
      0.191986,        1.288000,        0.038060,        1.271598,       -0.208401,                ,                ,                ,                ,                , 
      0.209440,        1.321500,        0.045360,        1.302053,       -0.230387,                ,                ,                ,                ,                , 
      0.226893,        1.362100,        0.052370,        1.338970,       -0.255378,                ,                ,                ,                ,                , 
      0.244346,        1.398500,        0.060430,        1.371578,       -0.279693,                ,                ,                ,                ,                , 
      0.261799,        1.415400,        0.070930,        1.385529,       -0.297819,                ,                ,                ,                ,                , 
