           aoa,              Cl,              Cd,              Cn,              Cc,         aoa_Cl0,    Cl_lin_slope,    Cl_lin_range,          Cd_Cl0,              Re,
     -0.174533,       -0.785800,        0.040670,       -0.780924,       -0.096401,       -0.056204,        6.375683,       -0.087266,        0.015007,   167949.809236, 
     -0.157080,       -0.739200,        0.033080,       -0.735274,       -0.082964,                ,                ,        0.174533,                ,                , 
     -0.139626,       -0.587600,        0.025240,       -0.585394,       -0.056784,                ,                ,                ,                ,                , 
     -0.122173,       -0.434200,        0.020470,       -0.433458,       -0.032598,                ,                ,                ,                ,                , 
     -0.104720,       -0.307200,        0.016630,       -0.307255,       -0.015572,                ,                ,                ,                ,                , 
     -0.087266,       -0.192700,        0.013710,       -0.193162,       -0.003137,                ,                ,                ,                ,                , 
     -0.069813,       -0.083900,        0.014500,       -0.084707,        0.008612,                ,                ,                ,                ,                , 
     -0.052360,        0.023700,        0.015150,        0.022875,        0.016370,                ,                ,                ,                ,                , 
     -0.034907,        0.133900,        0.015370,        0.133282,        0.020034,                ,                ,                ,                ,                , 
     -0.017453,        0.247500,        0.015420,        0.247193,        0.019737,                ,                ,                ,                ,                , 
      0.000000,        0.361100,        0.015500,        0.361100,        0.015500,                ,                ,                ,                ,                , 
      0.017453,        0.474000,        0.015690,        0.474202,        0.007415,                ,                ,                ,                ,                , 
      0.034907,        0.586800,        0.015970,        0.587000,       -0.004519,                ,                ,                ,                ,                , 
      0.052360,        0.694600,        0.016260,        0.694499,       -0.020115,                ,                ,                ,                ,                , 
      0.069813,        0.799000,        0.016380,        0.798196,       -0.039395,                ,                ,                ,                ,                , 
      0.087266,        0.892500,        0.016020,        0.890500,       -0.061827,                ,                ,                ,                ,                , 
      0.104720,        0.989700,        0.015320,        0.985880,       -0.088216,                ,                ,                ,                ,                , 
      0.122173,        1.114500,        0.015590,        1.108093,       -0.120350,                ,                ,                ,                ,                , 
      0.139626,        1.192100,        0.018890,        1.183128,       -0.147202,                ,                ,                ,                ,                , 
      0.157080,        1.195900,        0.026740,        1.185360,       -0.160669,                ,                ,                ,                ,                , 
      0.174533,        1.217300,        0.034290,        1.204761,       -0.177613,                ,                ,                ,                ,                , 
      0.191986,        1.257400,        0.041130,        1.242146,       -0.199549,                ,                ,                ,                ,                , 
      0.209440,        1.317200,        0.047190,        1.298227,       -0.227702,                ,                ,                ,                ,                , 
      0.226893,        1.375400,        0.054780,        1.352471,       -0.256022,                ,                ,                ,                ,                , 
      0.244346,        1.396100,        0.065800,        1.370548,       -0.273902,                ,                ,                ,                ,                , 
      0.261799,        1.365700,        0.081800,        1.340336,       -0.274456,                ,                ,                ,                ,                , 
