           aoa,              Cl,              Cd,              Cn,              Cc,         aoa_Cl0,    Cl_lin_slope,    Cl_lin_range,          Cd_Cl0,              Re,
     -0.174533,       -0.805300,        0.035170,       -0.799173,       -0.105203,       -0.056362,        6.586245,       -0.087266,        0.012799,   211924.643168, 
     -0.157080,       -0.698300,        0.027570,       -0.694016,       -0.082008,                ,                ,        0.174533,                ,                , 
     -0.139626,       -0.549100,        0.022020,       -0.546821,       -0.054614,                ,                ,                ,                ,                , 
     -0.122173,       -0.421700,        0.018300,       -0.420787,       -0.033229,                ,                ,                ,                ,                , 
     -0.104720,       -0.316500,        0.015470,       -0.316383,       -0.017698,                ,                ,                ,                ,                , 
     -0.087266,       -0.202000,        0.012150,       -0.202290,       -0.005502,                ,                ,                ,                ,                , 
     -0.069813,       -0.087400,        0.012460,       -0.088056,        0.006333,                ,                ,                ,                ,                , 
     -0.052360,        0.026000,        0.012900,        0.025289,        0.014243,                ,                ,                ,                ,                , 
     -0.034907,        0.140400,        0.013110,        0.139857,        0.018002,                ,                ,                ,                ,                , 
     -0.017453,        0.256900,        0.013170,        0.256631,        0.017652,                ,                ,                ,                ,                , 
      0.000000,        0.373600,        0.013280,        0.373600,        0.013280,                ,                ,                ,                ,                , 
      0.017453,        0.490100,        0.013450,        0.490260,        0.004895,                ,                ,                ,                ,                , 
      0.034907,        0.605200,        0.013710,        0.605310,       -0.007420,                ,                ,                ,                ,                , 
      0.052360,        0.717700,        0.014000,        0.717449,       -0.023581,                ,                ,                ,                ,                , 
      0.069813,        0.827400,        0.014240,        0.826378,       -0.043511,                ,                ,                ,                ,                , 
      0.087266,        0.930900,        0.014180,        0.928594,       -0.067007,                ,                ,                ,                ,                , 
      0.104720,        1.020300,        0.013970,        1.016171,       -0.092757,                ,                ,                ,                ,                , 
      0.122173,        1.116800,        0.014150,        1.110200,       -0.122059,                ,                ,                ,                ,                , 
      0.139626,        1.191400,        0.018600,        1.182394,       -0.147392,                ,                ,                ,                ,                , 
      0.157080,        1.212700,        0.025360,        1.201737,       -0.164660,                ,                ,                ,                ,                , 
      0.174533,        1.238500,        0.032390,        1.225309,       -0.183165,                ,                ,                ,                ,                , 
      0.191986,        1.272100,        0.039520,        1.256269,       -0.203934,                ,                ,                ,                ,                , 
      0.209440,        1.313900,        0.046300,        1.294814,       -0.227887,                ,                ,                ,                ,                , 
      0.226893,        1.368000,        0.052740,        1.344802,       -0.256345,                ,                ,                ,                ,                , 
      0.244346,        1.404000,        0.061610,        1.377200,       -0.279878,                ,                ,                ,                ,                , 
      0.261799,        1.426700,        0.072190,        1.396771,       -0.299527,                ,                ,                ,                ,                , 
