           aoa,              Cl,              Cd,              Cn,              Cc,         aoa_Cl0,    Cl_lin_slope,    Cl_lin_range,          Cd_Cl0,              Re,
     -0.174533,       -0.805100,        0.029220,       -0.797943,       -0.111028,       -0.056495,        6.741708,       -0.087266,        0.010723,   288373.726683, 
     -0.157080,       -0.664100,        0.023000,       -0.659522,       -0.081171,                ,                ,        0.174533,                ,                , 
     -0.139626,       -0.536600,        0.019190,       -0.534049,       -0.055677,                ,                ,                ,                ,                , 
     -0.122173,       -0.437800,        0.016460,       -0.436543,       -0.037017,                ,                ,                ,                ,                , 
     -0.104720,       -0.330200,        0.014140,       -0.329869,       -0.020453,                ,                ,                ,                ,                , 
     -0.087266,       -0.210200,        0.010720,       -0.210334,       -0.007641,                ,                ,                ,                ,                , 
     -0.069813,       -0.090500,        0.010570,       -0.091017,        0.004231,                ,                ,                ,                ,                , 
     -0.052360,        0.028100,        0.010770,        0.027498,        0.012226,                ,                ,                ,                ,                , 
     -0.034907,        0.146000,        0.010940,        0.145529,        0.016029,                ,                ,                ,                ,                , 
     -0.017453,        0.264900,        0.011010,        0.264668,        0.015631,                ,                ,                ,                ,                , 
      0.000000,        0.383600,        0.011120,        0.383600,        0.011120,                ,                ,                ,                ,                , 
      0.017453,        0.501800,        0.011300,        0.501921,        0.002541,                ,                ,                ,                ,                , 
      0.034907,        0.619400,        0.011550,        0.619426,       -0.010074,                ,                ,                ,                ,                , 
      0.052360,        0.735100,        0.011820,        0.734711,       -0.026668,                ,                ,                ,                ,                , 
      0.069813,        0.848300,        0.012080,        0.847076,       -0.047124,                ,                ,                ,                ,                , 
      0.087266,        0.957700,        0.012290,        0.955127,       -0.071226,                ,                ,                ,                ,                , 
      0.104720,        1.059700,        0.012580,        1.055210,       -0.098258,                ,                ,                ,                ,                , 
      0.122173,        1.142400,        0.013590,        1.135541,       -0.125735,                ,                ,                ,                ,                , 
      0.139626,        1.195600,        0.018110,        1.186485,       -0.148462,                ,                ,                ,                ,                , 
      0.157080,        1.240100,        0.023420,        1.228496,       -0.170863,                ,                ,                ,                ,                , 
      0.174533,        1.274600,        0.029400,        1.260341,       -0.192379,                ,                ,                ,                ,                , 
      0.191986,        1.303300,        0.036720,        1.286361,       -0.212636,                ,                ,                ,                ,                , 
      0.209440,        1.332600,        0.044350,        1.312700,       -0.233682,                ,                ,                ,                ,                , 
      0.226893,        1.365700,        0.051800,        1.342350,       -0.256743,                ,                ,                ,                ,                , 
      0.244346,        1.397400,        0.059860,        1.370373,       -0.279980,                ,                ,                ,                ,                , 
      0.261799,        1.419800,        0.069360,        1.389373,       -0.300475,                ,                ,                ,                ,                , 
