           aoa,              Cl,              Cd,              Cn,              Cc,         aoa_Cl0,    Cl_lin_slope,    Cl_lin_range,          Cd_Cl0,              Re,
     -0.174533,       -0.801900,        0.034190,       -0.795654,       -0.105578,       -0.056393,        6.639435,       -0.087266,        0.012154,   230370.813655, 
     -0.157080,       -0.686400,        0.026290,       -0.682062,       -0.081410,                ,                ,        0.174533,                ,                , 
     -0.139626,       -0.541800,        0.021040,       -0.539455,       -0.054569,                ,                ,                ,                ,                , 
     -0.122173,       -0.424600,        0.017760,       -0.423599,       -0.034118,                ,                ,                ,                ,                , 
     -0.104720,       -0.321000,        0.015110,       -0.320821,       -0.018526,                ,                ,                ,                ,                , 
     -0.087266,       -0.204700,        0.011700,       -0.204941,       -0.006185,                ,                ,                ,                ,                , 
     -0.069813,       -0.088500,        0.011870,       -0.089112,        0.005668,                ,                ,                ,                ,                , 
     -0.052360,        0.026600,        0.012240,        0.025923,        0.013615,                ,                ,                ,                ,                , 
     -0.034907,        0.142300,        0.012440,        0.141779,        0.017399,                ,                ,                ,                ,                , 
     -0.017453,        0.260000,        0.012510,        0.259742,        0.017046,                ,                ,                ,                ,                , 
      0.000000,        0.377400,        0.012610,        0.377400,        0.012610,                ,                ,                ,                ,                , 
      0.017453,        0.494400,        0.012790,        0.494548,        0.004160,                ,                ,                ,                ,                , 
      0.034907,        0.609700,        0.013050,        0.609784,       -0.008236,                ,                ,                ,                ,                , 
      0.052360,        0.723400,        0.013340,        0.723107,       -0.024538,                ,                ,                ,                ,                , 
      0.069813,        0.834800,        0.013580,        0.833714,       -0.044686,                ,                ,                ,                ,                , 
      0.087266,        0.939800,        0.013610,        0.937410,       -0.068351,                ,                ,                ,                ,                , 
      0.104720,        1.034000,        0.013570,        1.029754,       -0.094587,                ,                ,                ,                ,                , 
      0.122173,        1.117100,        0.013730,        1.110447,       -0.122513,                ,                ,                ,                ,                , 
      0.139626,        1.192000,        0.018490,        1.182973,       -0.147584,                ,                ,                ,                ,                , 
      0.157080,        1.219400,        0.024860,        1.208276,       -0.166202,                ,                ,                ,                ,                , 
      0.174533,        1.248800,        0.031530,        1.235303,       -0.185801,                ,                ,                ,                ,                , 
      0.191986,        1.278900,        0.038870,        1.262820,       -0.205870,                ,                ,                ,                ,                , 
      0.209440,        1.317800,        0.045770,        1.298519,       -0.229216,                ,                ,                ,                ,                , 
      0.226893,        1.362800,        0.052620,        1.339708,       -0.255292,                ,                ,                ,                ,                , 
      0.244346,        1.410100,        0.060020,        1.382734,       -0.282897,                ,                ,                ,                ,                , 
      0.261799,        1.322800,        0.076340,        1.297485,       -0.268627,                ,                ,                ,                ,                , 
