           aoa,              Cl,              Cd,              Cn,              Cc,         aoa_Cl0,    Cl_lin_slope,    Cl_lin_range,          Cd_Cl0,              Re,
     -0.174533,       -0.803700,        0.035160,       -0.797595,       -0.104935,       -0.056377,        6.590447,       -0.087266,        0.012751,   213254.733189, 
     -0.157080,       -0.697400,        0.027480,       -0.693113,       -0.081956,                ,                ,        0.174533,                ,                , 
     -0.139626,       -0.548400,        0.021950,       -0.546118,       -0.054586,                ,                ,                ,                ,                , 
     -0.122173,       -0.421700,        0.018250,       -0.420781,       -0.033278,                ,                ,                ,                ,                , 
     -0.104720,       -0.316900,        0.015440,       -0.316778,       -0.017770,                ,                ,                ,                ,                , 
     -0.087266,       -0.202200,        0.012120,       -0.202487,       -0.005549,                ,                ,                ,                ,                , 
     -0.069813,       -0.087300,        0.012420,       -0.087954,        0.006300,                ,                ,                ,                ,                , 
     -0.052360,        0.026100,        0.012850,        0.025392,        0.014198,                ,                ,                ,                ,                , 
     -0.034907,        0.140600,        0.013060,        0.140059,        0.017959,                ,                ,                ,                ,                , 
     -0.017453,        0.257000,        0.013120,        0.256732,        0.017603,                ,                ,                ,                ,                , 
      0.000000,        0.373800,        0.013220,        0.373800,        0.013220,                ,                ,                ,                ,                , 
      0.017453,        0.490200,        0.013410,        0.490359,        0.004853,                ,                ,                ,                ,                , 
      0.034907,        0.605800,        0.013660,        0.605908,       -0.007490,                ,                ,                ,                ,                , 
      0.052360,        0.718200,        0.013950,        0.717946,       -0.023657,                ,                ,                ,                ,                , 
      0.069813,        0.828100,        0.014190,        0.827073,       -0.043610,                ,                ,                ,                ,                , 
      0.087266,        0.931500,        0.014130,        0.929187,       -0.067109,                ,                ,                ,                ,                , 
      0.104720,        1.021300,        0.013940,        1.017162,       -0.092891,                ,                ,                ,                ,                , 
      0.122173,        1.116800,        0.014110,        1.110195,       -0.122099,                ,                ,                ,                ,                , 
      0.139626,        1.191500,        0.018590,        1.182492,       -0.147416,                ,                ,                ,                ,                , 
      0.157080,        1.213300,        0.025320,        1.202323,       -0.164794,                ,                ,                ,                ,                , 
      0.174533,        1.239600,        0.032300,        1.226377,       -0.183445,                ,                ,                ,                ,                , 
      0.191986,        1.272600,        0.039470,        1.256750,       -0.204079,                ,                ,                ,                ,                , 
      0.209440,        1.314000,        0.046270,        1.294906,       -0.227937,                ,                ,                ,                ,                , 
      0.226893,        1.366800,        0.052790,        1.343644,       -0.256026,                ,                ,                ,                ,                , 
      0.244346,        1.402900,        0.061630,        1.376138,       -0.279593,                ,                ,                ,                ,                , 
      0.261799,        1.422900,        0.072410,        1.393157,       -0.298331,                ,                ,                ,                ,                , 
