           aoa,              Cl,              Cd,              Cn,              Cc,         aoa_Cl0,    Cl_lin_slope,    Cl_lin_range,          Cd_Cl0,              Re,
     -0.174533,       -0.805400,        0.029240,       -0.798242,       -0.111060,       -0.056495,        6.741230,       -0.087266,        0.010733,   287788.170443, 
     -0.157080,       -0.664200,        0.023030,       -0.659625,       -0.081157,                ,                ,        0.174533,                ,                , 
     -0.139626,       -0.536600,        0.019190,       -0.534049,       -0.055677,                ,                ,                ,                ,                , 
     -0.122173,       -0.437700,        0.016470,       -0.436445,       -0.036995,                ,                ,                ,                ,                , 
     -0.104720,       -0.330100,        0.014150,       -0.329771,       -0.020432,                ,                ,                ,                ,                , 
     -0.087266,       -0.210200,        0.010730,       -0.210335,       -0.007631,                ,                ,                ,                ,                , 
     -0.069813,       -0.090500,        0.010580,       -0.091018,        0.004241,                ,                ,                ,                ,                , 
     -0.052360,        0.028100,        0.010780,        0.027497,        0.012236,                ,                ,                ,                ,                , 
     -0.034907,        0.145900,        0.010950,        0.145429,        0.016035,                ,                ,                ,                ,                , 
     -0.017453,        0.264900,        0.011030,        0.264667,        0.015651,                ,                ,                ,                ,                , 
      0.000000,        0.383500,        0.011130,        0.383500,        0.011130,                ,                ,                ,                ,                , 
      0.017453,        0.501800,        0.011310,        0.501921,        0.002551,                ,                ,                ,                ,                , 
      0.034907,        0.619400,        0.011560,        0.619426,       -0.010064,                ,                ,                ,                ,                , 
      0.052360,        0.735000,        0.011840,        0.734612,       -0.026643,                ,                ,                ,                ,                , 
      0.069813,        0.848200,        0.012090,        0.846977,       -0.047107,                ,                ,                ,                ,                , 
      0.087266,        0.957600,        0.012300,        0.955028,       -0.071207,                ,                ,                ,                ,                , 
      0.104720,        1.059600,        0.012590,        1.055111,       -0.098237,                ,                ,                ,                ,                , 
      0.122173,        1.142300,        0.013590,        1.135442,       -0.125723,                ,                ,                ,                ,                , 
      0.139626,        1.195600,        0.018110,        1.186485,       -0.148462,                ,                ,                ,                ,                , 
      0.157080,        1.239900,        0.023440,        1.228302,       -0.170812,                ,                ,                ,                ,                , 
      0.174533,        1.274400,        0.029420,        1.260148,       -0.192324,                ,                ,                ,                ,                , 
      0.191986,        1.303100,        0.036730,        1.286167,       -0.212588,                ,                ,                ,                ,                , 
      0.209440,        1.332400,        0.044370,        1.312509,       -0.233621,                ,                ,                ,                ,                , 
      0.226893,        1.365800,        0.051800,        1.342447,       -0.256766,                ,                ,                ,                ,                , 
      0.244346,        1.397600,        0.059850,        1.370564,       -0.280038,                ,                ,                ,                ,                , 
      0.261799,        1.420200,        0.069330,        1.389752,       -0.300607,                ,                ,                ,                ,                , 
