           aoa,              Cl,              Cd,              Cn,              Cc,         aoa_Cl0,    Cl_lin_slope,    Cl_lin_range,          Cd_Cl0,              Re,
     -0.174533,       -0.806800,        0.035180,       -0.800652,       -0.105454,       -0.056350,        6.583667,       -0.087266,        0.012839,   210923.327765, 
     -0.157080,       -0.699200,        0.027610,       -0.694911,       -0.082109,                ,                ,        0.174533,                ,                , 
     -0.139626,       -0.549700,        0.022080,       -0.547423,       -0.054638,                ,                ,                ,                ,                , 
     -0.122173,       -0.421600,        0.018330,       -0.420691,       -0.033187,                ,                ,                ,                ,                , 
     -0.104720,       -0.316300,        0.015490,       -0.316186,       -0.017657,                ,                ,                ,                ,                , 
     -0.087266,       -0.201800,        0.012180,       -0.202094,       -0.005454,                ,                ,                ,                ,                , 
     -0.069813,       -0.087400,        0.012500,       -0.088059,        0.006373,                ,                ,                ,                ,                , 
     -0.052360,        0.025900,        0.012940,        0.025187,        0.014278,                ,                ,                ,                ,                , 
     -0.034907,        0.140300,        0.013150,        0.139756,        0.018038,                ,                ,                ,                ,                , 
     -0.017453,        0.256800,        0.013210,        0.256530,        0.017690,                ,                ,                ,                ,                , 
      0.000000,        0.373500,        0.013310,        0.373500,        0.013310,                ,                ,                ,                ,                , 
      0.017453,        0.490100,        0.013490,        0.490261,        0.004935,                ,                ,                ,                ,                , 
      0.034907,        0.604800,        0.013750,        0.604911,       -0.007366,                ,                ,                ,                ,                , 
      0.052360,        0.717400,        0.014040,        0.717152,       -0.023525,                ,                ,                ,                ,                , 
      0.069813,        0.827000,        0.014270,        0.825981,       -0.043453,                ,                ,                ,                ,                , 
      0.087266,        0.930500,        0.014210,        0.928198,       -0.066942,                ,                ,                ,                ,                , 
      0.104720,        1.019700,        0.014000,        1.015577,       -0.092664,                ,                ,                ,                ,                , 
      0.122173,        1.116800,        0.014170,        1.110202,       -0.122039,                ,                ,                ,                ,                , 
      0.139626,        1.191400,        0.018610,        1.182395,       -0.147382,                ,                ,                ,                ,                , 
      0.157080,        1.212200,        0.025400,        1.201249,       -0.164543,                ,                ,                ,                ,                , 
      0.174533,        1.238100,        0.032420,        1.224920,       -0.183066,                ,                ,                ,                ,                , 
      0.191986,        1.271600,        0.039560,        1.255786,       -0.203800,                ,                ,                ,                ,                , 
      0.209440,        1.313800,        0.046320,        1.294721,       -0.227847,                ,                ,                ,                ,                , 
      0.226893,        1.369100,        0.052690,        1.345863,       -0.256641,                ,                ,                ,                ,                , 
      0.244346,        1.405100,        0.061580,        1.378260,       -0.280174,                ,                ,                ,                ,                , 
      0.261799,        1.429900,        0.072020,        1.399817,       -0.300519,                ,                ,                ,                ,                , 
