           aoa,              Cl,              Cd,              Cn,              Cc,         aoa_Cl0,    Cl_lin_slope,    Cl_lin_range,          Cd_Cl0,              Re,
     -0.174533,       -0.769100,        0.043600,       -0.764987,       -0.090615,       -0.055941,        6.278663,       -0.087266,        0.015964,   154961.052421, 
     -0.157080,       -0.758200,        0.034590,       -0.754276,       -0.084444,                ,                ,        0.174533,                ,                , 
     -0.139626,       -0.605500,        0.026660,       -0.603318,       -0.057869,                ,                ,                ,                ,                , 
     -0.122173,       -0.449400,        0.021490,       -0.448669,       -0.033438,                ,                ,                ,                ,                , 
     -0.104720,       -0.309800,        0.017240,       -0.309905,       -0.015237,                ,                ,                ,                ,                , 
     -0.087266,       -0.190400,        0.014390,       -0.190930,       -0.002259,                ,                ,                ,                ,                , 
     -0.069813,       -0.082900,        0.015360,       -0.083770,        0.009540,                ,                ,                ,                ,                , 
     -0.052360,        0.021400,        0.016120,        0.020527,        0.017218,                ,                ,                ,                ,                , 
     -0.034907,        0.130000,        0.016360,        0.129350,        0.020887,                ,                ,                ,                ,                , 
     -0.017453,        0.243100,        0.016390,        0.242777,        0.020630,                ,                ,                ,                ,                , 
      0.000000,        0.355000,        0.016480,        0.355000,        0.016480,                ,                ,                ,                ,                , 
      0.017453,        0.466500,        0.016630,        0.466719,        0.008486,                ,                ,                ,                ,                , 
      0.034907,        0.577400,        0.016890,        0.577638,       -0.003271,                ,                ,                ,                ,                , 
      0.052360,        0.684200,        0.017180,        0.684161,       -0.018652,                ,                ,                ,                ,                , 
      0.069813,        0.784200,        0.017230,        0.783492,       -0.037515,                ,                ,                ,                ,                , 
      0.087266,        0.874500,        0.016810,        0.872637,       -0.059472,                ,                ,                ,                ,                , 
      0.104720,        0.989600,        0.016180,        0.985870,       -0.087350,                ,                ,                ,                ,                , 
      0.122173,        1.113100,        0.016210,        1.106779,       -0.119564,                ,                ,                ,                ,                , 
      0.139626,        1.193000,        0.019020,        1.184037,       -0.147199,                ,                ,                ,                ,                , 
      0.157080,        1.190800,        0.027200,        1.180394,       -0.159417,                ,                ,                ,                ,                , 
      0.174533,        1.210500,        0.034940,        1.198177,       -0.175792,                ,                ,                ,                ,                , 
      0.191986,        1.256000,        0.041530,        1.240848,       -0.198889,                ,                ,                ,                ,                , 
      0.209440,        1.320500,        0.047760,        1.301574,       -0.227831,                ,                ,                ,                ,                , 
      0.226893,        1.399300,        0.054910,        1.375788,       -0.261271,                ,                ,                ,                ,                , 
      0.244346,        1.396400,        0.067220,        1.371183,       -0.272596,                ,                ,                ,                ,                , 
      0.261799,        1.373300,        0.082830,        1.347944,       -0.275429,                ,                ,                ,                ,                , 
