           aoa,              Cl,              Cd,              Cn,              Cc,         aoa_Cl0,    Cl_lin_slope,    Cl_lin_range,          Cd_Cl0,              Re,
     -0.174533,       -0.801000,        0.028600,       -0.793797,       -0.110927,       -0.056488,        6.756223,       -0.087266,        0.010490,   300685.134959, 
     -0.157080,       -0.660800,        0.022530,       -0.656189,       -0.081119,                ,                ,        0.174533,                ,                , 
     -0.139626,       -0.539100,        0.018850,       -0.536477,       -0.056362,                ,                ,                ,                ,                , 
     -0.122173,       -0.439700,        0.016290,       -0.438408,       -0.037417,                ,                ,                ,                ,                , 
     -0.104720,       -0.331500,        0.013970,       -0.331144,       -0.020758,                ,                ,                ,                ,                , 
     -0.087266,       -0.210800,        0.010570,       -0.210919,       -0.007843,                ,                ,                ,                ,                , 
     -0.069813,       -0.090700,        0.010360,       -0.091202,        0.004008,                ,                ,                ,                ,                , 
     -0.052360,        0.028100,        0.010530,        0.027510,        0.011986,                ,                ,                ,                ,                , 
     -0.034907,        0.146500,        0.010700,        0.146037,        0.015806,                ,                ,                ,                ,                , 
     -0.017453,        0.265400,        0.010770,        0.265172,        0.015400,                ,                ,                ,                ,                , 
      0.000000,        0.384400,        0.010880,        0.384400,        0.010880,                ,                ,                ,                ,                , 
      0.017453,        0.502800,        0.011050,        0.502916,        0.002273,                ,                ,                ,                ,                , 
      0.034907,        0.620400,        0.011310,        0.620417,       -0.010349,                ,                ,                ,                ,                , 
      0.052360,        0.736600,        0.011580,        0.736197,       -0.026987,                ,                ,                ,                ,                , 
      0.069813,        0.850400,        0.011840,        0.849154,       -0.047510,                ,                ,                ,                ,                , 
      0.087266,        0.960500,        0.012070,        0.957897,       -0.071689,                ,                ,                ,                ,                , 
      0.104720,        1.063200,        0.012420,        1.058674,       -0.098783,                ,                ,                ,                ,                , 
      0.122173,        1.147300,        0.013620,        1.140408,       -0.126302,                ,                ,                ,                ,                , 
      0.139626,        1.196600,        0.018020,        1.187463,       -0.148690,                ,                ,                ,                ,                , 
      0.157080,        1.243500,        0.023200,        1.231820,       -0.171612,                ,                ,                ,                ,                , 
      0.174533,        1.278300,        0.029110,        1.263935,       -0.193307,                ,                ,                ,                ,                , 
      0.191986,        1.308300,        0.036300,        1.291189,       -0.214002,                ,                ,                ,                ,                , 
      0.209440,        1.336300,        0.043980,        1.316243,       -0.234813,                ,                ,                ,                ,                , 
      0.226893,        1.366800,        0.051740,        1.343408,       -0.257049,                ,                ,                ,                ,                , 
      0.244346,        1.397400,        0.059760,        1.370349,       -0.280077,                ,                ,                ,                ,                , 
      0.261799,        1.416600,        0.069590,        1.386342,       -0.299424,                ,                ,                ,                ,                , 
