           aoa,              Cl,              Cd,              Cn,              Cc,         aoa_Cl0,    Cl_lin_slope,    Cl_lin_range,          Cd_Cl0,              Re,
     -0.174533,       -0.811000,        0.030270,       -0.803935,       -0.111019,       -0.056467,        6.718694,       -0.087266,        0.011054,   271937.669522, 
     -0.157080,       -0.668100,        0.023830,       -0.663602,       -0.080977,                ,                ,        0.174533,                ,                , 
     -0.139626,       -0.536200,        0.019520,       -0.533698,       -0.055295,                ,                ,                ,                ,                , 
     -0.122173,       -0.434500,        0.016780,       -0.433306,       -0.036297,                ,                ,                ,                ,                , 
     -0.104720,       -0.328300,        0.014400,       -0.328007,       -0.019996,                ,                ,                ,                ,                , 
     -0.087266,       -0.208900,        0.010940,       -0.209059,       -0.007308,                ,                ,                ,                ,                , 
     -0.069813,       -0.090000,        0.010870,       -0.090539,        0.004565,                ,                ,                ,                ,                , 
     -0.052360,        0.027700,        0.011110,        0.027081,        0.012544,                ,                ,                ,                ,                , 
     -0.034907,        0.145200,        0.011300,        0.144717,        0.016361,                ,                ,                ,                ,                , 
     -0.017453,        0.263500,        0.011360,        0.263262,        0.015957,                ,                ,                ,                ,                , 
      0.000000,        0.382000,        0.011470,        0.382000,        0.011470,                ,                ,                ,                ,                , 
      0.017453,        0.499900,        0.011650,        0.500027,        0.002924,                ,                ,                ,                ,                , 
      0.034907,        0.616900,        0.011910,        0.616940,       -0.009627,                ,                ,                ,                ,                , 
      0.052360,        0.732500,        0.012190,        0.732134,       -0.026163,                ,                ,                ,                ,                , 
      0.069813,        0.845400,        0.012440,        0.844208,       -0.046562,                ,                ,                ,                ,                , 
      0.087266,        0.954100,        0.012610,        0.951568,       -0.070593,                ,                ,                ,                ,                , 
      0.104720,        1.054100,        0.012830,        1.049667,       -0.097424,                ,                ,                ,                ,                , 
      0.122173,        1.133600,        0.013560,        1.126803,       -0.124692,                ,                ,                ,                ,                , 
      0.139626,        1.194400,        0.018220,        1.185312,       -0.148186,                ,                ,                ,                ,                , 
      0.157080,        1.234100,        0.023830,        1.222634,       -0.169519,                ,                ,                ,                ,                , 
      0.174533,        1.267300,        0.030000,        1.253256,       -0.190520,                ,                ,                ,                ,                , 
      0.191986,        1.297000,        0.037280,        1.280284,       -0.210884,                ,                ,                ,                ,                , 
      0.209440,        1.327200,        0.044820,        1.307516,       -0.232100,                ,                ,                ,                ,                , 
      0.226893,        1.363400,        0.052070,        1.340169,       -0.255963,                ,                ,                ,                ,                , 
      0.244346,        1.408200,        0.058950,        1.380632,       -0.283475,                ,                ,                ,                ,                , 
      0.261799,        1.424900,        0.069080,        1.394227,       -0.302065,                ,                ,                ,                ,                , 
