           aoa,              Cl,              Cd,              Cn,              Cc,         aoa_Cl0,    Cl_lin_slope,    Cl_lin_range,          Cd_Cl0,              Re,
     -0.174533,       -0.775700,        0.040170,       -0.770891,       -0.095139,       -0.056286,        6.458094,       -0.087266,        0.014152,   182282.198129, 
     -0.157080,       -0.673450,        0.032090,       -0.670179,       -0.073656,                ,                ,        0.174533,                ,                , 
     -0.139626,       -0.571200,        0.024010,       -0.568983,       -0.055719,                ,                ,                ,                ,                , 
     -0.122173,       -0.425600,        0.019570,       -0.424813,       -0.032443,                ,                ,                ,                ,                , 
     -0.104720,       -0.308700,        0.016160,       -0.308698,       -0.016196,                ,                ,                ,                ,                , 
     -0.087266,       -0.196000,        0.013110,       -0.196397,       -0.004022,                ,                ,                ,                ,                , 
     -0.069813,       -0.085100,        0.013710,       -0.085849,        0.007740,                ,                ,                ,                ,                , 
     -0.052360,        0.024700,        0.014280,        0.023919,        0.015553,                ,                ,                ,                ,                , 
     -0.034907,        0.137100,        0.014480,        0.136511,        0.019256,                ,                ,                ,                ,                , 
     -0.017453,        0.251200,        0.014550,        0.250908,        0.018932,                ,                ,                ,                ,                , 
      0.000000,        0.366100,        0.014650,        0.366100,        0.014650,                ,                ,                ,                ,                , 
      0.017453,        0.480300,        0.014840,        0.480486,        0.006455,                ,                ,                ,                ,                , 
      0.034907,        0.594200,        0.015110,        0.594365,       -0.005636,                ,                ,                ,                ,                , 
      0.052360,        0.703900,        0.015400,        0.703741,       -0.021460,                ,                ,                ,                ,                , 
      0.069813,        0.810400,        0.015570,        0.809512,       -0.040999,                ,                ,                ,                ,                , 
      0.087266,        0.908500,        0.015310,        0.906377,       -0.063929,                ,                ,                ,                ,                , 
      0.104720,        0.991400,        0.014730,        0.987509,       -0.088980,                ,                ,                ,                ,                , 
      0.122173,        1.115600,        0.015030,        1.109116,       -0.121039,                ,                ,                ,                ,                , 
      0.139626,        1.191500,        0.018790,        1.182519,       -0.147218,                ,                ,                ,                ,                , 
      0.157080,        1.201500,        0.026260,        1.190816,       -0.162019,                ,                ,                ,                ,                , 
      0.174533,        1.225200,        0.033580,        1.212418,       -0.179684,                ,                ,                ,                ,                , 
      0.191986,        1.261400,        0.040610,        1.245973,       -0.200823,                ,                ,                ,                ,                , 
      0.209440,        1.313300,        0.046970,        1.294367,       -0.227107,                ,                ,                ,                ,                , 
      0.226893,        1.378100,        0.053540,        1.354823,       -0.257837,                ,                ,                ,                ,                , 
      0.244346,        1.409500,        0.063410,        1.382972,       -0.279462,                ,                ,                ,                ,                , 
      0.261799,        1.376000,        0.079480,        1.349685,       -0.279363,                ,                ,                ,                ,                , 
