           aoa,              Cl,              Cd,              Cn,              Cc,         aoa_Cl0,    Cl_lin_slope,    Cl_lin_range,          Cd_Cl0,              Re,
     -0.174533,       -0.798900,        0.034940,       -0.792830,       -0.104318,       -0.056411,        6.618140,       -0.087266,        0.012399,   222683.357726, 
     -0.157080,       -0.690800,        0.026860,       -0.686497,       -0.081536,                ,                ,        0.174533,                ,                , 
     -0.139626,       -0.543600,        0.021410,       -0.541289,       -0.054453,                ,                ,                ,                ,                , 
     -0.122173,       -0.422800,        0.018030,       -0.421846,       -0.033631,                ,                ,                ,                ,                , 
     -0.104720,       -0.319200,        0.015260,       -0.319046,       -0.018189,                ,                ,                ,                ,                , 
     -0.087266,       -0.203600,        0.011880,       -0.203861,       -0.005910,                ,                ,                ,                ,                , 
     -0.069813,       -0.088000,        0.012100,       -0.088630,        0.005932,                ,                ,                ,                ,                , 
     -0.052360,        0.026600,        0.012490,        0.025910,        0.013865,                ,                ,                ,                ,                , 
     -0.034907,        0.142000,        0.012700,        0.141470,        0.017648,                ,                ,                ,                ,                , 
     -0.017453,        0.258600,        0.012760,        0.258338,        0.017271,                ,                ,                ,                ,                , 
      0.000000,        0.375700,        0.012870,        0.375700,        0.012870,                ,                ,                ,                ,                , 
      0.017453,        0.492200,        0.013050,        0.492353,        0.004458,                ,                ,                ,                ,                , 
      0.034907,        0.607500,        0.013320,        0.607595,       -0.007890,                ,                ,                ,                ,                , 
      0.052360,        0.721900,        0.013610,        0.721623,       -0.024190,                ,                ,                ,                ,                , 
      0.069813,        0.832000,        0.013840,        0.830939,       -0.044231,                ,                ,                ,                ,                , 
      0.087266,        0.936900,        0.013850,        0.934542,       -0.067859,                ,                ,                ,                ,                , 
      0.104720,        1.028600,        0.013730,        1.024400,       -0.093863,                ,                ,                ,                ,                , 
      0.122173,        1.117000,        0.013890,        1.110367,       -0.122342,                ,                ,                ,                ,                , 
      0.139626,        1.191700,        0.018540,        1.182683,       -0.147493,                ,                ,                ,                ,                , 
      0.157080,        1.216700,        0.025060,        1.205641,       -0.165582,                ,                ,                ,                ,                , 
      0.174533,        1.245400,        0.031820,        1.232005,       -0.184925,                ,                ,                ,                ,                , 
      0.191986,        1.276100,        0.039120,        1.260119,       -0.205090,                ,                ,                ,                ,                , 
      0.209440,        1.315800,        0.045990,        1.296608,       -0.228585,                ,                ,                ,                ,                , 
      0.226893,        1.362500,        0.052860,        1.339470,       -0.254991,                ,                ,                ,                ,                , 
      0.244346,        1.401200,        0.061210,        1.374386,       -0.279589,                ,                ,                ,                ,                , 
      0.261799,        1.406400,        0.073320,        1.377455,       -0.293181,                ,                ,                ,                ,                , 
