           aoa,              Cl,              Cd,              Cn,              Cc,         aoa_Cl0,    Cl_lin_slope,    Cl_lin_range,          Cd_Cl0,              Re,
     -0.174533,       -0.811800,        0.032330,       -0.805081,       -0.109129,       -0.056431,        6.688136,       -0.087266,        0.011512,   252817.607658, 
     -0.157080,       -0.675300,        0.024780,       -0.670862,       -0.081165,                ,                ,        0.174533,                ,                , 
     -0.139626,       -0.536800,        0.020200,       -0.534387,       -0.054705,                ,                ,                ,                ,                , 
     -0.122173,       -0.429800,        0.017230,       -0.428696,       -0.035278,                ,                ,                ,                ,                , 
     -0.104720,       -0.325300,        0.014710,       -0.325056,       -0.019374,                ,                ,                ,                ,                , 
     -0.087266,       -0.207200,        0.011250,       -0.207392,       -0.006851,                ,                ,                ,                ,                , 
     -0.069813,       -0.089400,        0.011290,       -0.089970,        0.005026,                ,                ,                ,                ,                , 
     -0.052360,        0.027200,        0.011580,        0.026557,        0.012988,                ,                ,                ,                ,                , 
     -0.034907,        0.144200,        0.011770,        0.143701,        0.016795,                ,                ,                ,                ,                , 
     -0.017453,        0.262300,        0.011840,        0.262053,        0.016416,                ,                ,                ,                ,                , 
      0.000000,        0.380400,        0.011950,        0.380400,        0.011950,                ,                ,                ,                ,                , 
      0.017453,        0.497900,        0.012130,        0.498036,        0.003439,                ,                ,                ,                ,                , 
      0.034907,        0.614100,        0.012380,        0.614158,       -0.009059,                ,                ,                ,                ,                , 
      0.052360,        0.728800,        0.012670,        0.728464,       -0.025490,                ,                ,                ,                ,                , 
      0.069813,        0.841500,        0.012920,        0.840351,       -0.045812,                ,                ,                ,                ,                , 
      0.087266,        0.948700,        0.013040,        0.946226,       -0.069694,                ,                ,                ,                ,                , 
      0.104720,        1.046700,        0.013150,        1.042341,       -0.096332,                ,                ,                ,                ,                , 
      0.122173,        1.121200,        0.013520,        1.114490,       -0.123221,                ,                ,                ,                ,                , 
      0.139626,        1.193100,        0.018360,        1.184044,       -0.147866,                ,                ,                ,                ,                , 
      0.157080,        1.227500,        0.024280,        1.216186,       -0.168042,                ,                ,                ,                ,                , 
      0.174533,        1.259500,        0.030640,        1.245686,       -0.188535,                ,                ,                ,                ,                , 
      0.191986,        1.288500,        0.038010,        1.272079,       -0.208546,                ,                ,                ,                ,                , 
      0.209440,        1.322000,        0.045310,        1.302532,       -0.230539,                ,                ,                ,                ,                , 
      0.226893,        1.361800,        0.052390,        1.338682,       -0.255291,                ,                ,                ,                ,                , 
      0.244346,        1.398200,        0.060400,        1.371280,       -0.279649,                ,                ,                ,                ,                , 
      0.261799,        1.414100,        0.070990,        1.384289,       -0.297425,                ,                ,                ,                ,                , 
