           aoa,              Cl,              Cd,              Cn,              Cc,         aoa_Cl0,    Cl_lin_slope,    Cl_lin_range,          Cd_Cl0,              Re,
     -0.174533,       -0.813100,        0.031550,       -0.806226,       -0.110123,       -0.056486,        6.704657,       -0.087266,        0.011259,   262749.952321, 
     -0.157080,       -0.671400,        0.024290,       -0.666934,       -0.081039,                ,                ,        0.174533,                ,                , 
     -0.139626,       -0.536100,        0.019830,       -0.533643,       -0.054974,                ,                ,                ,                ,                , 
     -0.122173,       -0.432300,        0.017000,       -0.431149,       -0.035811,                ,                ,                ,                ,                , 
     -0.104720,       -0.326900,        0.014530,       -0.326628,       -0.019720,                ,                ,                ,                ,                , 
     -0.087266,       -0.208200,        0.011080,       -0.208373,       -0.007108,                ,                ,                ,                ,                , 
     -0.069813,       -0.089800,        0.011060,       -0.090353,        0.004769,                ,                ,                ,                ,                , 
     -0.052360,        0.027800,        0.011320,        0.027169,        0.012759,                ,                ,                ,                ,                , 
     -0.034907,        0.144600,        0.011520,        0.144110,        0.016559,                ,                ,                ,                ,                , 
     -0.017453,        0.262800,        0.011590,        0.262558,        0.016175,                ,                ,                ,                ,                , 
      0.000000,        0.381000,        0.011690,        0.381000,        0.011690,                ,                ,                ,                ,                , 
      0.017453,        0.498800,        0.011870,        0.498931,        0.003163,                ,                ,                ,                ,                , 
      0.034907,        0.615800,        0.012130,        0.615848,       -0.009368,                ,                ,                ,                ,                , 
      0.052360,        0.731100,        0.012410,        0.730748,       -0.025870,                ,                ,                ,                ,                , 
      0.069813,        0.843400,        0.012660,        0.842229,       -0.046203,                ,                ,                ,                ,                , 
      0.087266,        0.951400,        0.012810,        0.948896,       -0.070159,                ,                ,                ,                ,                , 
      0.104720,        1.050600,        0.012980,        1.046201,       -0.096909,                ,                ,                ,                ,                , 
      0.122173,        1.128000,        0.013550,        1.121243,       -0.124020,                ,                ,                ,                ,                , 
      0.139626,        1.193800,        0.018290,        1.184727,       -0.148033,                ,                ,                ,                ,                , 
      0.157080,        1.231600,        0.024000,        1.220191,       -0.168960,                ,                ,                ,                ,                , 
      0.174533,        1.262700,        0.030370,        1.248790,       -0.189357,                ,                ,                ,                ,                , 
      0.191986,        1.292400,        0.037670,        1.275843,       -0.209624,                ,                ,                ,                ,                , 
      0.209440,        1.325200,        0.044970,        1.305591,       -0.231537,                ,                ,                ,                ,                , 
      0.226893,        1.362000,        0.052280,        1.338852,       -0.255443,                ,                ,                ,                ,                , 
      0.244346,        1.400500,        0.059880,        1.373385,       -0.280710,                ,                ,                ,                ,                , 
      0.261799,        1.413700,        0.070670,        1.383820,       -0.297631,                ,                ,                ,                ,                , 
