           aoa,              Cl,              Cd,              Cn,              Cc,         aoa_Cl0,    Cl_lin_slope,    Cl_lin_range,          Cd_Cl0,              Re,
     -0.174533,       -0.794900,        0.036070,       -0.789087,       -0.102511,       -0.056329,        6.575073,       -0.087266,        0.012958,   207871.661125, 
     -0.157080,       -0.701700,        0.027830,       -0.697414,       -0.082283,                ,                ,        0.174533,                ,                , 
     -0.139626,       -0.551400,        0.022270,       -0.549133,       -0.054687,                ,                ,                ,                ,                , 
     -0.122173,       -0.421500,        0.018440,       -0.420605,       -0.033065,                ,                ,                ,                ,                , 
     -0.104720,       -0.315400,        0.015570,       -0.315300,       -0.017484,                ,                ,                ,                ,                , 
     -0.087266,       -0.201200,        0.012270,       -0.201504,       -0.005312,                ,                ,                ,                ,                , 
     -0.069813,       -0.087300,        0.012610,       -0.087967,        0.006490,                ,                ,                ,                ,                , 
     -0.052360,        0.025700,        0.013060,        0.024981,        0.014387,                ,                ,                ,                ,                , 
     -0.034907,        0.140000,        0.013280,        0.139451,        0.018158,                ,                ,                ,                ,                , 
     -0.017453,        0.256800,        0.013330,        0.256528,        0.017810,                ,                ,                ,                ,                , 
      0.000000,        0.373600,        0.013430,        0.373600,        0.013430,                ,                ,                ,                ,                , 
      0.017453,        0.489300,        0.013610,        0.489463,        0.005068,                ,                ,                ,                ,                , 
      0.034907,        0.603500,        0.013880,        0.603617,       -0.007190,                ,                ,                ,                ,                , 
      0.052360,        0.716600,        0.014170,        0.716360,       -0.023353,                ,                ,                ,                ,                , 
      0.069813,        0.826000,        0.014380,        0.824991,       -0.043274,                ,                ,                ,                ,                , 
      0.087266,        0.928400,        0.014320,        0.926115,       -0.066650,                ,                ,                ,                ,                , 
      0.104720,        1.016700,        0.014070,        1.012601,       -0.092281,                ,                ,                ,                ,                , 
      0.122173,        1.116700,        0.014250,        1.110113,       -0.121948,                ,                ,                ,                ,                , 
      0.139626,        1.191300,        0.018630,        1.182299,       -0.147348,                ,                ,                ,                ,                , 
      0.157080,        1.210500,        0.025520,        1.199589,       -0.164158,                ,                ,                ,                ,                , 
      0.174533,        1.237500,        0.032480,        1.224340,       -0.182903,                ,                ,                ,                ,                , 
      0.191986,        1.270300,        0.039680,        1.254532,       -0.203434,                ,                ,                ,                ,                , 
      0.209440,        1.313600,        0.046380,        1.294538,       -0.227746,                ,                ,                ,                ,                , 
      0.226893,        1.373100,        0.052510,        1.349720,       -0.257716,                ,                ,                ,                ,                , 
      0.244346,        1.409200,        0.061430,        1.382202,       -0.281311,                ,                ,                ,                ,                , 
      0.261799,        1.403700,        0.074470,        1.375144,       -0.291372,                ,                ,                ,                ,                , 
