           aoa,              Cl,              Cd,              Cn,              Cc,         aoa_Cl0,    Cl_lin_slope,    Cl_lin_range,          Cd_Cl0,              Re,
     -0.174533,       -0.797100,        0.027780,       -0.789814,       -0.111057,       -0.056449,        6.727288,       -0.087266,        0.010948,   276860.483062, 
     -0.157080,       -0.666800,        0.023580,       -0.662279,       -0.081021,                ,                ,        0.174533,                ,                , 
     -0.139626,       -0.536500,        0.019380,       -0.533976,       -0.055475,                ,                ,                ,                ,                , 
     -0.122173,       -0.435500,        0.016670,       -0.434285,       -0.036528,                ,                ,                ,                ,                , 
     -0.104720,       -0.328800,        0.014330,       -0.328497,       -0.020117,                ,                ,                ,                ,                , 
     -0.087266,       -0.209300,        0.010870,       -0.209451,       -0.007413,                ,                ,                ,                ,                , 
     -0.069813,       -0.090200,        0.010780,       -0.090732,        0.004462,                ,                ,                ,                ,                , 
     -0.052360,        0.027600,        0.011000,        0.026986,        0.012429,                ,                ,                ,                ,                , 
     -0.034907,        0.145700,        0.011190,        0.145221,        0.016268,                ,                ,                ,                ,                , 
     -0.017453,        0.264000,        0.011260,        0.263763,        0.015866,                ,                ,                ,                ,                , 
      0.000000,        0.382700,        0.011360,        0.382700,        0.011360,                ,                ,                ,                ,                , 
      0.017453,        0.500700,        0.011540,        0.500825,        0.002800,                ,                ,                ,                ,                , 
      0.034907,        0.617700,        0.011790,        0.617735,       -0.009775,                ,                ,                ,                ,                , 
      0.052360,        0.733100,        0.012070,        0.732727,       -0.026314,                ,                ,                ,                ,                , 
      0.069813,        0.846700,        0.012330,        0.845498,       -0.046763,                ,                ,                ,                ,                , 
      0.087266,        0.955600,        0.012520,        0.953055,       -0.070814,                ,                ,                ,                ,                , 
      0.104720,        1.055700,        0.012760,        1.051251,       -0.097661,                ,                ,                ,                ,                , 
      0.122173,        1.125200,        0.015475,        1.118699,       -0.121768,                ,                ,                ,                ,                , 
      0.139626,        1.194700,        0.018190,        1.185605,       -0.148257,                ,                ,                ,                ,                , 
      0.157080,        1.235500,        0.023730,        1.224001,       -0.169837,                ,                ,                ,                ,                , 
      0.174533,        1.269800,        0.029800,        1.255684,       -0.191151,                ,                ,                ,                ,                , 
      0.191986,        1.299200,        0.037080,        1.282405,       -0.211500,                ,                ,                ,                ,                , 
      0.209440,        1.328700,        0.044690,        1.308956,       -0.232539,                ,                ,                ,                ,                , 
      0.226893,        1.364800,        0.051890,        1.341493,       -0.256453,                ,                ,                ,                ,                , 
      0.244346,        1.403200,        0.059370,        1.375882,       -0.281858,                ,                ,                ,                ,                , 
      0.261799,        1.433400,        0.068120,        1.402189,       -0.305192,                ,                ,                ,                ,                , 
