           aoa,              Cl,              Cd,              Cn,              Cc,         aoa_Cl0,    Cl_lin_slope,    Cl_lin_range,          Cd_Cl0,              Re,
     -0.174533,       -0.799900,        0.035110,       -0.793845,       -0.104325,       -0.056429,        6.604962,       -0.087266,        0.012564,   218073.960722, 
     -0.157080,       -0.693900,        0.027170,       -0.689607,       -0.081714,                ,                ,        0.174533,                ,                , 
     -0.139626,       -0.545900,        0.021670,       -0.543603,       -0.054515,                ,                ,                ,                ,                , 
     -0.122173,       -0.421800,        0.018120,       -0.420864,       -0.033420,                ,                ,                ,                ,                , 
     -0.104720,       -0.318000,        0.015340,       -0.317861,       -0.017984,                ,                ,                ,                ,                , 
     -0.087266,       -0.203000,        0.012000,       -0.203273,       -0.005738,                ,                ,                ,                ,                , 
     -0.069813,       -0.087500,        0.012250,       -0.088141,        0.006116,                ,                ,                ,                ,                , 
     -0.052360,        0.026600,        0.012660,        0.025901,        0.014035,                ,                ,                ,                ,                , 
     -0.034907,        0.141200,        0.012870,        0.140665,        0.017790,                ,                ,                ,                ,                , 
     -0.017453,        0.257700,        0.012930,        0.257435,        0.017426,                ,                ,                ,                ,                , 
      0.000000,        0.374700,        0.013040,        0.374700,        0.013040,                ,                ,                ,                ,                , 
      0.017453,        0.491000,        0.013220,        0.491156,        0.004649,                ,                ,                ,                ,                , 
      0.034907,        0.606600,        0.013490,        0.606701,       -0.007688,                ,                ,                ,                ,                , 
      0.052360,        0.720000,        0.013770,        0.719734,       -0.023931,                ,                ,                ,                ,                , 
      0.069813,        0.830600,        0.014020,        0.829555,       -0.043954,                ,                ,                ,                ,                , 
      0.087266,        0.934000,        0.013980,        0.931664,       -0.067477,                ,                ,                ,                ,                , 
      0.104720,        1.025800,        0.013840,        1.021627,       -0.093461,                ,                ,                ,                ,                , 
      0.122173,        1.116900,        0.014000,        1.110281,       -0.122220,                ,                ,                ,                ,                , 
      0.139626,        1.191500,        0.018570,        1.182489,       -0.147435,                ,                ,                ,                ,                , 
      0.157080,        1.215300,        0.025170,        1.204275,       -0.165255,                ,                ,                ,                ,                , 
      0.174533,        1.242800,        0.032040,        1.229483,       -0.184257,                ,                ,                ,                ,                , 
      0.191986,        1.274600,        0.039280,        1.258677,       -0.204647,                ,                ,                ,                ,                , 
      0.209440,        1.314700,        0.046140,        1.295564,       -0.228210,                ,                ,                ,                ,                , 
      0.226893,        1.363800,        0.052890,        1.340744,       -0.255254,                ,                ,                ,                ,                , 
      0.244346,        1.400600,        0.061540,        1.373884,       -0.279124,                ,                ,                ,                ,                , 
      0.261799,        1.412200,        0.073040,        1.382985,       -0.294953,                ,                ,                ,                ,                , 
