           aoa,              Cl,              Cd,              Cn,              Cc,         aoa_Cl0,    Cl_lin_slope,    Cl_lin_range,          Cd_Cl0,              Re,
     -0.174533,       -0.804800,        0.029190,       -0.797642,       -0.111006,       -0.056506,        6.742090,       -0.087266,        0.010702,   289074.680843, 
     -0.157080,       -0.663900,        0.022970,       -0.659320,       -0.081170,                ,                ,        0.174533,                ,                , 
     -0.139626,       -0.536700,        0.019180,       -0.534146,       -0.055701,                ,                ,                ,                ,                , 
     -0.122173,       -0.437900,        0.016450,       -0.436641,       -0.037039,                ,                ,                ,                ,                , 
     -0.104720,       -0.330300,        0.014130,       -0.329968,       -0.020473,                ,                ,                ,                ,                , 
     -0.087266,       -0.210200,        0.010710,       -0.210334,       -0.007651,                ,                ,                ,                ,                , 
     -0.069813,       -0.090500,        0.010550,       -0.091015,        0.004211,                ,                ,                ,                ,                , 
     -0.052360,        0.028200,        0.010750,        0.027599,        0.012211,                ,                ,                ,                ,                , 
     -0.034907,        0.146000,        0.010930,        0.145530,        0.016019,                ,                ,                ,                ,                , 
     -0.017453,        0.264900,        0.011000,        0.264668,        0.015621,                ,                ,                ,                ,                , 
      0.000000,        0.383600,        0.011110,        0.383600,        0.011110,                ,                ,                ,                ,                , 
      0.017453,        0.501800,        0.011290,        0.501921,        0.002531,                ,                ,                ,                ,                , 
      0.034907,        0.619400,        0.011530,        0.619425,       -0.010094,                ,                ,                ,                ,                , 
      0.052360,        0.735200,        0.011810,        0.734811,       -0.026684,                ,                ,                ,                ,                , 
      0.069813,        0.848400,        0.012060,        0.847175,       -0.047151,                ,                ,                ,                ,                , 
      0.087266,        0.957900,        0.012280,        0.955325,       -0.071253,                ,                ,                ,                ,                , 
      0.104720,        1.059800,        0.012570,        1.055308,       -0.098278,                ,                ,                ,                ,                , 
      0.122173,        1.142700,        0.013590,        1.135839,       -0.125771,                ,                ,                ,                ,                , 
      0.139626,        1.195700,        0.018100,        1.186583,       -0.148485,                ,                ,                ,                ,                , 
      0.157080,        1.240300,        0.023410,        1.228692,       -0.170904,                ,                ,                ,                ,                , 
      0.174533,        1.274900,        0.029380,        1.260633,       -0.192450,                ,                ,                ,                ,                , 
      0.191986,        1.303400,        0.036710,        1.286457,       -0.212665,                ,                ,                ,                ,                , 
      0.209440,        1.332800,        0.044330,        1.312892,       -0.233743,                ,                ,                ,                ,                , 
      0.226893,        1.365700,        0.051810,        1.342352,       -0.256734,                ,                ,                ,                ,                , 
      0.244346,        1.397300,        0.059870,        1.370278,       -0.279946,                ,                ,                ,                ,                , 
      0.261799,        1.419400,        0.069400,        1.388997,       -0.300333,                ,                ,                ,                ,                , 
