           aoa,              Cl,              Cd,              Cn,              Cc,         aoa_Cl0,    Cl_lin_slope,    Cl_lin_range,          Cd_Cl0,              Re,
     -0.174533,       -0.810300,        0.029790,       -0.803163,       -0.111370,       -0.056453,        6.725188,       -0.087266,        0.010976,   275695.111501, 
     -0.157080,       -0.667000,        0.023640,       -0.662486,       -0.080993,                ,                ,        0.174533,                ,                , 
     -0.139626,       -0.536500,        0.019410,       -0.533980,       -0.055445,                ,                ,                ,                ,                , 
     -0.122173,       -0.435300,        0.016700,       -0.434091,       -0.036474,                ,                ,                ,                ,                , 
     -0.104720,       -0.328700,        0.014360,       -0.328400,       -0.020077,                ,                ,                ,                ,                , 
     -0.087266,       -0.209200,        0.010880,       -0.209352,       -0.007394,                ,                ,                ,                ,                , 
     -0.069813,       -0.090100,        0.010800,       -0.090634,        0.004489,                ,                ,                ,                ,                , 
     -0.052360,        0.027600,        0.011030,        0.026985,        0.012459,                ,                ,                ,                ,                , 
     -0.034907,        0.145600,        0.011210,        0.145120,        0.016285,                ,                ,                ,                ,                , 
     -0.017453,        0.263900,        0.011280,        0.263663,        0.015884,                ,                ,                ,                ,                , 
      0.000000,        0.382500,        0.011380,        0.382500,        0.011380,                ,                ,                ,                ,                , 
      0.017453,        0.500500,        0.011560,        0.500626,        0.002823,                ,                ,                ,                ,                , 
      0.034907,        0.617500,        0.011820,        0.617536,       -0.009738,                ,                ,                ,                ,                , 
      0.052360,        0.733000,        0.012100,        0.732629,       -0.026279,                ,                ,                ,                ,                , 
      0.069813,        0.846400,        0.012360,        0.845200,       -0.046712,                ,                ,                ,                ,                , 
      0.087266,        0.955400,        0.012540,        0.952857,       -0.070776,                ,                ,                ,                ,                , 
      0.104720,        1.055300,        0.012770,        1.050854,       -0.097609,                ,                ,                ,                ,                , 
      0.122173,        1.136100,        0.013570,        1.129285,       -0.124987,                ,                ,                ,                ,                , 
      0.139626,        1.194700,        0.018200,        1.185606,       -0.148247,                ,                ,                ,                ,                , 
      0.157080,        1.234900,        0.023760,        1.223413,       -0.169713,                ,                ,                ,                ,                , 
      0.174533,        1.269200,        0.029840,        1.255100,       -0.191008,                ,                ,                ,                ,                , 
      0.191986,        1.298700,        0.037130,        1.281924,       -0.211356,                ,                ,                ,                ,                , 
      0.209440,        1.328400,        0.044730,        1.308671,       -0.232437,                ,                ,                ,                ,                , 
      0.226893,        1.364400,        0.051940,        1.341114,       -0.256314,                ,                ,                ,                ,                , 
      0.244346,        1.404300,        0.059270,        1.376925,       -0.282221,                ,                ,                ,                ,                , 
      0.261799,        1.434800,        0.068010,        1.403513,       -0.305661,                ,                ,                ,                ,                , 
