           aoa,              Cl,              Cd,              Cn,              Cc,         aoa_Cl0,    Cl_lin_slope,    Cl_lin_range,          Cd_Cl0,              Re,
     -0.174533,       -0.808400,        0.029460,       -0.801234,       -0.111365,       -0.056461,        6.734068,       -0.087266,        0.010861,   281049.272237, 
     -0.157080,       -0.665800,        0.023370,       -0.661259,       -0.081072,                ,                ,        0.174533,                ,                , 
     -0.139626,       -0.536700,        0.019280,       -0.534160,       -0.055602,                ,                ,                ,                ,                , 
     -0.122173,       -0.436400,        0.016590,       -0.435169,       -0.036717,                ,                ,                ,                ,                , 
     -0.104720,       -0.329300,        0.014260,       -0.328987,       -0.020239,                ,                ,                ,                ,                , 
     -0.087266,       -0.209600,        0.010810,       -0.209745,       -0.007499,                ,                ,                ,                ,                , 
     -0.069813,       -0.090500,        0.010700,       -0.091026,        0.004361,                ,                ,                ,                ,                , 
     -0.052360,        0.027800,        0.010910,        0.027191,        0.012350,                ,                ,                ,                ,                , 
     -0.034907,        0.145900,        0.011100,        0.145424,        0.016185,                ,                ,                ,                ,                , 
     -0.017453,        0.264400,        0.011170,        0.264165,        0.015783,                ,                ,                ,                ,                , 
      0.000000,        0.383200,        0.011270,        0.383200,        0.011270,                ,                ,                ,                ,                , 
      0.017453,        0.501300,        0.011450,        0.501423,        0.002699,                ,                ,                ,                ,                , 
      0.034907,        0.618400,        0.011700,        0.618432,       -0.009889,                ,                ,                ,                ,                , 
      0.052360,        0.733800,        0.011980,        0.733421,       -0.026441,                ,                ,                ,                ,                , 
      0.069813,        0.847500,        0.012240,        0.846289,       -0.046908,                ,                ,                ,                ,                , 
      0.087266,        0.956200,        0.012430,        0.953645,       -0.070956,                ,                ,                ,                ,                , 
      0.104720,        1.057400,        0.012690,        1.052934,       -0.097908,                ,                ,                ,                ,                , 
      0.122173,        1.138700,        0.013570,        1.131866,       -0.125304,                ,                ,                ,                ,                , 
      0.139626,        1.195100,        0.018160,        1.185997,       -0.148343,                ,                ,                ,                ,                , 
      0.157080,        1.237300,        0.023610,        1.225760,       -0.170237,                ,                ,                ,                ,                , 
      0.174533,        1.271700,        0.029640,        1.257527,       -0.191639,                ,                ,                ,                ,                , 
      0.191986,        1.300900,        0.036930,        1.284045,       -0.211972,                ,                ,                ,                ,                , 
      0.209440,        1.330100,        0.044580,        1.310303,       -0.232938,                ,                ,                ,                ,                , 
      0.226893,        1.367300,        0.051620,        1.343868,       -0.257279,                ,                ,                ,                ,                , 
      0.244346,        1.400200,        0.059630,        1.373034,       -0.280880,                ,                ,                ,                ,                , 
      0.261799,        1.426800,        0.068700,        1.395964,       -0.302924,                ,                ,                ,                ,                , 
