           aoa,              Cl,              Cd,              Cn,              Cc,         aoa_Cl0,    Cl_lin_slope,    Cl_lin_range,          Cd_Cl0,              Re,
     -0.174533,       -0.795300,        0.036020,       -0.789472,       -0.102630,       -0.056329,        6.575168,       -0.087266,        0.012955,   208020.280554, 
     -0.157080,       -0.701600,        0.027820,       -0.697314,       -0.082277,                ,                ,        0.174533,                ,                , 
     -0.139626,       -0.551300,        0.022260,       -0.549033,       -0.054683,                ,                ,                ,                ,                , 
     -0.122173,       -0.421500,        0.018430,       -0.420604,       -0.033075,                ,                ,                ,                ,                , 
     -0.104720,       -0.315500,        0.015560,       -0.315398,       -0.017504,                ,                ,                ,                ,                , 
     -0.087266,       -0.201200,        0.012260,       -0.201503,       -0.005322,                ,                ,                ,                ,                , 
     -0.069813,       -0.087300,        0.012600,       -0.087966,        0.006480,                ,                ,                ,                ,                , 
     -0.052360,        0.025700,        0.013060,        0.024981,        0.014387,                ,                ,                ,                ,                , 
     -0.034907,        0.140000,        0.013270,        0.139452,        0.018148,                ,                ,                ,                ,                , 
     -0.017453,        0.256800,        0.013330,        0.256528,        0.017810,                ,                ,                ,                ,                , 
      0.000000,        0.373500,        0.013430,        0.373500,        0.013430,                ,                ,                ,                ,                , 
      0.017453,        0.489400,        0.013600,        0.489563,        0.005057,                ,                ,                ,                ,                , 
      0.034907,        0.603500,        0.013870,        0.603616,       -0.007200,                ,                ,                ,                ,                , 
      0.052360,        0.716600,        0.014170,        0.716360,       -0.023353,                ,                ,                ,                ,                , 
      0.069813,        0.826000,        0.014380,        0.824991,       -0.043274,                ,                ,                ,                ,                , 
      0.087266,        0.928500,        0.014310,        0.926214,       -0.066669,                ,                ,                ,                ,                , 
      0.104720,        1.016800,        0.014060,        1.012700,       -0.092302,                ,                ,                ,                ,                , 
      0.122173,        1.116700,        0.014240,        1.110112,       -0.121958,                ,                ,                ,                ,                , 
      0.139626,        1.191300,        0.018630,        1.182299,       -0.147348,                ,                ,                ,                ,                , 
      0.157080,        1.210600,        0.025520,        1.199688,       -0.164174,                ,                ,                ,                ,                , 
      0.174533,        1.237600,        0.032480,        1.224438,       -0.182920,                ,                ,                ,                ,                , 
      0.191986,        1.270400,        0.039680,        1.254630,       -0.203453,                ,                ,                ,                ,                , 
      0.209440,        1.313600,        0.046380,        1.294538,       -0.227746,                ,                ,                ,                ,                , 
      0.226893,        1.372900,        0.052520,        1.349527,       -0.257661,                ,                ,                ,                ,                , 
      0.244346,        1.409000,        0.061440,        1.382010,       -0.281253,                ,                ,                ,                ,                , 
      0.261799,        1.404500,        0.074370,        1.375891,       -0.291675,                ,                ,                ,                ,                , 
