           aoa,              Cl,              Cd,              Cn,              Cc,         aoa_Cl0,    Cl_lin_slope,    Cl_lin_range,          Cd_Cl0,              Re,
     -0.174533,       -0.787400,        0.031690,       -0.780941,       -0.105522,       -0.056242,        6.544706,       -0.087266,        0.007287,   226974.618895, 
     -0.157080,       -0.656900,        0.021110,       -0.652115,       -0.081912,                ,                ,        0.174533,                ,                , 
     -0.139626,       -0.522300,        0.015410,       -0.519362,       -0.057430,                ,                ,                ,                ,                , 
     -0.122173,       -0.416300,        0.012160,       -0.414679,       -0.038665,                ,                ,                ,                ,                , 
     -0.104720,       -0.316700,        0.009710,       -0.315980,       -0.023447,                ,                ,                ,                ,                , 
     -0.087266,       -0.203300,        0.006970,       -0.203134,       -0.010775,                ,                ,                ,                ,                , 
     -0.069813,       -0.088100,        0.007100,       -0.088381,        0.000937,                ,                ,                ,                ,                , 
     -0.052360,        0.025200,        0.007340,        0.024781,        0.008649,                ,                ,                ,                ,                , 
     -0.034907,        0.138900,        0.007480,        0.138554,        0.012323,                ,                ,                ,                ,                , 
     -0.017453,        0.254500,        0.007530,        0.254330,        0.011970,                ,                ,                ,                ,                , 
      0.000000,        0.370300,        0.007620,        0.370300,        0.007620,                ,                ,                ,                ,                , 
      0.017453,        0.485500,        0.007760,        0.485561,       -0.000714,                ,                ,                ,                ,                , 
      0.034907,        0.600200,        0.007950,        0.600112,       -0.013002,                ,                ,                ,                ,                , 
      0.052360,        0.712000,        0.008180,        0.711452,       -0.029094,                ,                ,                ,                ,                , 
      0.069813,        0.821800,        0.008410,        0.820385,       -0.048936,                ,                ,                ,                ,                , 
      0.087266,        0.925700,        0.008490,        0.922917,       -0.072222,                ,                ,                ,                ,                , 
      0.104720,        1.018300,        0.008500,        1.013610,       -0.097988,                ,                ,                ,                ,                , 
      0.122173,        1.095400,        0.008890,        1.088318,       -0.124672,                ,                ,                ,                ,                , 
      0.139626,        1.161900,        0.013060,        1.152410,       -0.148772,                ,                ,                ,                ,                , 
      0.157080,        1.169000,        0.019870,        1.157716,       -0.163247,                ,                ,                ,                ,                , 
      0.174533,        1.247400,        0.031650,        1.233945,       -0.185440,                ,                ,                ,                ,                , 
      0.191986,        1.277100,        0.039020,        1.261081,       -0.205379,                ,                ,                ,                ,                , 
      0.209440,        1.317800,        0.045780,        1.298521,       -0.229206,                ,                ,                ,                ,                , 
      0.226893,        1.362400,        0.052740,        1.339346,       -0.255085,                ,                ,                ,                ,                , 
      0.244346,        1.404500,        0.060660,        1.377455,       -0.280921,                ,                ,                ,                ,                , 
      0.261799,        1.404800,        0.073210,        1.375881,       -0.292874,                ,                ,                ,                ,                , 
