           aoa,              Cl,              Cd,              Cn,              Cc,         aoa_Cl0,    Cl_lin_slope,    Cl_lin_range,          Cd_Cl0,              Re,
     -0.174533,       -0.786700,        0.037690,       -0.781293,       -0.099492,       -0.056368,        6.534488,       -0.087266,        0.013340,   198742.233124, 
     -0.157080,       -0.708500,        0.028990,       -0.704312,       -0.082201,                ,                ,        0.174533,                ,                , 
     -0.139626,       -0.557100,        0.022750,       -0.554845,       -0.055005,                ,                ,                ,                ,                , 
     -0.122173,       -0.421300,        0.018810,       -0.420452,       -0.032674,                ,                ,                ,                ,                , 
     -0.104720,       -0.313000,        0.015750,       -0.312932,       -0.017054,                ,                ,                ,                ,                , 
     -0.087266,       -0.199700,        0.012540,       -0.200033,       -0.004913,                ,                ,                ,                ,                , 
     -0.069813,       -0.086200,        0.012970,       -0.086895,        0.006925,                ,                ,                ,                ,                , 
     -0.052360,        0.025700,        0.013450,        0.024961,        0.014777,                ,                ,                ,                ,                , 
     -0.034907,        0.139200,        0.013660,        0.138638,        0.018510,                ,                ,                ,                ,                , 
     -0.017453,        0.254600,        0.013730,        0.254322,        0.018171,                ,                ,                ,                ,                , 
      0.000000,        0.370600,        0.013830,        0.370600,        0.013830,                ,                ,                ,                ,                , 
      0.017453,        0.486000,        0.014020,        0.486171,        0.005536,                ,                ,                ,                ,                , 
      0.034907,        0.600700,        0.014290,        0.600833,       -0.006683,                ,                ,                ,                ,                , 
      0.052360,        0.712400,        0.014570,        0.712186,       -0.022734,                ,                ,                ,                ,                , 
      0.069813,        0.820900,        0.014780,        0.819931,       -0.042519,                ,                ,                ,                ,                , 
      0.087266,        0.922900,        0.014650,        0.920665,       -0.065842,                ,                ,                ,                ,                , 
      0.104720,        1.007900,        0.014290,        1.003872,       -0.091143,                ,                ,                ,                ,                , 
      0.122173,        1.116400,        0.014500,        1.109846,       -0.121663,                ,                ,                ,                ,                , 
      0.139626,        1.191300,        0.018680,        1.182306,       -0.147299,                ,                ,                ,                ,                , 
      0.157080,        1.207900,        0.025740,        1.197055,       -0.163534,                ,                ,                ,                ,                , 
      0.174533,        1.233500,        0.032840,        1.220463,       -0.181854,                ,                ,                ,                ,                , 
      0.191986,        1.266800,        0.040010,        1.251160,       -0.202442,                ,                ,                ,                ,                , 
      0.209440,        1.315500,        0.046380,        1.296396,       -0.228141,                ,                ,                ,                ,                , 
      0.226893,        1.368100,        0.053230,        1.345010,       -0.255890,                ,                ,                ,                ,                , 
      0.244346,        1.410700,        0.061820,        1.383752,       -0.281296,                ,                ,                ,                ,                , 
      0.261799,        1.393900,        0.076290,        1.366149,       -0.287077,                ,                ,                ,                ,                , 
