           aoa,              Cl,              Cd,              Cn,              Cc,         aoa_Cl0,    Cl_lin_slope,    Cl_lin_range,          Cd_Cl0,              Re,
     -0.174533,       -0.804600,        0.033720,       -0.798232,       -0.106510,       -0.056420,        6.647074,       -0.087266,        0.012059,   233248.100834, 
     -0.157080,       -0.684900,        0.026060,       -0.680544,       -0.081403,                ,                ,        0.174533,                ,                , 
     -0.139626,       -0.540900,        0.020900,       -0.538545,       -0.054582,                ,                ,                ,                ,                , 
     -0.122173,       -0.425200,        0.017670,       -0.424184,       -0.034281,                ,                ,                ,                ,                , 
     -0.104720,       -0.321600,        0.015050,       -0.321411,       -0.018649,                ,                ,                ,                ,                , 
     -0.087266,       -0.205100,        0.011640,       -0.205334,       -0.006280,                ,                ,                ,                ,                , 
     -0.069813,       -0.088400,        0.011790,       -0.089007,        0.005595,                ,                ,                ,                ,                , 
     -0.052360,        0.026800,        0.012140,        0.026128,        0.013526,                ,                ,                ,                ,                , 
     -0.034907,        0.142500,        0.012350,        0.141982,        0.017316,                ,                ,                ,                ,                , 
     -0.017453,        0.259900,        0.012410,        0.259644,        0.016944,                ,                ,                ,                ,                , 
      0.000000,        0.377400,        0.012520,        0.377400,        0.012520,                ,                ,                ,                ,                , 
      0.017453,        0.494600,        0.012700,        0.494746,        0.004066,                ,                ,                ,                ,                , 
      0.034907,        0.610700,        0.012960,        0.610780,       -0.008361,                ,                ,                ,                ,                , 
      0.052360,        0.724300,        0.013240,        0.724000,       -0.024685,                ,                ,                ,                ,                , 
      0.069813,        0.835900,        0.013500,        0.834806,       -0.044842,                ,                ,                ,                ,                , 
      0.087266,        0.941200,        0.013530,        0.938798,       -0.068552,                ,                ,                ,                ,                , 
      0.104720,        1.035600,        0.013510,        1.031339,       -0.094814,                ,                ,                ,                ,                , 
      0.122173,        1.117100,        0.013670,        1.110439,       -0.122572,                ,                ,                ,                ,                , 
      0.139626,        1.192000,        0.018480,        1.182971,       -0.147594,                ,                ,                ,                ,                , 
      0.157080,        1.220800,        0.024760,        1.209643,       -0.166520,                ,                ,                ,                ,                , 
      0.174533,        1.249600,        0.031450,        1.236077,       -0.186019,                ,                ,                ,                ,                , 
      0.191986,        1.280300,        0.038750,        1.264171,       -0.206255,                ,                ,                ,                ,                , 
      0.209440,        1.317800,        0.045760,        1.298517,       -0.229226,                ,                ,                ,                ,                , 
      0.226893,        1.363200,        0.052510,        1.340073,       -0.255489,                ,                ,                ,                ,                , 
      0.244346,        1.415500,        0.059540,        1.387858,       -0.284669,                ,                ,                ,                ,                , 
      0.261799,        1.411000,        0.072140,        1.381593,       -0.295512,                ,                ,                ,                ,                , 
