           aoa,              Cl,              Cd,              Cn,              Cc,         aoa_Cl0,    Cl_lin_slope,    Cl_lin_range,          Cd_Cl0,              Re,
     -0.174533,       -0.810200,        0.029730,       -0.803054,       -0.111411,       -0.056449,        6.726238,       -0.087266,        0.010966,   276245.870314, 
     -0.157080,       -0.666900,        0.023610,       -0.662383,       -0.081007,                ,                ,        0.174533,                ,                , 
     -0.139626,       -0.536500,        0.019400,       -0.533979,       -0.055455,                ,                ,                ,                ,                , 
     -0.122173,       -0.435400,        0.016690,       -0.434189,       -0.036496,                ,                ,                ,                ,                , 
     -0.104720,       -0.328700,        0.014350,       -0.328399,       -0.020087,                ,                ,                ,                ,                , 
     -0.087266,       -0.209200,        0.010880,       -0.209352,       -0.007394,                ,                ,                ,                ,                , 
     -0.069813,       -0.090200,        0.010790,       -0.090733,        0.004472,                ,                ,                ,                ,                , 
     -0.052360,        0.027600,        0.011020,        0.026985,        0.012449,                ,                ,                ,                ,                , 
     -0.034907,        0.145600,        0.011200,        0.145120,        0.016275,                ,                ,                ,                ,                , 
     -0.017453,        0.263900,        0.011270,        0.263663,        0.015874,                ,                ,                ,                ,                , 
      0.000000,        0.382600,        0.011370,        0.382600,        0.011370,                ,                ,                ,                ,                , 
      0.017453,        0.500600,        0.011550,        0.500725,        0.002812,                ,                ,                ,                ,                , 
      0.034907,        0.617600,        0.011810,        0.617636,       -0.009751,                ,                ,                ,                ,                , 
      0.052360,        0.733000,        0.012090,        0.732628,       -0.026289,                ,                ,                ,                ,                , 
      0.069813,        0.846500,        0.012350,        0.845299,       -0.046729,                ,                ,                ,                ,                , 
      0.087266,        0.955500,        0.012530,        0.952956,       -0.070795,                ,                ,                ,                ,                , 
      0.104720,        1.055500,        0.012770,        1.051053,       -0.097630,                ,                ,                ,                ,                , 
      0.122173,        1.136500,        0.013570,        1.129682,       -0.125036,                ,                ,                ,                ,                , 
      0.139626,        1.194700,        0.018200,        1.185606,       -0.148247,                ,                ,                ,                ,                , 
      0.157080,        1.235200,        0.023750,        1.223708,       -0.169770,                ,                ,                ,                ,                , 
      0.174533,        1.269500,        0.029820,        1.255392,       -0.191079,                ,                ,                ,                ,                , 
      0.191986,        1.299000,        0.037110,        1.282215,       -0.211433,                ,                ,                ,                ,                , 
      0.209440,        1.328500,        0.044710,        1.308765,       -0.232478,                ,                ,                ,                ,                , 
      0.226893,        1.364600,        0.051920,        1.341305,       -0.256379,                ,                ,                ,                ,                , 
      0.244346,        1.403800,        0.059320,        1.376452,       -0.282052,                ,                ,                ,                ,                , 
      0.261799,        1.434500,        0.068030,        1.403228,       -0.305564,                ,                ,                ,                ,                , 
