           aoa,              Cl,              Cd,              Cn,              Cc,         aoa_Cl0,    Cl_lin_slope,    Cl_lin_range,          Cd_Cl0,              Re,
     -0.174533,       -0.787700,        0.037840,       -0.782304,       -0.099518,       -0.056308,        6.523506,       -0.087266,        0.013505,   195237.571281, 
     -0.157080,       -0.711300,        0.029420,       -0.707145,       -0.082214,                ,                ,        0.174533,                ,                , 
     -0.139626,       -0.559200,        0.022970,       -0.556955,       -0.055079,                ,                ,                ,                ,                , 
     -0.122173,       -0.421900,        0.018990,       -0.421070,       -0.032568,                ,                ,                ,                ,                , 
     -0.104720,       -0.312000,        0.015840,       -0.311947,       -0.016860,                ,                ,                ,                ,                , 
     -0.087266,       -0.198800,        0.012650,       -0.199146,       -0.004725,                ,                ,                ,                ,                , 
     -0.069813,       -0.086200,        0.013110,       -0.086905,        0.007065,                ,                ,                ,                ,                , 
     -0.052360,        0.025200,        0.013620,        0.024453,        0.014920,                ,                ,                ,                ,                , 
     -0.034907,        0.138400,        0.013830,        0.137833,        0.018652,                ,                ,                ,                ,                , 
     -0.017453,        0.253700,        0.013900,        0.253419,        0.018326,                ,                ,                ,                ,                , 
      0.000000,        0.369600,        0.014000,        0.369600,        0.014000,                ,                ,                ,                ,                , 
      0.017453,        0.485100,        0.014180,        0.485274,        0.005712,                ,                ,                ,                ,                , 
      0.034907,        0.599700,        0.014440,        0.599839,       -0.006498,                ,                ,                ,                ,                , 
      0.052360,        0.711000,        0.014720,        0.710796,       -0.022511,                ,                ,                ,                ,                , 
      0.069813,        0.818800,        0.014940,        0.817848,       -0.042213,                ,                ,                ,                ,                , 
      0.087266,        0.919600,        0.014770,        0.917388,       -0.065435,                ,                ,                ,                ,                , 
      0.104720,        1.004100,        0.014380,        1.000103,       -0.090656,                ,                ,                ,                ,                , 
      0.122173,        1.116300,        0.014600,        1.109759,       -0.121552,                ,                ,                ,                ,                , 
      0.139626,        1.191200,        0.018710,        1.182211,       -0.147255,                ,                ,                ,                ,                , 
      0.157080,        1.206400,        0.025860,        1.195593,       -0.163181,                ,                ,                ,                ,                , 
      0.174533,        1.231500,        0.033020,        1.218525,       -0.181329,                ,                ,                ,                ,                , 
      0.191986,        1.265700,        0.040130,        1.250103,       -0.202114,                ,                ,                ,                ,                , 
      0.209440,        1.314400,        0.046510,        1.295347,       -0.227785,                ,                ,                ,                ,                , 
      0.226893,        1.367500,        0.053470,        1.344479,       -0.255521,                ,                ,                ,                ,                , 
      0.244346,        1.402500,        0.062760,        1.376023,       -0.278400,                ,                ,                ,                ,                , 
      0.261799,        1.398300,        0.076160,        1.370366,       -0.288342,                ,                ,                ,                ,                , 
