           aoa,              Cl,              Cd,              Cn,              Cc,         aoa_Cl0,    Cl_lin_slope,    Cl_lin_range,          Cd_Cl0,              Re,
     -0.174533,       -0.786700,        0.037680,       -0.781291,       -0.099501,       -0.056368,        6.534870,       -0.087266,        0.013337,   198858.430718, 
     -0.157080,       -0.708400,        0.028980,       -0.704212,       -0.082195,                ,                ,        0.174533,                ,                , 
     -0.139626,       -0.557000,        0.022740,       -0.554744,       -0.055001,                ,                ,                ,                ,                , 
     -0.122173,       -0.421200,        0.018810,       -0.420353,       -0.032662,                ,                ,                ,                ,                , 
     -0.104720,       -0.313000,        0.015750,       -0.312932,       -0.017054,                ,                ,                ,                ,                , 
     -0.087266,       -0.199700,        0.012530,       -0.200032,       -0.004923,                ,                ,                ,                ,                , 
     -0.069813,       -0.086200,        0.012960,       -0.086894,        0.006915,                ,                ,                ,                ,                , 
     -0.052360,        0.025700,        0.013450,        0.024961,        0.014777,                ,                ,                ,                ,                , 
     -0.034907,        0.139200,        0.013660,        0.138638,        0.018510,                ,                ,                ,                ,                , 
     -0.017453,        0.254600,        0.013720,        0.254322,        0.018161,                ,                ,                ,                ,                , 
      0.000000,        0.370600,        0.013820,        0.370600,        0.013820,                ,                ,                ,                ,                , 
      0.017453,        0.486000,        0.014010,        0.486170,        0.005526,                ,                ,                ,                ,                , 
      0.034907,        0.600700,        0.014280,        0.600832,       -0.006693,                ,                ,                ,                ,                , 
      0.052360,        0.712400,        0.014570,        0.712186,       -0.022734,                ,                ,                ,                ,                , 
      0.069813,        0.821000,        0.014780,        0.820031,       -0.042526,                ,                ,                ,                ,                , 
      0.087266,        0.922900,        0.014650,        0.920665,       -0.065842,                ,                ,                ,                ,                , 
      0.104720,        1.008000,        0.014290,        1.003972,       -0.091153,                ,                ,                ,                ,                , 
      0.122173,        1.116400,        0.014490,        1.109844,       -0.121673,                ,                ,                ,                ,                , 
      0.139626,        1.191300,        0.018680,        1.182306,       -0.147299,                ,                ,                ,                ,                , 
      0.157080,        1.208000,        0.025730,        1.197153,       -0.163560,                ,                ,                ,                ,                , 
      0.174533,        1.233600,        0.032830,        1.220560,       -0.181881,                ,                ,                ,                ,                , 
      0.191986,        1.266900,        0.040000,        1.251256,       -0.202471,                ,                ,                ,                ,                , 
      0.209440,        1.315400,        0.046380,        1.296298,       -0.228121,                ,                ,                ,                ,                , 
      0.226893,        1.368200,        0.053220,        1.345105,       -0.255922,                ,                ,                ,                ,                , 
      0.244346,        1.411200,        0.061770,        1.384225,       -0.281465,                ,                ,                ,                ,                , 
      0.261799,        1.393800,        0.076290,        1.366053,       -0.287052,                ,                ,                ,                ,                , 
