           aoa,              Cl,              Cd,              Cn,              Cc,         aoa_Cl0,    Cl_lin_slope,    Cl_lin_range,          Cd_Cl0,              Re,
     -0.174533,       -0.816300,        0.032670,       -0.809572,       -0.109575,       -0.056464,        6.660825,       -0.087266,        0.011862,   239618.166839, 
     -0.157080,       -0.681800,        0.025540,       -0.677401,       -0.081431,                ,                ,        0.174533,                ,                , 
     -0.139626,       -0.538800,        0.020660,       -0.536432,       -0.054528,                ,                ,                ,                ,                , 
     -0.122173,       -0.426900,        0.017500,       -0.425851,       -0.034656,                ,                ,                ,                ,                , 
     -0.104720,       -0.322800,        0.014930,       -0.322592,       -0.018894,                ,                ,                ,                ,                , 
     -0.087266,       -0.205900,        0.011500,       -0.206119,       -0.006489,                ,                ,                ,                ,                , 
     -0.069813,       -0.088800,        0.011610,       -0.089394,        0.005387,                ,                ,                ,                ,                , 
     -0.052360,        0.027300,        0.011940,        0.026638,        0.013352,                ,                ,                ,                ,                , 
     -0.034907,        0.143000,        0.012150,        0.142489,        0.017133,                ,                ,                ,                ,                , 
     -0.017453,        0.260500,        0.012210,        0.260247,        0.016754,                ,                ,                ,                ,                , 
      0.000000,        0.378100,        0.012320,        0.378100,        0.012320,                ,                ,                ,                ,                , 
      0.017453,        0.495300,        0.012500,        0.495443,        0.003854,                ,                ,                ,                ,                , 
      0.034907,        0.611700,        0.012760,        0.611773,       -0.008596,                ,                ,                ,                ,                , 
      0.052360,        0.726300,        0.013050,        0.725988,       -0.024979,                ,                ,                ,                ,                , 
      0.069813,        0.837700,        0.013300,        0.836587,       -0.045167,                ,                ,                ,                ,                , 
      0.087266,        0.944200,        0.013370,        0.941772,       -0.068973,                ,                ,                ,                ,                , 
      0.104720,        1.040000,        0.013400,        1.035703,       -0.095383,                ,                ,                ,                ,                , 
      0.122173,        1.117000,        0.013560,        1.110327,       -0.122669,                ,                ,                ,                ,                , 
      0.139626,        1.192400,        0.018430,        1.183361,       -0.147699,                ,                ,                ,                ,                , 
      0.157080,        1.223300,        0.024580,        1.212084,       -0.167089,                ,                ,                ,                ,                , 
      0.174533,        1.252400,        0.031230,        1.238796,       -0.186721,                ,                ,                ,                ,                , 
      0.191986,        1.283400,        0.038480,        1.267163,       -0.207111,                ,                ,                ,                ,                , 
      0.209440,        1.318700,        0.045660,        1.299376,       -0.229511,                ,                ,                ,                ,                , 
      0.226893,        1.366600,        0.052090,        1.343292,       -0.256663,                ,                ,                ,                ,                , 
      0.244346,        1.405600,        0.060130,        1.378394,       -0.281702,                ,                ,                ,                ,                , 
      0.261799,        1.434300,        0.069620,        1.403446,       -0.303976,                ,                ,                ,                ,                , 
