           aoa,              Cl,              Cd,              Cn,              Cc,         aoa_Cl0,    Cl_lin_slope,    Cl_lin_range,          Cd_Cl0,              Re,
     -0.174533,       -0.813700,        0.031790,       -0.806858,       -0.109990,       -0.056478,        6.702078,       -0.087266,        0.011306,   260790.413624, 
     -0.157080,       -0.672100,        0.024380,       -0.667639,       -0.081060,                ,                ,        0.174533,                ,                , 
     -0.139626,       -0.536200,        0.019900,       -0.533751,       -0.054918,                ,                ,                ,                ,                , 
     -0.122173,       -0.431800,        0.017050,       -0.430659,       -0.035700,                ,                ,                ,                ,                , 
     -0.104720,       -0.326600,        0.014560,       -0.326333,       -0.019659,                ,                ,                ,                ,                , 
     -0.087266,       -0.208100,        0.011120,       -0.208277,       -0.007059,                ,                ,                ,                ,                , 
     -0.069813,       -0.089700,        0.011100,       -0.090256,        0.004816,                ,                ,                ,                ,                , 
     -0.052360,        0.027700,        0.011370,        0.027067,        0.012804,                ,                ,                ,                ,                , 
     -0.034907,        0.144400,        0.011560,        0.143909,        0.016592,                ,                ,                ,                ,                , 
     -0.017453,        0.262700,        0.011630,        0.262457,        0.016213,                ,                ,                ,                ,                , 
      0.000000,        0.380900,        0.011740,        0.380900,        0.011740,                ,                ,                ,                ,                , 
      0.017453,        0.498600,        0.011920,        0.498732,        0.003216,                ,                ,                ,                ,                , 
      0.034907,        0.615700,        0.012180,        0.615750,       -0.009315,                ,                ,                ,                ,                , 
      0.052360,        0.730600,        0.012460,        0.730251,       -0.025794,                ,                ,                ,                ,                , 
      0.069813,        0.843100,        0.012710,        0.841933,       -0.046133,                ,                ,                ,                ,                , 
      0.087266,        0.950900,        0.012850,        0.948401,       -0.070075,                ,                ,                ,                ,                , 
      0.104720,        1.049700,        0.013010,        1.045310,       -0.096785,                ,                ,                ,                ,                , 
      0.122173,        1.126700,        0.013540,        1.119952,       -0.123871,                ,                ,                ,                ,                , 
      0.139626,        1.193700,        0.018300,        1.184630,       -0.148009,                ,                ,                ,                ,                , 
      0.157080,        1.230800,        0.024050,        1.219409,       -0.168786,                ,                ,                ,                ,                , 
      0.174533,        1.262300,        0.030400,        1.248402,       -0.189258,                ,                ,                ,                ,                , 
      0.191986,        1.291300,        0.037760,        1.274780,       -0.209325,                ,                ,                ,                ,                , 
      0.209440,        1.324600,        0.045040,        1.305019,       -0.231344,                ,                ,                ,                ,                , 
      0.226893,        1.361800,        0.052320,        1.338667,       -0.255359,                ,                ,                ,                ,                , 
      0.244346,        1.399400,        0.060050,        1.372359,       -0.280279,                ,                ,                ,                ,                , 
      0.261799,        1.412900,        0.070830,        1.383089,       -0.297269,                ,                ,                ,                ,                , 
