           aoa,              Cl,              Cd,              Cn,              Cc,         aoa_Cl0,    Cl_lin_slope,    Cl_lin_range,          Cd_Cl0,              Re,
     -0.174533,       -0.788700,        0.037120,       -0.783164,       -0.100400,       -0.056347,        6.559316,       -0.087266,        0.013125,   203739.958947, 
     -0.157080,       -0.704700,        0.028330,       -0.700456,       -0.082258,                ,                ,        0.174533,                ,                , 
     -0.139626,       -0.553600,        0.022530,       -0.551348,       -0.054735,                ,                ,                ,                ,                , 
     -0.122173,       -0.421000,        0.018600,       -0.420129,       -0.032846,                ,                ,                ,                ,                , 
     -0.104720,       -0.314300,        0.015650,       -0.314214,       -0.017289,                ,                ,                ,                ,                , 
     -0.087266,       -0.200500,        0.012390,       -0.200817,       -0.005132,                ,                ,                ,                ,                , 
     -0.069813,       -0.086800,        0.012770,       -0.087479,        0.006684,                ,                ,                ,                ,                , 
     -0.052360,        0.025700,        0.013230,        0.024972,        0.014557,                ,                ,                ,                ,                , 
     -0.034907,        0.140100,        0.013440,        0.139546,        0.018321,                ,                ,                ,                ,                , 
     -0.017453,        0.255900,        0.013500,        0.255625,        0.017964,                ,                ,                ,                ,                , 
      0.000000,        0.372200,        0.013600,        0.372200,        0.013600,                ,                ,                ,                ,                , 
      0.017453,        0.487700,        0.013790,        0.487866,        0.005276,                ,                ,                ,                ,                , 
      0.034907,        0.601900,        0.014060,        0.602024,       -0.006955,                ,                ,                ,                ,                , 
      0.052360,        0.715000,        0.014350,        0.714771,       -0.023090,                ,                ,                ,                ,                , 
      0.069813,        0.824600,        0.014560,        0.823607,       -0.042997,                ,                ,                ,                ,                , 
      0.087266,        0.925200,        0.014460,        0.922940,       -0.066232,                ,                ,                ,                ,                , 
      0.104720,        1.013100,        0.014170,        1.009031,       -0.091805,                ,                ,                ,                ,                , 
      0.122173,        1.116600,        0.014360,        1.110027,       -0.121826,                ,                ,                ,                ,                , 
      0.139626,        1.191300,        0.018650,        1.182302,       -0.147328,                ,                ,                ,                ,                , 
      0.157080,        1.209600,        0.025600,        1.198713,       -0.163938,                ,                ,                ,                ,                , 
      0.174533,        1.236000,        0.032620,        1.222887,       -0.182505,                ,                ,                ,                ,                , 
      0.191986,        1.268600,        0.039840,        1.252894,       -0.202952,                ,                ,                ,                ,                , 
      0.209440,        1.313800,        0.046420,        1.294742,       -0.227749,                ,                ,                ,                ,                , 
      0.226893,        1.370700,        0.052790,        1.347444,       -0.256903,                ,                ,                ,                ,                , 
      0.244346,        1.417700,        0.061080,        1.390365,       -0.283707,                ,                ,                ,                ,                , 
      0.261799,        1.393400,        0.075910,        1.365568,       -0.287315,                ,                ,                ,                ,                , 
