           aoa,              Cl,              Cd,              Cn,              Cc,         aoa_Cl0,    Cl_lin_slope,    Cl_lin_range,          Cd_Cl0,              Re,
     -0.174533,       -0.811200,        0.030380,       -0.804151,       -0.110945,       -0.056467,        6.717453,       -0.087266,        0.011074,   271195.895449, 
     -0.157080,       -0.668300,        0.023870,       -0.663806,       -0.080969,                ,                ,        0.174533,                ,                , 
     -0.139626,       -0.536100,        0.019550,       -0.533604,       -0.055251,                ,                ,                ,                ,                , 
     -0.122173,       -0.434400,        0.016800,       -0.433209,       -0.036265,                ,                ,                ,                ,                , 
     -0.104720,       -0.328200,        0.014410,       -0.327908,       -0.019975,                ,                ,                ,                ,                , 
     -0.087266,       -0.208800,        0.010950,       -0.208960,       -0.007290,                ,                ,                ,                ,                , 
     -0.069813,       -0.090000,        0.010890,       -0.090540,        0.004585,                ,                ,                ,                ,                , 
     -0.052360,        0.027700,        0.011130,        0.027080,        0.012564,                ,                ,                ,                ,                , 
     -0.034907,        0.145200,        0.011310,        0.144717,        0.016371,                ,                ,                ,                ,                , 
     -0.017453,        0.263400,        0.011380,        0.263161,        0.015975,                ,                ,                ,                ,                , 
      0.000000,        0.381900,        0.011490,        0.381900,        0.011490,                ,                ,                ,                ,                , 
      0.017453,        0.499800,        0.011670,        0.499928,        0.002946,                ,                ,                ,                ,                , 
      0.034907,        0.616800,        0.011920,        0.616840,       -0.009613,                ,                ,                ,                ,                , 
      0.052360,        0.732400,        0.012210,        0.732035,       -0.026138,                ,                ,                ,                ,                , 
      0.069813,        0.845200,        0.012460,        0.844010,       -0.046529,                ,                ,                ,                ,                , 
      0.087266,        0.953900,        0.012630,        0.951371,       -0.070556,                ,                ,                ,                ,                , 
      0.104720,        1.053900,        0.012840,        1.049469,       -0.097393,                ,                ,                ,                ,                , 
      0.122173,        1.133200,        0.013560,        1.126406,       -0.124643,                ,                ,                ,                ,                , 
      0.139626,        1.194400,        0.018230,        1.185313,       -0.148176,                ,                ,                ,                ,                , 
      0.157080,        1.233900,        0.023840,        1.222438,       -0.169478,                ,                ,                ,                ,                , 
      0.174533,        1.266900,        0.030030,        1.252868,       -0.190421,                ,                ,                ,                ,                , 
      0.191986,        1.296700,        0.037310,        1.279995,       -0.210798,                ,                ,                ,                ,                , 
      0.209440,        1.327000,        0.044840,        1.307325,       -0.232039,                ,                ,                ,                ,                , 
      0.226893,        1.363200,        0.052090,        1.339979,       -0.255898,                ,                ,                ,                ,                , 
      0.244346,        1.406700,        0.059090,        1.379210,       -0.282977,                ,                ,                ,                ,                , 
      0.261799,        1.423900,        0.069220,        1.393297,       -0.301671,                ,                ,                ,                ,                , 
