           aoa,              Cl,              Cd,              Cn,              Cc,         aoa_Cl0,    Cl_lin_slope,    Cl_lin_range,          Cd_Cl0,              Re,
     -0.174533,       -0.815600,        0.032640,       -0.808877,       -0.109483,       -0.056472,        6.663690,       -0.087266,        0.011822,   241311.828913, 
     -0.157080,       -0.681000,        0.025410,       -0.676591,       -0.081435,                ,                ,        0.174533,                ,                , 
     -0.139626,       -0.538200,        0.020620,       -0.535832,       -0.054484,                ,                ,                ,                ,                , 
     -0.122173,       -0.427300,        0.017460,       -0.426243,       -0.034745,                ,                ,                ,                ,                , 
     -0.104720,       -0.323200,        0.014900,       -0.322987,       -0.018965,                ,                ,                ,                ,                , 
     -0.087266,       -0.206000,        0.011470,       -0.206216,       -0.006528,                ,                ,                ,                ,                , 
     -0.069813,       -0.088900,        0.011570,       -0.089491,        0.005340,                ,                ,                ,                ,                , 
     -0.052360,        0.027400,        0.011900,        0.026740,        0.013318,                ,                ,                ,                ,                , 
     -0.034907,        0.143200,        0.012100,        0.142690,        0.017090,                ,                ,                ,                ,                , 
     -0.017453,        0.260600,        0.012160,        0.260348,        0.016706,                ,                ,                ,                ,                , 
      0.000000,        0.378400,        0.012270,        0.378400,        0.012270,                ,                ,                ,                ,                , 
      0.017453,        0.495600,        0.012450,        0.495742,        0.003799,                ,                ,                ,                ,                , 
      0.034907,        0.611900,        0.012710,        0.611971,       -0.008653,                ,                ,                ,                ,                , 
      0.052360,        0.726800,        0.013000,        0.726484,       -0.025056,                ,                ,                ,                ,                , 
      0.069813,        0.838000,        0.013250,        0.836883,       -0.045238,                ,                ,                ,                ,                , 
      0.087266,        0.944500,        0.013320,        0.942067,       -0.069049,                ,                ,                ,                ,                , 
      0.104720,        1.040600,        0.013360,        1.036296,       -0.095486,                ,                ,                ,                ,                , 
      0.122173,        1.116550,        0.015895,        1.110165,       -0.120297,                ,                ,                ,                ,                , 
      0.139626,        1.192500,        0.018430,        1.183460,       -0.147713,                ,                ,                ,                ,                , 
      0.157080,        1.223900,        0.024540,        1.212671,       -0.167222,                ,                ,                ,                ,                , 
      0.174533,        1.253500,        0.031140,        1.239864,       -0.187001,                ,                ,                ,                ,                , 
      0.191986,        1.284100,        0.038410,        1.267836,       -0.207314,                ,                ,                ,                ,                , 
      0.209440,        1.319100,        0.045620,        1.299759,       -0.229633,                ,                ,                ,                ,                , 
      0.226893,        1.367200,        0.052020,        1.343861,       -0.256866,                ,                ,                ,                ,                , 
      0.244346,        1.403800,        0.060230,        1.376672,       -0.281169,                ,                ,                ,                ,                , 
      0.261799,        1.430200,        0.069890,        1.399556,       -0.302654,                ,                ,                ,                ,                , 
