           aoa,              Cl,              Cd,              Cn,              Cc,         aoa_Cl0,    Cl_lin_slope,    Cl_lin_range,          Cd_Cl0,              Re,
     -0.174533,       -0.775900,        0.040690,       -0.771178,       -0.094662,       -0.056156,        6.430974,       -0.087266,        0.014525,   176023.505231, 
     -0.157080,       -0.730600,        0.031410,       -0.726519,       -0.083268,                ,                ,        0.174533,                ,                , 
     -0.139626,       -0.578000,        0.024560,       -0.575793,       -0.056121,                ,                ,                ,                ,                , 
     -0.122173,       -0.429700,        0.019950,       -0.428928,       -0.032566,                ,                ,                ,                ,                , 
     -0.104720,       -0.308000,        0.016380,       -0.308025,       -0.015904,                ,                ,                ,                ,                , 
     -0.087266,       -0.194600,        0.013360,       -0.195024,       -0.003651,                ,                ,                ,                ,                , 
     -0.069813,       -0.084900,        0.014040,       -0.085673,        0.008083,                ,                ,                ,                ,                , 
     -0.052360,        0.023600,        0.014660,        0.022800,        0.015875,                ,                ,                ,                ,                , 
     -0.034907,        0.135200,        0.014870,        0.134599,        0.019579,                ,                ,                ,                ,                , 
     -0.017453,        0.249100,        0.014930,        0.248801,        0.019275,                ,                ,                ,                ,                , 
      0.000000,        0.363800,        0.015030,        0.363800,        0.015030,                ,                ,                ,                ,                , 
      0.017453,        0.478800,        0.015210,        0.478993,        0.006851,                ,                ,                ,                ,                , 
      0.034907,        0.590400,        0.015460,        0.590580,       -0.005154,                ,                ,                ,                ,                , 
      0.052360,        0.701200,        0.015730,        0.701062,       -0.020990,                ,                ,                ,                ,                , 
      0.069813,        0.805500,        0.015920,        0.804648,       -0.040308,                ,                ,                ,                ,                , 
      0.087266,        0.901400,        0.015630,        0.899332,       -0.062992,                ,                ,                ,                ,                , 
      0.104720,        0.989400,        0.014930,        0.985541,       -0.088572,                ,                ,                ,                ,                , 
      0.122173,        1.115100,        0.015260,        1.108648,       -0.120750,                ,                ,                ,                ,                , 
      0.139626,        1.191700,        0.018830,        1.182723,       -0.147206,                ,                ,                ,                ,                , 
      0.157080,        1.198100,        0.026520,        1.187498,       -0.161231,                ,                ,                ,                ,                , 
      0.174533,        1.221800,        0.033880,        1.209121,       -0.178798,                ,                ,                ,                ,                , 
      0.191986,        1.259900,        0.040800,        1.244537,       -0.200350,                ,                ,                ,                ,                , 
      0.209440,        1.315400,        0.047040,        1.296436,       -0.227475,                ,                ,                ,                ,                , 
      0.226893,        1.380500,        0.053730,        1.357204,       -0.258192,                ,                ,                ,                ,                , 
      0.244346,        1.428800,        0.062910,        1.401578,       -0.284617,                ,                ,                ,                ,                , 
      0.261799,        1.379400,        0.079770,        1.353044,       -0.279963,                ,                ,                ,                ,                , 
