           aoa,              Cl,              Cd,              Cn,              Cc,         aoa_Cl0,    Cl_lin_slope,    Cl_lin_range,          Cd_Cl0,              Re,
     -0.174533,       -0.807200,        0.033340,       -0.800726,       -0.107335,       -0.056440,        6.652517,       -0.087266,        0.011998,   235225.354976, 
     -0.157080,       -0.684000,        0.025900,       -0.679630,       -0.081420,                ,                ,        0.174533,                ,                , 
     -0.139626,       -0.540300,        0.020820,       -0.537939,       -0.054578,                ,                ,                ,                ,                , 
     -0.122173,       -0.425700,        0.017620,       -0.424674,       -0.034391,                ,                ,                ,                ,                , 
     -0.104720,       -0.322000,        0.015010,       -0.321805,       -0.018730,                ,                ,                ,                ,                , 
     -0.087266,       -0.205400,        0.011590,       -0.205629,       -0.006356,                ,                ,                ,                ,                , 
     -0.069813,       -0.088500,        0.011730,       -0.089103,        0.005528,                ,                ,                ,                ,                , 
     -0.052360,        0.027000,        0.012080,        0.026331,        0.013477,                ,                ,                ,                ,                , 
     -0.034907,        0.142600,        0.012290,        0.142084,        0.017259,                ,                ,                ,                ,                , 
     -0.017453,        0.260100,        0.012350,        0.259845,        0.016887,                ,                ,                ,                ,                , 
      0.000000,        0.377600,        0.012460,        0.377600,        0.012460,                ,                ,                ,                ,                , 
      0.017453,        0.494700,        0.012640,        0.494845,        0.004004,                ,                ,                ,                ,                , 
      0.034907,        0.611300,        0.012900,        0.611378,       -0.008442,                ,                ,                ,                ,                , 
      0.052360,        0.724900,        0.013180,        0.724596,       -0.024776,                ,                ,                ,                ,                , 
      0.069813,        0.836700,        0.013440,        0.835599,       -0.044958,                ,                ,                ,                ,                , 
      0.087266,        0.942300,        0.013480,        0.939889,       -0.068698,                ,                ,                ,                ,                , 
      0.104720,        1.036900,        0.013470,        1.032628,       -0.094989,                ,                ,                ,                ,                , 
      0.122173,        1.117000,        0.013640,        1.110336,       -0.122590,                ,                ,                ,                ,                , 
      0.139626,        1.192200,        0.018470,        1.183168,       -0.147632,                ,                ,                ,                ,                , 
      0.157080,        1.221600,        0.024700,        1.210424,       -0.166704,                ,                ,                ,                ,                , 
      0.174533,        1.250000,        0.031420,        1.236466,       -0.186118,                ,                ,                ,                ,                , 
      0.191986,        1.281300,        0.038660,        1.265136,       -0.206534,                ,                ,                ,                ,                , 
      0.209440,        1.318000,        0.045730,        1.298706,       -0.229297,                ,                ,                ,                ,                , 
      0.226893,        1.363800,        0.052410,        1.340636,       -0.255722,                ,                ,                ,                ,                , 
      0.244346,        1.411800,        0.059750,        1.384318,       -0.283570,                ,                ,                ,                ,                , 
      0.261799,        1.416700,        0.071430,        1.386915,       -0.297673,                ,                ,                ,                ,                , 
