           aoa,              Cl,              Cd,              Cn,              Cc,         aoa_Cl0,    Cl_lin_slope,    Cl_lin_range,          Cd_Cl0,              Re,
     -0.174533,       -0.810800,        0.032950,       -0.804204,       -0.108345,       -0.056444,        6.657483,       -0.087266,        0.011940,   237181.718939, 
     -0.157080,       -0.683000,        0.025740,       -0.678618,       -0.081422,                ,                ,        0.174533,                ,                , 
     -0.139626,       -0.539700,        0.020740,       -0.537334,       -0.054574,                ,                ,                ,                ,                , 
     -0.122173,       -0.426300,        0.017570,       -0.425264,       -0.034514,                ,                ,                ,                ,                , 
     -0.104720,       -0.322400,        0.014970,       -0.322199,       -0.018812,                ,                ,                ,                ,                , 
     -0.087266,       -0.205700,        0.011550,       -0.205924,       -0.006422,                ,                ,                ,                ,                , 
     -0.069813,       -0.088700,        0.011680,       -0.089299,        0.005464,                ,                ,                ,                ,                , 
     -0.052360,        0.027100,        0.012020,        0.026434,        0.013422,                ,                ,                ,                ,                , 
     -0.034907,        0.142800,        0.012220,        0.142287,        0.017196,                ,                ,                ,                ,                , 
     -0.017453,        0.260200,        0.012290,        0.259946,        0.016829,                ,                ,                ,                ,                , 
      0.000000,        0.377800,        0.012390,        0.377800,        0.012390,                ,                ,                ,                ,                , 
      0.017453,        0.494900,        0.012580,        0.495044,        0.003941,                ,                ,                ,                ,                , 
      0.034907,        0.611500,        0.012840,        0.611576,       -0.008509,                ,                ,                ,                ,                , 
      0.052360,        0.725500,        0.013120,        0.725192,       -0.024868,                ,                ,                ,                ,                , 
      0.069813,        0.837400,        0.013380,        0.836293,       -0.045067,                ,                ,                ,                ,                , 
      0.087266,        0.943300,        0.013430,        0.940881,       -0.068835,                ,                ,                ,                ,                , 
      0.104720,        1.038400,        0.013440,        1.034116,       -0.095176,                ,                ,                ,                ,                , 
      0.122173,        1.117000,        0.013600,        1.110331,       -0.122629,                ,                ,                ,                ,                , 
      0.139626,        1.192300,        0.018450,        1.183264,       -0.147666,                ,                ,                ,                ,                , 
      0.157080,        1.222400,        0.024650,        1.211206,       -0.166879,                ,                ,                ,                ,                , 
      0.174533,        1.250700,        0.031370,        1.237146,       -0.186288,                ,                ,                ,                ,                , 
      0.191986,        1.282200,        0.038580,        1.266004,       -0.206784,                ,                ,                ,                ,                , 
      0.209440,        1.318300,        0.045700,        1.298994,       -0.229389,                ,                ,                ,                ,                , 
      0.226893,        1.364700,        0.052290,        1.341486,       -0.256041,                ,                ,                ,                ,                , 
      0.244346,        1.408700,        0.059940,        1.381356,       -0.282636,                ,                ,                ,                ,                , 
      0.261799,        1.428200,        0.070210,        1.397707,       -0.301828,                ,                ,                ,                ,                , 
