           aoa,              Cl,              Cd,              Cn,              Cc,         aoa_Cl0,    Cl_lin_slope,    Cl_lin_range,          Cd_Cl0,              Re,
     -0.174533,       -0.801800,        0.035150,       -0.795723,       -0.104615,       -0.056401,        6.596750,       -0.087266,        0.012673,   215231.589857, 
     -0.157080,       -0.695900,        0.027350,       -0.691611,       -0.081849,                ,                ,        0.174533,                ,                , 
     -0.139626,       -0.547400,        0.021830,       -0.545111,       -0.054566,                ,                ,                ,                ,                , 
     -0.122173,       -0.421700,        0.018190,       -0.420774,       -0.033338,                ,                ,                ,                ,                , 
     -0.104720,       -0.317400,        0.015400,       -0.317271,       -0.017862,                ,                ,                ,                ,                , 
     -0.087266,       -0.202600,        0.012060,       -0.202880,       -0.005644,                ,                ,                ,                ,                , 
     -0.069813,       -0.087300,        0.012350,       -0.087949,        0.006230,                ,                ,                ,                ,                , 
     -0.052360,        0.026300,        0.012770,        0.025596,        0.014129,                ,                ,                ,                ,                , 
     -0.034907,        0.140800,        0.012980,        0.140261,        0.017886,                ,                ,                ,                ,                , 
     -0.017453,        0.257300,        0.013040,        0.257033,        0.017529,                ,                ,                ,                ,                , 
      0.000000,        0.374100,        0.013150,        0.374100,        0.013150,                ,                ,                ,                ,                , 
      0.017453,        0.490500,        0.013330,        0.490658,        0.004768,                ,                ,                ,                ,                , 
      0.034907,        0.606400,        0.013590,        0.606505,       -0.007581,                ,                ,                ,                ,                , 
      0.052360,        0.719000,        0.013870,        0.718741,       -0.023779,                ,                ,                ,                ,                , 
      0.069813,        0.829100,        0.014120,        0.828065,       -0.043749,                ,                ,                ,                ,                , 
      0.087266,        0.932500,        0.014060,        0.930177,       -0.067266,                ,                ,                ,                ,                , 
      0.104720,        1.022900,        0.013900,        1.018749,       -0.093098,                ,                ,                ,                ,                , 
      0.122173,        1.116800,        0.014070,        1.110190,       -0.122139,                ,                ,                ,                ,                , 
      0.139626,        1.191500,        0.018580,        1.182490,       -0.147426,                ,                ,                ,                ,                , 
      0.157080,        1.214200,        0.025250,        1.203201,       -0.165004,                ,                ,                ,                ,                , 
      0.174533,        1.241000,        0.032190,        1.227736,       -0.183796,                ,                ,                ,                ,                , 
      0.191986,        1.273400,        0.039390,        1.257520,       -0.204310,                ,                ,                ,                ,                , 
      0.209440,        1.314200,        0.046220,        1.295091,       -0.228028,                ,                ,                ,                ,                , 
      0.226893,        1.365400,        0.052840,        1.342291,       -0.255662,                ,                ,                ,                ,                , 
      0.244346,        1.401600,        0.061620,        1.374874,       -0.279288,                ,                ,                ,                ,                , 
      0.261799,        1.417800,        0.072710,        1.388308,       -0.296721,                ,                ,                ,                ,                , 
