           aoa,              Cl,              Cd,              Cn,              Cc,         aoa_Cl0,    Cl_lin_slope,    Cl_lin_range,          Cd_Cl0,              Re,
     -0.174533,       -0.804100,        0.035170,       -0.797991,       -0.104995,       -0.056373,        6.589588,       -0.087266,        0.012761,   212898.482607, 
     -0.157080,       -0.697600,        0.027500,       -0.693313,       -0.081967,                ,                ,        0.174533,                ,                , 
     -0.139626,       -0.548600,        0.021970,       -0.546319,       -0.054594,                ,                ,                ,                ,                , 
     -0.122173,       -0.421700,        0.018260,       -0.420782,       -0.033268,                ,                ,                ,                ,                , 
     -0.104720,       -0.316800,        0.015450,       -0.316680,       -0.017749,                ,                ,                ,                ,                , 
     -0.087266,       -0.202100,        0.012130,       -0.202388,       -0.005530,                ,                ,                ,                ,                , 
     -0.069813,       -0.087400,        0.012430,       -0.088054,        0.006303,                ,                ,                ,                ,                , 
     -0.052360,        0.026100,        0.012860,        0.025391,        0.014208,                ,                ,                ,                ,                , 
     -0.034907,        0.140500,        0.013070,        0.139958,        0.017965,                ,                ,                ,                ,                , 
     -0.017453,        0.257000,        0.013140,        0.256732,        0.017623,                ,                ,                ,                ,                , 
      0.000000,        0.373800,        0.013240,        0.373800,        0.013240,                ,                ,                ,                ,                , 
      0.017453,        0.490200,        0.013420,        0.490360,        0.004863,                ,                ,                ,                ,                , 
      0.034907,        0.605600,        0.013670,        0.605708,       -0.007473,                ,                ,                ,                ,                , 
      0.052360,        0.718100,        0.013960,        0.717846,       -0.023642,                ,                ,                ,                ,                , 
      0.069813,        0.827900,        0.014200,        0.826874,       -0.043586,                ,                ,                ,                ,                , 
      0.087266,        0.931300,        0.014140,        0.928989,       -0.067082,                ,                ,                ,                ,                , 
      0.104720,        1.021100,        0.013950,        1.016964,       -0.092860,                ,                ,                ,                ,                , 
      0.122173,        1.116800,        0.014120,        1.110196,       -0.122089,                ,                ,                ,                ,                , 
      0.139626,        1.191500,        0.018600,        1.182493,       -0.147406,                ,                ,                ,                ,                , 
      0.157080,        1.213200,        0.025330,        1.202226,       -0.164768,                ,                ,                ,                ,                , 
      0.174533,        1.239300,        0.032330,        1.226086,       -0.183363,                ,                ,                ,                ,                , 
      0.191986,        1.272500,        0.039480,        1.256654,       -0.204050,                ,                ,                ,                ,                , 
      0.209440,        1.314000,        0.046280,        1.294908,       -0.227927,                ,                ,                ,                ,                , 
      0.226893,        1.367100,        0.052780,        1.343934,       -0.256103,                ,                ,                ,                ,                , 
      0.244346,        1.403100,        0.061620,        1.376329,       -0.279651,                ,                ,                ,                ,                , 
      0.261799,        1.423900,        0.072350,        1.394107,       -0.298648,                ,                ,                ,                ,                , 
