           aoa,              Cl,              Cd,              Cn,              Cc,         aoa_Cl0,    Cl_lin_slope,    Cl_lin_range,          Cd_Cl0,              Re,
     -0.174533,       -0.805100,        0.033650,       -0.798712,       -0.106665,       -0.056420,        6.648220,       -0.087266,        0.012049,   233658.162498, 
     -0.157080,       -0.684700,        0.026030,       -0.680342,       -0.081401,                ,                ,        0.174533,                ,                , 
     -0.139626,       -0.540800,        0.020890,       -0.538444,       -0.054578,                ,                ,                ,                ,                , 
     -0.122173,       -0.425300,        0.017660,       -0.424282,       -0.034303,                ,                ,                ,                ,                , 
     -0.104720,       -0.321700,        0.015040,       -0.321510,       -0.018669,                ,                ,                ,                ,                , 
     -0.087266,       -0.205200,        0.011630,       -0.205433,       -0.006299,                ,                ,                ,                ,                , 
     -0.069813,       -0.088400,        0.011780,       -0.089006,        0.005585,                ,                ,                ,                ,                , 
     -0.052360,        0.026800,        0.012130,        0.026128,        0.013516,                ,                ,                ,                ,                , 
     -0.034907,        0.142500,        0.012340,        0.141983,        0.017306,                ,                ,                ,                ,                , 
     -0.017453,        0.260000,        0.012400,        0.259744,        0.016936,                ,                ,                ,                ,                , 
      0.000000,        0.377500,        0.012510,        0.377500,        0.012510,                ,                ,                ,                ,                , 
      0.017453,        0.494600,        0.012690,        0.494746,        0.004056,                ,                ,                ,                ,                , 
      0.034907,        0.610800,        0.012950,        0.610880,       -0.008375,                ,                ,                ,                ,                , 
      0.052360,        0.724400,        0.013230,        0.724100,       -0.024700,                ,                ,                ,                ,                , 
      0.069813,        0.836100,        0.013480,        0.835004,       -0.044876,                ,                ,                ,                ,                , 
      0.087266,        0.941500,        0.013520,        0.939096,       -0.068589,                ,                ,                ,                ,                , 
      0.104720,        1.035900,        0.013500,        1.031636,       -0.094855,                ,                ,                ,                ,                , 
      0.122173,        1.117100,        0.013670,        1.110439,       -0.122572,                ,                ,                ,                ,                , 
      0.139626,        1.192000,        0.018480,        1.182971,       -0.147594,                ,                ,                ,                ,                , 
      0.157080,        1.221000,        0.024750,        1.209839,       -0.166561,                ,                ,                ,                ,                , 
      0.174533,        1.249700,        0.031450,        1.236175,       -0.186036,                ,                ,                ,                ,                , 
      0.191986,        1.280500,        0.038730,        1.264364,       -0.206312,                ,                ,                ,                ,                , 
      0.209440,        1.317800,        0.045750,        1.298515,       -0.229236,                ,                ,                ,                ,                , 
      0.226893,        1.363300,        0.052490,        1.340166,       -0.255531,                ,                ,                ,                ,                , 
      0.244346,        1.414700,        0.059590,        1.387093,       -0.284427,                ,                ,                ,                ,                , 
      0.261799,        1.412000,        0.072020,        1.382527,       -0.295887,                ,                ,                ,                ,                , 
