           aoa,              Cl,              Cd,              Cn,              Cc,         aoa_Cl0,    Cl_lin_slope,    Cl_lin_range,          Cd_Cl0,              Re,
     -0.174533,       -0.811800,        0.032350,       -0.805084,       -0.109109,       -0.056435,        6.687468,       -0.087266,        0.011512,   252562.373152, 
     -0.157080,       -0.675400,        0.024800,       -0.670964,       -0.081161,                ,                ,        0.174533,                ,                , 
     -0.139626,       -0.536800,        0.020210,       -0.534389,       -0.054695,                ,                ,                ,                ,                , 
     -0.122173,       -0.429800,        0.017230,       -0.428696,       -0.035278,                ,                ,                ,                ,                , 
     -0.104720,       -0.325300,        0.014710,       -0.325056,       -0.019374,                ,                ,                ,                ,                , 
     -0.087266,       -0.207200,        0.011260,       -0.207393,       -0.006842,                ,                ,                ,                ,                , 
     -0.069813,       -0.089300,        0.011290,       -0.089870,        0.005033,                ,                ,                ,                ,                , 
     -0.052360,        0.027200,        0.011580,        0.026557,        0.012988,                ,                ,                ,                ,                , 
     -0.034907,        0.144200,        0.011780,        0.143701,        0.016805,                ,                ,                ,                ,                , 
     -0.017453,        0.262200,        0.011850,        0.261953,        0.016424,                ,                ,                ,                ,                , 
      0.000000,        0.380400,        0.011950,        0.380400,        0.011950,                ,                ,                ,                ,                , 
      0.017453,        0.497800,        0.012130,        0.497936,        0.003440,                ,                ,                ,                ,                , 
      0.034907,        0.614100,        0.012390,        0.614158,       -0.009049,                ,                ,                ,                ,                , 
      0.052360,        0.728700,        0.012670,        0.728364,       -0.025485,                ,                ,                ,                ,                , 
      0.069813,        0.841500,        0.012930,        0.840352,       -0.045802,                ,                ,                ,                ,                , 
      0.087266,        0.948600,        0.013040,        0.946127,       -0.069686,                ,                ,                ,                ,                , 
      0.104720,        1.046700,        0.013160,        1.042342,       -0.096322,                ,                ,                ,                ,                , 
      0.122173,        1.121000,        0.013520,        1.114292,       -0.123196,                ,                ,                ,                ,                , 
      0.139626,        1.193100,        0.018360,        1.184044,       -0.147866,                ,                ,                ,                ,                , 
      0.157080,        1.227400,        0.024290,        1.216088,       -0.168017,                ,                ,                ,                ,                , 
      0.174533,        1.259400,        0.030650,        1.245589,       -0.188508,                ,                ,                ,                ,                , 
      0.191986,        1.288500,        0.038010,        1.272079,       -0.208546,                ,                ,                ,                ,                , 
      0.209440,        1.321900,        0.045320,        1.302436,       -0.230509,                ,                ,                ,                ,                , 
      0.226893,        1.361800,        0.052380,        1.338680,       -0.255301,                ,                ,                ,                ,                , 
      0.244346,        1.398200,        0.060410,        1.371282,       -0.279640,                ,                ,                ,                ,                , 
      0.261799,        1.414300,        0.070990,        1.384482,       -0.297477,                ,                ,                ,                ,                , 
