           aoa,              Cl,              Cd,              Cn,              Cc,         aoa_Cl0,    Cl_lin_slope,    Cl_lin_range,          Cd_Cl0,              Re,
     -0.174533,       -0.805900,        0.035180,       -0.799766,       -0.105298,       -0.056350,        6.585386,       -0.087266,        0.012812,   211519.079106, 
     -0.157080,       -0.698700,        0.027590,       -0.694414,       -0.082050,                ,                ,        0.174533,                ,                , 
     -0.139626,       -0.549400,        0.022050,       -0.547122,       -0.054626,                ,                ,                ,                ,                , 
     -0.122173,       -0.421700,        0.018310,       -0.420788,       -0.033219,                ,                ,                ,                ,                , 
     -0.104720,       -0.316400,        0.015480,       -0.316285,       -0.017678,                ,                ,                ,                ,                , 
     -0.087266,       -0.201900,        0.012160,       -0.202192,       -0.005483,                ,                ,                ,                ,                , 
     -0.069813,       -0.087400,        0.012480,       -0.088058,        0.006353,                ,                ,                ,                ,                , 
     -0.052360,        0.025900,        0.012910,        0.025189,        0.014248,                ,                ,                ,                ,                , 
     -0.034907,        0.140300,        0.013130,        0.139756,        0.018018,                ,                ,                ,                ,                , 
     -0.017453,        0.256800,        0.013190,        0.256531,        0.017670,                ,                ,                ,                ,                , 
      0.000000,        0.373600,        0.013290,        0.373600,        0.013290,                ,                ,                ,                ,                , 
      0.017453,        0.490100,        0.013470,        0.490260,        0.004915,                ,                ,                ,                ,                , 
      0.034907,        0.605000,        0.013730,        0.605111,       -0.007393,                ,                ,                ,                ,                , 
      0.052360,        0.717600,        0.014020,        0.717350,       -0.023555,                ,                ,                ,                ,                , 
      0.069813,        0.827200,        0.014250,        0.826179,       -0.043487,                ,                ,                ,                ,                , 
      0.087266,        0.930700,        0.014190,        0.928395,       -0.066980,                ,                ,                ,                ,                , 
      0.104720,        1.020100,        0.013980,        1.015973,       -0.092726,                ,                ,                ,                ,                , 
      0.122173,        1.116800,        0.014160,        1.110201,       -0.122049,                ,                ,                ,                ,                , 
      0.139626,        1.191400,        0.018600,        1.182394,       -0.147392,                ,                ,                ,                ,                , 
      0.157080,        1.212500,        0.025380,        1.201542,       -0.164609,                ,                ,                ,                ,                , 
      0.174533,        1.238200,        0.032420,        1.225019,       -0.183084,                ,                ,                ,                ,                , 
      0.191986,        1.271900,        0.039530,        1.256074,       -0.203886,                ,                ,                ,                ,                , 
      0.209440,        1.313800,        0.046310,        1.294719,       -0.227856,                ,                ,                ,                ,                , 
      0.226893,        1.368500,        0.052720,        1.345285,       -0.256477,                ,                ,                ,                ,                , 
      0.244346,        1.404400,        0.061600,        1.377586,       -0.279985,                ,                ,                ,                ,                , 
      0.261799,        1.428000,        0.072120,        1.398008,       -0.299931,                ,                ,                ,                ,                , 
