           aoa,              Cl,              Cd,              Cn,              Cc,         aoa_Cl0,    Cl_lin_slope,    Cl_lin_range,          Cd_Cl0,              Re,
     -0.174533,       -0.772200,        0.043560,       -0.768033,       -0.091193,       -0.056000,        6.258800,       -0.087266,        0.016104,   153079.905265, 
     -0.157080,       -0.760500,        0.035250,       -0.756651,       -0.084152,                ,                ,        0.174533,                ,                , 
     -0.139626,       -0.608500,        0.026890,       -0.606320,       -0.058059,                ,                ,                ,                ,                , 
     -0.122173,       -0.452000,        0.021640,       -0.451268,       -0.033606,                ,                ,                ,                ,                , 
     -0.104720,       -0.311100,        0.017360,       -0.311210,       -0.015254,                ,                ,                ,                ,                , 
     -0.087266,       -0.190200,        0.014500,       -0.190740,       -0.002132,                ,                ,                ,                ,                , 
     -0.069813,       -0.083100,        0.015510,       -0.083979,        0.009675,                ,                ,                ,                ,                , 
     -0.052360,        0.021900,        0.016260,        0.021019,        0.017384,                ,                ,                ,                ,                , 
     -0.034907,        0.129800,        0.016480,        0.129146,        0.021000,                ,                ,                ,                ,                , 
     -0.017453,        0.241900,        0.016530,        0.241575,        0.020749,                ,                ,                ,                ,                , 
      0.000000,        0.353700,        0.016610,        0.353700,        0.016610,                ,                ,                ,                ,                , 
      0.017453,        0.465300,        0.016790,        0.465522,        0.008667,                ,                ,                ,                ,                , 
      0.034907,        0.575200,        0.017060,        0.575445,       -0.003025,                ,                ,                ,                ,                , 
      0.052360,        0.681500,        0.017340,        0.681474,       -0.018351,                ,                ,                ,                ,                , 
      0.069813,        0.782200,        0.017400,        0.781508,       -0.037206,                ,                ,                ,                ,                , 
      0.087266,        0.870500,        0.016950,        0.868665,       -0.058984,                ,                ,                ,                ,                , 
      0.104720,        0.989900,        0.016310,        0.986182,       -0.087252,                ,                ,                ,                ,                , 
      0.122173,        1.112800,        0.016320,        1.106494,       -0.119418,                ,                ,                ,                ,                , 
      0.139626,        1.193000,        0.019040,        1.184040,       -0.147179,                ,                ,                ,                ,                , 
      0.157080,        1.189800,        0.027280,        1.179419,       -0.159182,                ,                ,                ,                ,                , 
      0.174533,        1.209400,        0.035050,        1.197113,       -0.175493,                ,                ,                ,                ,                , 
      0.191986,        1.255100,        0.041640,        1.239986,       -0.198609,                ,                ,                ,                ,                , 
      0.209440,        1.322400,        0.047780,        1.303436,       -0.228207,                ,                ,                ,                ,                , 
      0.226893,        1.388700,        0.055420,        1.365574,       -0.258390,                ,                ,                ,                ,                , 
      0.244346,        1.389600,        0.068030,        1.364781,       -0.270165,                ,                ,                ,                ,                , 
      0.261799,        1.383800,        0.082340,        1.357959,       -0.278619,                ,                ,                ,                ,                , 
