           aoa,              Cl,              Cd,              Cn,              Cc,         aoa_Cl0,    Cl_lin_slope,    Cl_lin_range,          Cd_Cl0,              Re,
     -0.174533,       -0.812300,        0.031160,       -0.805370,       -0.110368,       -0.056508,        6.708954,       -0.087266,        0.011198,   265639.609158, 
     -0.157080,       -0.670300,        0.024150,       -0.665825,       -0.081005,                ,                ,        0.174533,                ,                , 
     -0.139626,       -0.535900,        0.019730,       -0.533431,       -0.055045,                ,                ,                ,                ,                , 
     -0.122173,       -0.433000,        0.016930,       -0.431836,       -0.035966,                ,                ,                ,                ,                , 
     -0.104720,       -0.327300,        0.014480,       -0.327021,       -0.019811,                ,                ,                ,                ,                , 
     -0.087266,       -0.208400,        0.011040,       -0.208569,       -0.007165,                ,                ,                ,                ,                , 
     -0.069813,       -0.089800,        0.011000,       -0.090349,        0.004709,                ,                ,                ,                ,                , 
     -0.052360,        0.028000,        0.011260,        0.027372,        0.012710,                ,                ,                ,                ,                , 
     -0.034907,        0.144800,        0.011440,        0.144313,        0.016486,                ,                ,                ,                ,                , 
     -0.017453,        0.263000,        0.011510,        0.262759,        0.016098,                ,                ,                ,                ,                , 
      0.000000,        0.381300,        0.011620,        0.381300,        0.011620,                ,                ,                ,                ,                , 
      0.017453,        0.499100,        0.011800,        0.499230,        0.003088,                ,                ,                ,                ,                , 
      0.034907,        0.616100,        0.012060,        0.616146,       -0.009449,                ,                ,                ,                ,                , 
      0.052360,        0.731900,        0.012340,        0.731543,       -0.025982,                ,                ,                ,                ,                , 
      0.069813,        0.844000,        0.012590,        0.842822,       -0.046315,                ,                ,                ,                ,                , 
      0.087266,        0.952200,        0.012740,        0.949687,       -0.070298,                ,                ,                ,                ,                , 
      0.104720,        1.052100,        0.012930,        1.047688,       -0.097115,                ,                ,                ,                ,                , 
      0.122173,        1.129700,        0.013550,        1.122931,       -0.124227,                ,                ,                ,                ,                , 
      0.139626,        1.193900,        0.018270,        1.184824,       -0.148067,                ,                ,                ,                ,                , 
      0.157080,        1.232500,        0.023940,        1.221071,       -0.169160,                ,                ,                ,                ,                , 
      0.174533,        1.263400,        0.030310,        1.249469,       -0.189538,                ,                ,                ,                ,                , 
      0.191986,        1.293900,        0.037540,        1.277290,       -0.210037,                ,                ,                ,                ,                , 
      0.209440,        1.325600,        0.044950,        1.305978,       -0.231640,                ,                ,                ,                ,                , 
      0.226893,        1.362300,        0.052230,        1.339134,       -0.255559,                ,                ,                ,                ,                , 
      0.244346,        1.401600,        0.059690,        1.374407,       -0.281161,                ,                ,                ,                ,                , 
      0.261799,        1.415600,        0.070330,        1.385567,       -0.298451,                ,                ,                ,                ,                , 
