name,aoa,Cl,Cd,Cn,Cc,aoa_Cl0,Cl_lin_slope,Cl_lin_range,Cd_Cl0,Re
"NACA 63415, tu = 10.0pct",0,0.2917232,0.0321488,0.2917232,,-0.048813211,5.922528364,0,0.028854935,288888
,0.017453293,0.3960296,0.03332653,0.396550911,,,,0.191986218,,
,0.034906585,0.4998334,0.03506473,0.500752656,,,,,,
,0.052359878,0.602904,0.03733659,0.604031787,,,,,,
,0.06981317,0.7051241,0.04011111,0.706204463,,,,,,
,0.087266463,0.8064398,0.04334683,0.807148978,,,,,,
,0.104719755,0.9062567,0.04700745,0.906205747,,,,,,
,0.122173048,1.004146,0.05104178,1.002881676,,,,,,
,0.13962634,1.098632,0.05541196,1.095652043,,,,,,
,0.157079633,1.182868,0.06066626,1.177795226,,,,,,
,0.174532925,1.269158,0.06522225,1.261202363,,,,,,
,0.191986218,1.340243,0.0706597,1.329101468,,,,,,
,0.20943951,1.396748,0.07665902,1.382164011,,,,,,
,0.226892803,1.437279,0.08341598,1.419206145,,,,,,
,0.244346095,1.459074,0.09153119,1.437876666,,,,,,
,0.261799388,1.459156,0.1018222,1.43578999,,,,,,
