aoa,Cl,Cd,Cn,Cc,aoa_Cl0,Cl_lin_slope,Cl_lin_range,Cd_Cl0,Re,Var11
-0.174533,-0.599766666313844,0.0353069241623832,-0.755265,-0.104863,-0.051995,6.714874,-0.087266,0.014113,143269.678235, 
-0.15708,-0.510166666313844,0.0320369241623832,-0.667971,-0.08088,NaN,NaN,0.174533,NaN,NaN, 
-0.139626,-0.410666666313844,0.0294969241623832,-0.570396,-0.057877,NaN,NaN,NaN,NaN,NaN, 
-0.122173,-0.304166666313844,0.0275269241623832,-0.465373,-0.03689,NaN,NaN,NaN,NaN,NaN, 
-0.10472,-0.192866666313844,0.0259869241623832,-0.355095,-0.01866,NaN,NaN,NaN,NaN,NaN, 
-0.087266,-0.0784666663138445,0.0247669241623832,-0.241295,-0.003704,NaN,NaN,NaN,NaN,NaN, 
-0.069813,0.0386333336861555,0.0233669241623832,-0.124411,0.007279,NaN,NaN,NaN,NaN,NaN, 
-0.05236,0.159733333686156,0.0215469241623832,-0.003236,0.01397,NaN,NaN,NaN,NaN,NaN, 
-0.034907,0.279333333686156,0.0212269241623832,0.116547,0.017878,NaN,NaN,NaN,NaN,NaN, 
-0.017453,0.398133333686156,0.0212469241623832,0.235623,0.017935,NaN,NaN,NaN,NaN,NaN, 
0,0.516333333686156,0.0213969241623832,0.3541,0.01397,NaN,NaN,NaN,NaN,NaN, 
0.017453,0.633533333686155,0.0216469241623832,0.471476,0.005993,NaN,NaN,NaN,NaN,NaN, 
0.034907,0.749433333686156,0.0219969241623832,0.587351,-0.005932,NaN,NaN,NaN,NaN,NaN, 
0.05236,0.863933333686156,0.0224969241623832,0.701527,-0.021675,NaN,NaN,NaN,NaN,NaN, 
0.069813,0.974533333686156,0.0233169241623832,0.81143,-0.040812,NaN,NaN,NaN,NaN,NaN, 
0.087266,1.07033333368616,0.0254869241623832,0.906218,-0.061155,NaN,NaN,NaN,NaN,NaN, 
0.10472,1.15443333368616,0.0284769241623832,0.988965,-0.082778,NaN,NaN,NaN,NaN,NaN, 
0.122173,1.22943333368616,0.0316169241623833,1.062193,-0.106049,NaN,NaN,NaN,NaN,NaN, 
0.139626,1.29913333368616,0.0344469241623832,1.129596,-0.131469,NaN,NaN,NaN,NaN,NaN, 
0.15708,1.35193333368616,0.0380269241623832,1.17984,-0.155887,NaN,NaN,NaN,NaN,NaN, 
0.174533,1.39973333368616,0.0428569241623833,1.224852,-0.179998,NaN,NaN,NaN,NaN,NaN, 
0.191986,1.43853333368616,0.0489669241623832,1.260777,-0.202753,NaN,NaN,NaN,NaN,NaN, 
0.20944,1.46723333368616,0.0564669241623832,1.286679,-0.223356,NaN,NaN,NaN,NaN,NaN, 
0.226893,1.48483333368616,0.0654869241623832,1.301763,-0.240948,NaN,NaN,NaN,NaN,NaN, 
0.244346,1.48453333368616,0.0757969241623832,1.299562,-0.253554,NaN,NaN,NaN,NaN,NaN, 
0.261799,1.48553333368616,0.0892169241623832,1.299378,-0.263492,NaN,NaN,NaN,NaN,NaN, 
