aoa,Cl,Cd,Cn,Cc,aoa_Cl0,Cl_lin_slope,Cl_lin_range,Cd_Cl0,Re,Var11
-0.174533,-0.571663894756722,0.0208573421401777,-0.764415,-0.110559,-0.053778,6.808648,-0.087266,0.011782,215658.667813, 
-0.15708,-0.476463894756722,0.0181373421401777,-0.671774,-0.084995,NaN,NaN,0.174533,NaN,NaN, 
-0.139626,-0.373063894756722,0.0159773421401777,-0.570461,-0.061007,NaN,NaN,NaN,NaN,NaN, 
-0.122173,-0.263663894756722,0.0142473421401777,-0.462644,-0.039426,NaN,NaN,NaN,NaN,NaN, 
-0.10472,-0.149963894756722,0.0128573421401777,-0.350039,-0.020843,NaN,NaN,NaN,NaN,NaN, 
-0.087266,-0.0333638947567224,0.0116973421401777,-0.234092,-0.005724,NaN,NaN,NaN,NaN,NaN, 
-0.069813,0.0861361052432776,0.0103873421401777,-0.114856,0.005391,NaN,NaN,NaN,NaN,NaN, 
-0.05236,0.210436105243278,0.00863734214017774,0.009477,0.012153,NaN,NaN,NaN,NaN,NaN, 
-0.034907,0.331336105243278,0.00842734214017774,0.130521,0.015995,NaN,NaN,NaN,NaN,NaN, 
-0.017453,0.451236105243278,0.00846734214017774,0.250662,0.015847,NaN,NaN,NaN,NaN,NaN, 
0,0.570536105243278,0.00859734214017774,0.3702,0.0116,NaN,NaN,NaN,NaN,NaN, 
0.017453,0.689236105243278,0.00880734214017774,0.489032,0.003276,NaN,NaN,NaN,NaN,NaN, 
0.034907,0.807036105243278,0.00910734214017774,0.606753,-0.009071,NaN,NaN,NaN,NaN,NaN, 
0.05236,0.923436105243278,0.00951734214017774,0.722764,-0.025341,NaN,NaN,NaN,NaN,NaN, 
0.069813,1.03653610524328,0.0101373421401777,0.83508,-0.045222,NaN,NaN,NaN,NaN,NaN, 
0.087266,1.13643610524328,0.0119273421401777,0.933839,-0.066713,NaN,NaN,NaN,NaN,NaN, 
0.10472,1.21913610524328,0.0152973421401777,1.015132,-0.088294,NaN,NaN,NaN,NaN,NaN, 
0.122173,1.30253610524328,0.0179173421401777,1.096534,-0.11356,NaN,NaN,NaN,NaN,NaN, 
0.139626,1.37793610524328,0.0205173421401777,1.169413,-0.140599,NaN,NaN,NaN,NaN,NaN, 
0.15708,1.43333610524328,0.0236173421401777,1.221984,-0.166591,NaN,NaN,NaN,NaN,NaN, 
0.174533,1.48193610524328,0.0279173421401777,1.267499,-0.192097,NaN,NaN,NaN,NaN,NaN, 
0.191986,1.51933610524328,0.0333473421401777,1.301702,-0.215995,NaN,NaN,NaN,NaN,NaN, 
0.20944,1.54393610524328,0.0400173421401777,1.323183,-0.23727,NaN,NaN,NaN,NaN,NaN, 
0.226893,1.56843610524328,0.0485873421401777,1.344641,-0.257488,NaN,NaN,NaN,NaN,NaN, 
0.244346,1.58223610524328,0.0588573421401777,1.355817,-0.274289,NaN,NaN,NaN,NaN,NaN, 
0.261799,1.58733610524328,0.0711973421401777,1.358943,-0.28731,NaN,NaN,NaN,NaN,NaN, 
