aoa,Cl,Cd,Cn,Cc,aoa_Cl0,Cl_lin_slope,Cl_lin_range,Cd_Cl0,Re,Var11
-0.174533,-0.482363940374966,0.0302933049617054,-0.751917,-0.107726,-0.054391,6.794611,-0.087266,0.011397,214342.953577, 
-0.15708,-0.390763940374966,0.0272733049617054,-0.662738,-0.08324,NaN,NaN,0.174533,NaN,NaN, 
-0.139626,-0.290163940374966,0.0248433049617054,-0.56413,-0.060066,NaN,NaN,NaN,NaN,NaN, 
-0.122173,-0.182463940374966,0.0229033049617054,-0.457959,-0.039012,NaN,NaN,NaN,NaN,NaN, 
-0.10472,-0.0695639403749655,0.0213133049617054,-0.346123,-0.020794,NaN,NaN,NaN,NaN,NaN, 
-0.087266,0.0471360596250344,0.0198733049617054,-0.230051,-0.006013,NaN,NaN,NaN,NaN,NaN, 
-0.069813,0.169036059625034,0.0177933049617054,-0.108373,0.004431,NaN,NaN,NaN,NaN,NaN, 
-0.05236,0.291036059625034,0.0171333049617054,0.013588,0.012048,NaN,NaN,NaN,NaN,NaN, 
-0.034907,0.411236059625034,0.0170633049617054,0.133926,0.015934,NaN,NaN,NaN,NaN,NaN, 
-0.017453,0.531036059625034,0.0171033049617054,0.253964,0.015725,NaN,NaN,NaN,NaN,NaN, 
0,0.650336059625034,0.0172233049617054,0.3735,0.01141,NaN,NaN,NaN,NaN,NaN, 
0.017453,0.768836059625034,0.0174333049617054,0.492128,0.003032,NaN,NaN,NaN,NaN,NaN, 
0.034907,0.886536059625034,0.0177233049617054,0.609744,-0.009375,NaN,NaN,NaN,NaN,NaN, 
0.05236,1.00293605962503,0.0181133049617054,0.725749,-0.025718,NaN,NaN,NaN,NaN,NaN, 
0.069813,1.11683605962503,0.0186233049617054,0.838847,-0.045817,NaN,NaN,NaN,NaN,NaN, 
0.087266,1.22513605962503,0.0194533049617054,0.94588,-0.069062,NaN,NaN,NaN,NaN,NaN, 
0.10472,1.31193605962503,0.0221833049617054,1.031141,-0.091917,NaN,NaN,NaN,NaN,NaN, 
0.122173,1.38843605962503,0.0254833049617054,1.105711,-0.115947,NaN,NaN,NaN,NaN,NaN, 
0.139626,1.45833605962503,0.0284433049617054,1.173151,-0.142023,NaN,NaN,NaN,NaN,NaN, 
0.15708,1.50563605962503,0.0316333049617054,1.217711,-0.166725,NaN,NaN,NaN,NaN,NaN, 
0.174533,1.54133605962503,0.0358633049617054,1.250508,-0.189985,NaN,NaN,NaN,NaN,NaN, 
0.191986,1.58323605962503,0.0419633049617054,1.289295,-0.213787,NaN,NaN,NaN,NaN,NaN, 
0.20944,1.61463605962503,0.0494733049617054,1.317643,-0.235438,NaN,NaN,NaN,NaN,NaN, 
0.226893,1.63503605962503,0.0585433049617054,1.335251,-0.25415,NaN,NaN,NaN,NaN,NaN, 
0.244346,1.64543605962503,0.0693533049617054,1.343318,-0.269442,NaN,NaN,NaN,NaN,NaN, 
0.261799,1.64813605962503,0.0821533049617054,1.344332,-0.28118,NaN,NaN,NaN,NaN,NaN, 
