# VOILAb: Unsteady BEM
# Force / moment distributions: Clean 7
# r/R	f_x [N/m]	f_y [N/m]	f_z [N/m]	m_x [Nm/m]	m_y [Nm/m]	m_z [Nm/m]
0.12500	     0.00000	     0.00000	     0.00000	     0.00000	     0.00000	     0.00000
0.13384	    33.82837	    21.88017	     0.00000	     0.00000	     0.00000	     0.00000
0.14268	    46.96696	    30.36285	     0.00000	     0.21469	     0.33209	     0.00000
0.15152	    58.09432	    36.49748	     0.00000	     0.51613	     0.82154	     0.00000
0.16035	    68.38000	    41.38099	     0.00000	     0.87778	     1.45048	     0.00000
0.16919	    78.18070	    45.42213	     0.00000	     1.28467	     2.21117	     0.00000
0.17803	    87.85009	    48.90745	     0.00000	     1.72905	     3.10581	     0.00000
0.18687	    97.35497	    51.94189	     0.00000	     2.20360	     4.13021	     0.00000
0.19571	   106.88615	    54.60762	     0.00000	     2.70280	     5.29032	     0.00000
0.20455	   116.40418	    56.97509	     0.00000	     3.22283	     6.58448	     0.00000
0.21338	   126.08300	    59.10461	     0.00000	     3.76120	     8.02346	     0.00000
0.22222	   135.86646	    61.00215	     0.00000	     4.31328	     9.60672	     0.00000
0.23106	   145.61894	    62.66882	     0.00000	     4.87424	    11.32592	     0.00000
0.23990	   155.28124	    64.13413	     0.00000	     5.44168	    13.17538	     0.00000
0.24874	   164.86746	    65.42064	     0.00000	     6.01341	    15.15448	     0.00000
0.25758	   174.35065	    66.53241	     0.00000	     6.58604	    17.25895	     0.00000
0.26641	   183.70855	    67.49659	     0.00000	     7.15873	    19.48424	     0.00000
0.27525	   193.00366	    68.33165	     0.00000	     7.73045	    21.83476	     0.00000
0.28409	   202.03634	    69.05078	     0.00000	     8.30004	    24.28518	     0.00000
0.29293	   210.87508	    69.66751	     0.00000	     8.86677	    26.83865	     0.00000
0.30177	   219.62628	    70.19910	     0.00000	     9.43079	    29.50535	     0.00000
0.31061	   228.28715	    70.65528	     0.00000	     9.99166	    32.28303	     0.00000
0.31944	   236.67308	    71.04800	     0.00000	    10.54955	    35.14237	     0.00000
0.32828	   244.97934	    71.38359	     0.00000	    11.10411	    38.10790	     0.00000
0.33712	   253.19477	    71.67146	     0.00000	    11.65566	    41.17612	     0.00000
0.34596	   261.22772	    71.92543	     0.00000	    12.20553	    44.32955	     0.00000
0.35480	   269.12917	    72.14257	     0.00000	    12.75248	    47.57334	     0.00000
0.36364	   276.86934	    72.33717	     0.00000	    13.29835	    50.89921	     0.00000
0.37247	   284.42706	    72.51583	     0.00000	    13.84393	    54.29971	     0.00000
0.38131	   291.94792	    72.66790	     0.00000	    14.38678	    57.79979	     0.00000
0.39015	   299.40425	    72.79640	     0.00000	    14.92694	    61.39299	     0.00000
0.39899	   306.87031	    72.90110	     0.00000	    15.46387	    65.09370	     0.00000
0.40783	   314.31482	    72.98603	     0.00000	    15.99795	    68.89527	     0.00000
0.41667	   321.72044	    73.05399	     0.00000	    16.52939	    72.79331	     0.00000
0.42551	   329.14259	    73.10398	     0.00000	    17.05759	    76.79994	     0.00000
0.43434	   336.51201	    73.14118	     0.00000	    17.58343	    80.89885	     0.00000
0.44318	   343.90122	    73.16294	     0.00000	    18.10598	    85.10687	     0.00000
0.45202	   351.26973	    73.17278	     0.00000	    18.62580	    89.41411	     0.00000
0.46086	   358.62270	    73.17170	     0.00000	    19.14290	    93.82149	     0.00000
0.46970	   365.98822	    73.15933	     0.00000	    19.65695	    98.33623	     0.00000
0.47854	   373.30824	    73.13984	     0.00000	    20.16886	   102.94257	     0.00000
0.48737	   380.64788	    73.11046	     0.00000	    20.67771	   107.65799	     0.00000
0.49621	   387.96368	    73.07409	     0.00000	    21.18410	   112.47028	     0.00000
0.50505	   395.27771	    73.02991	     0.00000	    21.68767	   117.38550	     0.00000
0.51389	   402.60001	    72.97806	     0.00000	    22.18828	   122.40667	     0.00000
0.52273	   409.89309	    72.92065	     0.00000	    22.68643	   127.52229	     0.00000
0.53157	   417.20391	    72.85664	     0.00000	    23.18166	   132.74670	     0.00000
0.54040	   424.49197	    72.78791	     0.00000	    23.67445	   138.06708	     0.00000
0.54924	   431.78371	    72.71345	     0.00000	    24.16437	   143.49176	     0.00000
0.55808	   439.07574	    72.63363	     0.00000	    24.65141	   149.01965	     0.00000
0.56692	   446.34995	    72.54903	     0.00000	    25.13567	   154.64448	     0.00000
0.57576	   453.63186	    72.45911	     0.00000	    25.61686	   160.37490	     0.00000
0.58460	   460.89541	    72.36462	     0.00000	    26.09512	   166.20168	     0.00000
0.59343	   468.15975	    72.26520	     0.00000	    26.57024	   172.13146	     0.00000
0.60227	   475.41753	    72.15965	     0.00000	    27.04164	   178.16152	     0.00000
0.61111	   482.66248	    72.04923	     0.00000	    27.50971	   184.28931	     0.00000
0.61995	   489.90397	    71.93320	     0.00000	    27.97402	   190.51821	     0.00000
0.62879	   497.12263	    71.81198	     0.00000	    28.43464	   196.84048	     0.00000
0.63763	   504.33204	    71.68605	     0.00000	    28.89165	   203.26109	     0.00000
0.64646	   511.52217	    71.55374	     0.00000	    29.34426	   209.77576	     0.00000
0.65530	   518.68505	    71.41536	     0.00000	    29.79247	   216.38073	     0.00000
0.66414	   525.82691	    71.26882	     0.00000	    30.23526	   223.07808	     0.00000
0.67298	   532.93874	    71.11390	     0.00000	    30.67236	   229.86348	     0.00000
0.68182	   540.02252	    70.94967	     0.00000	    31.10319	   236.73715	     0.00000
0.69066	   547.06495	    70.77460	     0.00000	    31.52687	   243.69257	     0.00000
0.69949	   554.06379	    70.58915	     0.00000	    31.94337	   250.72786	     0.00000
0.70833	   561.01727	    70.39125	     0.00000	    32.35153	   257.84127	     0.00000
0.71717	   567.91405	    70.17835	     0.00000	    32.74990	   265.02655	     0.00000
0.72601	   574.75209	    69.94841	     0.00000	    33.13718	   272.28155	     0.00000
0.73485	   581.51686	    69.70023	     0.00000	    33.51243	   279.59801	     0.00000
0.74369	   588.19820	    69.43072	     0.00000	    33.87377	   286.96943	     0.00000
0.75253	   594.78235	    69.13729	     0.00000	    34.21947	   294.38722	     0.00000
0.76136	   601.25884	    68.81763	     0.00000	    34.54784	   301.84409	     0.00000
0.77020	   607.61843	    68.46918	     0.00000	    34.85704	   309.33302	     0.00000
0.77904	   613.84582	    68.08858	     0.00000	    35.14471	   316.84365	     0.00000
0.78788	   619.91858	    67.67068	     0.00000	    35.40749	   324.36144	     0.00000
0.79672	   625.81372	    67.21155	     0.00000	    35.64249	   331.87091	     0.00000
0.80556	   631.51001	    66.70683	     0.00000	    35.84650	   339.35689	     0.00000
0.81439	   636.98540	    66.14963	     0.00000	    36.01480	   346.80316	     0.00000
0.82323	   642.20671	    65.53417	     0.00000	    36.14309	   354.18673	     0.00000
0.83207	   647.14006	    64.85374	     0.00000	    36.22638	   361.48328	     0.00000
0.84091	   651.74731	    64.10039	     0.00000	    36.25881	   368.66515	     0.00000
0.84975	   655.98593	    63.26419	     0.00000	    36.23313	   375.70103	     0.00000
0.85859	   659.79842	    62.33594	     0.00000	    36.14225	   382.54979	     0.00000
0.86742	   663.13919	    61.30624	     0.00000	    35.97871	   389.17562	     0.00000
0.87626	   665.93591	    60.16234	     0.00000	    35.73278	   395.52557	     0.00000
0.88510	   668.09491	    58.88822	     0.00000	    35.39241	   401.53179	     0.00000
0.89394	   669.54745	    57.47196	     0.00000	    34.94760	   407.13895	     0.00000
0.90278	   670.19367	    55.89697	     0.00000	    34.38511	   412.27065	     0.00000
0.91162	   669.88391	    54.14065	     0.00000	    33.68752	   416.81665	     0.00000
0.92045	   668.49533	    52.18170	     0.00000	    32.83757	   420.67938	     0.00000
0.92929	   665.84728	    49.99771	     0.00000	    31.81673	   423.72099	     0.00000
0.93813	   661.71763	    47.55666	     0.00000	    30.59959	   425.77185	     0.00000
0.94697	   655.73943	    44.80929	     0.00000	    29.14867	   426.56181	     0.00000
0.95581	   647.39585	    41.73257	     0.00000	    27.44233	   425.71182	     0.00000
0.96465	   636.34941	    38.24832	     0.00000	    25.42161	   422.94738	     0.00000
0.97348	   621.89092	    34.23407	     0.00000	    22.99562	   417.73481	     0.00000
0.98232	   602.69090	    29.49163	     0.00000	    20.01856	   409.09928	     0.00000
0.99116	   575.61817	    23.53343	     0.00000	    16.14061	   394.79267	     0.00000
1.00000	     0.00000	     0.00000	     0.00000	     0.00000	     0.00000	     0.00000
