# VOILAb: Unsteady BEM
# Force / moment distributions: Clean 1
# r/R	f_x [N/m]	f_y [N/m]	f_z [N/m]	m_x [Nm/m]	m_y [Nm/m]	m_z [Nm/m]
0.12500	     0.00000	     0.00000	     0.00000	     0.00000	     0.00000	     0.00000
0.13384	    36.78766	    26.84962	     0.00000	     0.00000	     0.00000	     0.00000
0.14268	    51.06829	    38.09780	     0.00000	     0.26938	     0.36109	     0.00000
0.15152	    62.89200	    46.33250	     0.00000	     0.65521	     0.88938	     0.00000
0.16035	    73.53871	    52.92923	     0.00000	     1.12274	     1.55991	     0.00000
0.16919	    83.42368	    58.42298	     0.00000	     1.65237	     2.35946	     0.00000
0.17803	    92.44549	    63.01222	     0.00000	     2.22770	     3.26827	     0.00000
0.18687	    99.96248	    66.67444	     0.00000	     2.82861	     4.24083	     0.00000
0.19571	   106.62348	    69.63107	     0.00000	     3.44639	     5.27732	     0.00000
0.20455	   113.56894	    72.35247	     0.00000	     4.09266	     6.42410	     0.00000
0.21338	   120.76593	    74.86615	     0.00000	     4.76421	     7.68510	     0.00000
0.22222	   127.97052	    77.14014	     0.00000	     5.45435	     9.04842	     0.00000
0.23106	   135.17058	    79.22321	     0.00000	     6.16181	    10.51327	     0.00000
0.23990	   142.39322	    81.16702	     0.00000	     6.88690	    12.08185	     0.00000
0.24874	   149.44836	    82.92615	     0.00000	     7.62251	    13.73717	     0.00000
0.25758	   156.36397	    84.51668	     0.00000	     8.36630	    15.47845	     0.00000
0.26641	   163.15008	    85.96106	     0.00000	     9.11708	    17.30380	     0.00000
0.27525	   169.86446	    87.28304	     0.00000	     9.87445	    19.21699	     0.00000
0.28409	   176.30711	    88.47105	     0.00000	    10.63440	    21.19247	     0.00000
0.29293	   182.56612	    89.54383	     0.00000	    11.39649	    23.23569	     0.00000
0.30177	   188.68955	    90.51449	     0.00000	    12.16003	    25.34920	     0.00000
0.31061	   194.67745	    91.39065	     0.00000	    12.92393	    27.53014	     0.00000
0.31944	   200.41837	    92.17204	     0.00000	    13.68615	    29.75909	     0.00000
0.32828	   206.04540	    92.87287	     0.00000	    14.44689	    32.05151	     0.00000
0.33712	   211.49683	    93.47877	     0.00000	    15.20210	    34.39494	     0.00000
0.34596	   216.62856	    93.96714	     0.00000	    15.94594	    36.76121	     0.00000
0.35480	   221.56248	    94.36927	     0.00000	    16.68144	    39.16508	     0.00000
0.36364	   226.28014	    94.69422	     0.00000	    17.40843	    41.59898	     0.00000
0.37247	   230.78839	    94.94996	     0.00000	    18.12681	    44.05960	     0.00000
0.38131	   235.14650	    95.13218	     0.00000	    18.83425	    46.55426	     0.00000
0.39015	   239.47580	    95.28284	     0.00000	    19.53779	    49.10463	     0.00000
0.39899	   243.74122	    95.38728	     0.00000	    20.23367	    51.70268	     0.00000
0.40783	   247.95845	    95.45691	     0.00000	    20.92338	    54.35049	     0.00000
0.41667	   252.13808	    95.49854	     0.00000	    21.60775	    57.04942	     0.00000
0.42551	   256.25339	    95.50157	     0.00000	    22.28370	    59.79246	     0.00000
0.43434	   260.36222	    95.49243	     0.00000	    22.95677	    62.59213	     0.00000
0.44318	   264.40584	    95.44784	     0.00000	    23.62093	    65.43377	     0.00000
0.45202	   268.42209	    95.38495	     0.00000	    24.27981	    68.32562	     0.00000
0.46086	   272.41253	    95.30529	     0.00000	    24.93340	    71.26752	     0.00000
0.46970	   276.34482	    95.19808	     0.00000	    25.57847	    74.25022	     0.00000
0.47854	   280.29037	    95.08982	     0.00000	    26.22174	    77.29219	     0.00000
0.48737	   284.17138	    94.95390	     0.00000	    26.85565	    80.37170	     0.00000
0.49621	   288.04856	    94.81266	     0.00000	    27.48609	    83.50499	     0.00000
0.50505	   291.89395	    94.65746	     0.00000	    28.11040	    86.68366	     0.00000
0.51389	   295.68848	    94.48283	     0.00000	    28.72660	    89.90124	     0.00000
0.52273	   299.50141	    94.31164	     0.00000	    29.34140	    93.17822	     0.00000
0.53157	   303.24863	    94.11704	     0.00000	    29.94633	    96.48820	     0.00000
0.54040	   306.96524	    93.90436	     0.00000	    30.54263	    99.84122	     0.00000
0.54924	   310.60228	    93.66050	     0.00000	    31.12556	   103.22035	     0.00000
0.55808	   314.20799	    93.40554	     0.00000	    31.70128	   106.64029	     0.00000
0.56692	   317.81547	    93.14925	     0.00000	    32.27292	   110.11182	     0.00000
0.57576	   321.37073	    92.87740	     0.00000	    32.83544	   113.61591	     0.00000
0.58460	   324.93685	    92.60660	     0.00000	    33.39450	   117.17420	     0.00000
0.59343	   328.46378	    92.32397	     0.00000	    33.94538	   120.76850	     0.00000
0.60227	   331.97392	    92.03470	     0.00000	    34.48977	   124.40639	     0.00000
0.61111	   335.47684	    91.74211	     0.00000	    35.02881	   128.09116	     0.00000
0.61995	   338.93260	    91.43629	     0.00000	    35.55856	   131.80712	     0.00000
0.62879	   342.39412	    91.13084	     0.00000	    36.08413	   135.57424	     0.00000
0.63763	   345.81165	    90.81361	     0.00000	    36.60064	   139.37257	     0.00000
0.64646	   349.21210	    90.49079	     0.00000	    37.11036	   143.21224	     0.00000
0.65530	   352.58558	    90.16054	     0.00000	    37.61243	   147.08873	     0.00000
0.66414	   355.90586	    89.81572	     0.00000	    38.10364	   150.99036	     0.00000
0.67298	   359.22375	    89.46831	     0.00000	    38.58886	   154.93792	     0.00000
0.68182	   362.49432	    89.10776	     0.00000	    39.06340	   158.91165	     0.00000
0.69066	   365.75007	    88.74130	     0.00000	    39.53021	   162.92503	     0.00000
0.69949	   368.99381	    88.36946	     0.00000	    39.98941	   166.97902	     0.00000
0.70833	   372.34512	    88.02279	     0.00000	    40.45492	   171.12831	     0.00000
0.71717	   375.68941	    87.67022	     0.00000	    40.91277	   175.32172	     0.00000
0.72601	   378.96168	    87.29709	     0.00000	    41.35589	   179.52831	     0.00000
0.73485	   382.18142	    86.90739	     0.00000	    41.78577	   183.75592	     0.00000
0.74369	   385.37221	    86.50540	     0.00000	    42.20415	   188.01492	     0.00000
0.75253	   388.52027	    86.08733	     0.00000	    42.60888	   192.29791	     0.00000
0.76136	   391.66710	    85.66068	     0.00000	    43.00339	   196.62480	     0.00000
0.77020	   394.76039	    85.21375	     0.00000	    43.38154	   200.96893	     0.00000
0.77904	   397.79888	    84.74525	     0.00000	    43.74225	   205.32852	     0.00000
0.78788	   400.79738	    84.25708	     0.00000	    44.08603	   209.71015	     0.00000
0.79672	   403.71422	    83.73956	     0.00000	    44.40734	   214.09087	     0.00000
0.80556	   406.55181	    83.19175	     0.00000	    44.70506	   218.47026	     0.00000
0.81439	   409.32221	    82.61358	     0.00000	    44.97851	   222.85320	     0.00000
0.82323	   412.02358	    82.00287	     0.00000	    45.22583	   227.23725	     0.00000
0.83207	   414.82033	    81.39297	     0.00000	    45.46496	   231.71277	     0.00000
0.84091	   417.51879	    80.73817	     0.00000	    45.67008	   236.17224	     0.00000
0.84975	   420.10384	    80.03128	     0.00000	    45.83610	   240.60493	     0.00000
0.85859	   422.55286	    79.26354	     0.00000	    45.95684	   244.99530	     0.00000
0.86742	   424.85234	    78.42615	     0.00000	    46.02585	   249.33253	     0.00000
0.87626	   426.97112	    77.50587	     0.00000	    46.03379	   253.59497	     0.00000
0.88510	   428.87073	    76.48527	     0.00000	    45.96842	   257.75564	     0.00000
0.89394	   430.51771	    75.34812	     0.00000	    45.81774	   261.78956	     0.00000
0.90278	   431.91275	    74.06033	     0.00000	    45.55832	   265.69178	     0.00000
0.91162	   432.96304	    72.57854	     0.00000	    45.15998	   269.39922	     0.00000
0.92045	   433.52868	    70.86489	     0.00000	    44.59478	   272.81653	     0.00000
0.92929	   433.46665	    68.85211	     0.00000	    43.81498	   275.84242	     0.00000
0.93813	   432.57485	    66.43559	     0.00000	    42.74694	   278.33351	     0.00000
0.94697	   430.82756	    63.44087	     0.00000	    41.26861	   280.25550	     0.00000
0.95581	   427.55524	    59.57988	     0.00000	    39.17829	   281.14996	     0.00000
0.96465	   416.88282	    54.43116	     0.00000	    36.17748	   277.07969	     0.00000
0.97348	   403.93007	    49.06180	     0.00000	    32.95565	   271.32676	     0.00000
0.98232	   387.26400	    42.55742	     0.00000	    28.88746	   262.87011	     0.00000
0.99116	   366.29319	    34.94019	     0.00000	    23.96403	   251.22533	     0.00000
1.00000	     0.00000	     0.00000	     0.00000	     0.00000	     0.00000	     0.00000
